# Blender MTL File: 'None'
# Material Count: 3

newmtl Ground
Ns 150.619811
Ka 1.000000 1.000000 1.000000
Kd 0.029131 0.215697 0.026391
Ks 0.132727 0.132727 0.132727
Ke 0.000000 0.000000 0.000000
Ni 1.450000
d 1.000000
illum 2
map_Kd grass.jpg

newmtl Material.001
Ns 749.763957
Ka 0.010000 0.300000 0.010000
Kd 0.011179 0.319864 0.015129
Ks 0.081818 0.081818 0.081818
Ke 0.000000 0.000000 0.000000
Ni 1.450000
d 1.000000
illum 2

newmtl Trunk
Ns 225.000000
Ka 1.000000 1.000000 1.000000
Kd 0.140867 0.044788 0.016952
Ks 0.081818 0.081818 0.081818
Ke 0.000000 0.000000 0.000000
Ni 1.450000
d 1.000000
illum 2
map_Kd trunk.jpg
