^C:\TANGUI\INSA\INFO\4A\INFO GRAPHIQUE\PROJET\PROJETIG\SRC\COMPUTER-GRAPHICS-PROJECT-SPACE\SFMLGRAPHICSPIPELINE\EXTLIB\TINYOBJLOADER\BUILD\CMAKEFILES\3.18.2\COMPILERIDCXX\CMAKECXXCOMPILERID.CPP
C:\PROGRAM FILES (X86)\MICROSOFT VISUAL STUDIO\2019\COMMUNITY\VC\TOOLS\MSVC\14.23.28105\BIN\HOSTX64\X64\1036\CLUI.DLL
C:\WINDOWS\GLOBALIZATION\SORTING\SORTDEFAULT.NLS
C:\WINDOWS\SYSTEM32\TZRES.DLL
