# Blender v2.79 (sub 0) OBJ File: ''
# www.blender.org
mtllib challenge_stage.mtl
o Dummy002_Untitled
v -1.743100 0.532600 -1.692400
v -1.743100 0.532600 -1.414300
v -1.694700 -0.001600 -1.644100
v -1.694700 -0.001600 -1.462700
v -1.692400 0.532600 1.464900
v -1.692400 0.532600 1.743100
v -1.644100 -0.001600 1.513300
v -1.644100 -0.001600 1.694700
v -1.513300 -0.001600 -1.644100
v -1.513300 -0.001600 -1.462700
v -1.464900 0.532600 -1.692400
v -1.464900 0.532600 -1.414300
v -1.462700 -0.001600 1.513300
v -1.462700 -0.001600 1.694700
v -1.414300 0.532600 1.464900
v -1.414300 0.532600 1.743100
v 1.414300 0.532600 -1.743100
v 1.414300 0.532600 -1.464900
v 1.462700 -0.001600 -1.694700
v 1.462700 -0.001600 -1.513300
v 1.464900 0.532600 1.414300
v 1.464900 0.532600 1.692400
v 1.513300 -0.001600 1.462700
v 1.513300 -0.001600 1.644100
v 1.644100 -0.001600 -1.694700
v 1.644100 -0.001600 -1.513300
v 1.692400 0.532600 -1.743100
v 1.692400 0.532600 -1.464900
v 1.694700 -0.001600 1.462700
v 1.694700 -0.001600 1.644100
v 1.743100 0.532600 1.414300
v 1.743100 0.532600 1.692400
v -1.992600 0.596100 -1.731800
v -1.992600 0.596100 1.803600
v -1.992600 0.596100 2.083300
v -1.930300 0.449400 -1.669600
v -1.930300 0.449400 1.741300
v -1.930300 0.449400 2.021000
v -1.625800 0.596100 0.058500
v -1.020700 0.596100 -2.478500
v -1.020700 0.596100 -1.731800
v -1.019700 0.449400 1.741300
v -1.019700 0.449400 2.021000
v -1.013300 0.449400 -2.416200
v -1.013300 0.449400 -1.669600
v -1.012500 0.596100 1.803600
v -1.012500 0.596100 2.083300
v -0.680400 0.596100 -0.553100
v -0.670700 0.596100 0.406500
v -0.639700 0.596100 1.500000
v -0.633300 0.596100 -1.802900
v -0.098600 0.596100 1.064800
v -0.092100 0.596100 -1.308900
v 0.194100 0.596100 0.867900
v 0.224300 0.596100 -1.036600
v 0.314000 0.449400 1.741300
v 0.314000 0.449400 2.124700
v 0.319500 0.596100 1.803600
v 0.319500 0.596100 2.187000
v 0.400500 0.596100 -2.478500
v 0.400500 0.596100 -1.992600
v 0.431500 0.449400 -2.416200
v 0.431500 0.449400 -1.930300
v 0.792400 0.596100 1.007800
v 0.828500 0.596100 -0.084100
v 0.910500 0.596100 -1.118200
v 1.030400 0.596100 1.992600
v 1.030400 0.596100 2.187000
v 1.040000 0.449400 1.930300
v 1.040000 0.449400 2.124700
v 1.071200 0.596100 -1.992600
v 1.160300 0.596100 -0.560200
v 1.443900 0.596100 1.142500
v 1.526100 0.596100 -1.189700
v 1.930300 0.449400 -1.930300
v 1.930300 0.449400 1.930300
v 1.992600 0.596100 -1.992600
v 1.992600 0.596100 1.992600
vt -1.788400 2.465100
vt -1.595200 2.465100
vt -1.788400 1.589900
vt -1.595200 1.589900
vt -1.595200 2.465100
vt -1.788400 2.465100
vt -1.595200 1.589900
vt -1.788400 1.589900
vt -1.595200 2.465100
vt -1.595200 1.589900
vt -1.788400 2.465100
vt -1.788400 1.589900
vt -1.788400 2.465100
vt -1.788400 1.589900
vt -1.595200 2.465100
vt -1.595200 1.589900
vt -1.595200 2.465100
vt -1.788400 2.465100
vt -1.595200 1.589900
vt -1.788400 1.589900
vt -1.788400 2.465100
vt -1.595200 2.465100
vt -1.788400 1.589900
vt -1.595200 1.589900
vt -1.595200 2.465100
vt -1.595200 1.589900
vt -1.788400 2.465100
vt -1.788400 1.589900
vt -1.595200 2.465100
vt -1.595200 1.589900
vt -1.788400 2.465100
vt -1.788400 1.589900
vt 4.182700 0.748600
vt -4.267600 0.748600
vt 4.071900 0.232200
vt -4.157000 0.232200
vt 4.071900 0.232200
vt 4.182700 0.748600
vt 1.490900 -1.056000
vt 1.634200 -1.056000
vt 1.490900 -0.467900
vt 1.634200 -0.467900
vt -4.202400 0.748600
vt -2.149500 0.748600
vt -4.093500 0.232200
vt -2.146500 0.232200
vt 1.458900 -0.472200
vt 1.602300 -0.472200
vt 1.458900 -1.018600
vt 1.602300 -1.018600
vt 0.596400 -0.835900
vt -0.321100 -1.056000
vt -2.146500 0.232200
vt -2.149500 0.748600
vt 2.121400 0.232200
vt 2.094200 0.748600
vt 2.121400 0.232200
vt 2.094200 0.748600
vt -0.289200 -1.018600
vt -0.289200 -0.468400
vt -0.321100 -0.472800
vt 0.282900 -0.268600
vt 0.774800 -0.262800
vt -0.357600 -0.240300
vt -0.703800 -0.472800
vt 1.335300 -0.244200
vt -0.735800 0.232200
vt -0.744300 0.748600
vt -0.422800 0.398500
vt 1.458900 0.328100
vt 0.921200 0.232200
vt 0.852500 0.748600
vt -0.671900 -0.468400
vt -0.671900 0.398500
vt 1.490900 0.331300
vt -0.703800 0.379900
vt -0.454800 0.379900
vt 1.112200 0.080400
vt -0.104300 0.084300
vt 1.011300 0.256100
vt 0.035100 0.274200
vt 1.083000 0.615100
vt -0.735800 0.232200
vt -0.744300 0.748600
vt -0.454800 0.782400
vt 0.852500 0.748600
vt 2.269300 0.748600
vt 0.921200 0.232200
vt -0.006600 0.685900
vt 0.279300 0.835800
vt 0.523300 0.636700
vt 1.152000 1.006000
vt -0.043300 1.055300
vt 1.687400 0.331300
vt 1.587700 0.757900
vt 1.687400 0.757900
vt -2.290900 0.232200
vt -2.259200 0.748600
vt 1.555800 0.763700
vt 1.655500 0.328100
vt 1.655500 0.763700
vt 1.587700 1.335200
vt -0.422800 1.297900
vt 1.555800 1.297900
vt -0.454800 1.335200
vt -2.290900 0.232200
vt -2.259200 0.748600
vt 4.103700 0.232200
vt 4.215400 0.748600
vt -4.309600 0.748600
vt -4.197900 0.232200
vt -0.038300 2.658100
vt 0.211100 2.389700
vt 0.303800 2.757700
vt 0.254100 2.097300
vt 0.003800 2.021400
vt 0.612900 2.875500
vt 0.520100 2.999900
vt 0.709500 2.759100
vt 0.515900 2.169400
vt 0.840100 2.424400
vt 0.716500 2.062600
vt 0.958900 1.997800
vt 1.034500 2.661000
vt 0.872000 2.710100
vt 0.918300 2.519500
vn -0.9959 -0.0902 0.0000
vn -0.9959 -0.0900 0.0000
vn 0.0000 -0.0902 0.9959
vn 0.0000 -0.0900 -0.9959
vn 0.0000 -0.0902 -0.9959
vn 0.9959 -0.0902 0.0000
vn 0.0000 -0.0900 0.9959
vn 0.9959 -0.0900 0.0000
vn -0.9204 -0.3909 -0.0000
vn -0.0000 1.0000 0.0000
vn 0.0000 -0.3904 -0.9207
vn 0.0000 -1.0000 -0.0000
vn -0.9987 -0.0504 -0.0000
vn 0.9988 -0.0490 0.0000
vn 0.0000 -0.3909 0.9204
vn 0.0000 -0.3909 -0.9204
vn -0.9993 0.0375 0.0000
vn 0.9784 0.2067 0.0000
vn 0.9979 0.0653 0.0000
vn 0.9204 -0.3909 -0.0000
usemtl Material_#66
s 1
f 2/1/1 1/2/1 4/3/1
f 1/2/1 3/4/1 4/3/1
f 6/5/2 5/6/2 8/7/2
f 7/8/2 8/7/2 5/6/2
f 12/9/3 2/1/3 10/10/3
f 4/3/3 10/10/3 2/1/3
f 1/2/4 11/11/4 3/4/4
f 9/12/4 3/4/4 11/11/4
f 16/13/3 6/5/3 14/14/3
f 6/5/3 8/7/3 14/14/3
f 5/6/5 15/15/5 7/8/5
f 13/16/5 7/8/5 15/15/5
f 11/11/6 12/9/6 9/12/6
f 10/10/6 9/12/6 12/9/6
f 15/15/6 16/13/6 13/16/6
f 14/14/6 13/16/6 16/13/6
f 18/17/1 17/18/1 20/19/1
f 19/20/1 20/19/1 17/18/1
f 22/21/1 21/22/1 24/23/1
f 23/24/1 24/23/1 21/22/1
f 17/18/5 27/25/5 19/20/5
f 27/25/5 25/26/5 19/20/5
f 28/27/3 18/17/3 26/28/3
f 20/19/3 26/28/3 18/17/3
f 32/29/7 22/21/7 30/30/7
f 24/23/7 30/30/7 22/21/7
f 21/22/5 31/31/5 23/24/5
f 29/32/5 23/24/5 31/31/5
f 27/25/8 28/27/8 25/26/8
f 26/28/8 25/26/8 28/27/8
f 31/31/6 32/29/6 29/32/6
f 32/29/6 30/30/6 29/32/6
usemtl Material_#67
f 34/33/9 33/34/9 37/35/9
f 36/36/9 37/35/9 33/34/9
f 37/35/9 38/37/9 34/33/9
f 34/33/9 38/37/9 35/38/9
f 34/39/10 35/40/10 46/41/10
f 46/41/10 35/40/10 47/42/10
f 33/43/11 41/44/11 36/45/11
f 41/44/11 45/46/11 36/45/11
f 42/47/12 43/48/12 37/49/12
f 37/49/12 43/48/12 38/50/12
f 34/39/10 39/51/10 33/52/10
f 45/46/13 41/44/13 44/53/13
f 41/44/13 40/54/13 44/53/13
f 42/55/14 46/56/14 43/57/14
f 46/56/14 47/58/14 43/57/14
f 38/37/15 47/58/15 35/38/15
f 36/59/12 45/60/12 37/49/12
f 33/52/10 39/51/10 41/61/10
f 34/39/10 46/41/10 39/51/10
f 37/49/12 45/60/12 42/47/12
f 38/37/15 43/57/15 47/58/15
f 39/51/10 48/62/10 41/61/10
f 46/41/10 49/63/10 39/51/10
f 41/61/10 51/64/10 40/65/10
f 41/61/10 48/62/10 51/64/10
f 46/41/10 50/66/10 49/63/10
f 42/55/15 56/67/15 46/56/15
f 56/67/15 58/68/15 46/56/15
f 63/69/12 56/70/12 45/60/12
f 42/47/12 45/60/12 56/70/12
f 62/71/16 44/53/16 60/72/16
f 44/53/16 40/54/16 60/72/16
f 45/60/12 44/73/12 63/69/12
f 63/69/12 44/73/12 62/74/12
f 46/41/10 58/75/10 50/66/10
f 40/65/10 51/64/10 60/76/10
f 51/64/10 61/77/10 60/76/10
f 50/66/10 58/75/10 52/78/10
f 61/77/10 51/64/10 53/79/10
f 52/78/10 58/75/10 54/80/10
f 61/77/10 53/79/10 55/81/10
f 58/75/10 64/82/10 54/80/10
f 56/67/17 57/83/17 58/68/17
f 58/68/17 57/83/17 59/84/17
f 61/77/10 55/81/10 71/85/10
f 61/86/16 71/87/16 63/88/16
f 71/85/10 55/81/10 66/89/10
f 63/88/18 62/71/18 61/86/18
f 61/86/18 62/71/18 60/72/18
f 72/90/10 65/91/10 73/92/10
f 71/85/10 66/89/10 74/93/10
f 58/75/10 59/94/10 67/95/10
f 67/95/10 59/94/10 68/96/10
f 57/83/15 70/97/15 59/84/15
f 70/97/15 68/98/15 59/84/15
f 56/70/12 69/99/12 57/100/12
f 69/99/12 70/101/12 57/100/12
f 74/93/10 72/90/10 73/92/10
f 67/95/10 78/102/10 73/92/10
f 58/75/10 67/95/10 64/82/10
f 73/92/10 64/82/10 67/95/10
f 69/99/12 75/103/12 76/104/12
f 75/103/12 69/99/12 63/69/12
f 63/69/12 69/99/12 56/70/12
f 73/92/10 78/102/10 77/105/10
f 69/106/19 67/107/19 70/97/19
f 67/107/19 68/98/19 70/97/19
f 63/88/16 71/87/16 75/108/16
f 71/87/16 77/109/16 75/108/16
f 78/110/15 67/107/15 76/111/15
f 69/106/15 76/111/15 67/107/15
f 73/92/10 77/105/10 74/93/10
f 71/85/10 74/93/10 77/105/10
f 77/109/20 78/110/20 75/108/20
f 76/111/20 75/108/20 78/110/20
usemtl Material_#68
f 39/112/10 49/113/10 48/114/10
f 52/115/10 49/113/10 50/116/10
f 48/114/10 53/117/10 51/118/10
f 55/119/10 48/114/10 54/120/10
f 48/114/10 49/113/10 54/120/10
f 54/120/10 49/113/10 52/115/10
f 48/114/10 55/119/10 53/117/10
f 65/121/10 55/119/10 54/120/10
f 64/122/10 65/121/10 54/120/10
f 73/123/10 65/121/10 64/122/10
f 74/124/10 66/125/10 72/126/10
f 55/119/10 65/121/10 66/125/10
f 66/125/10 65/121/10 72/126/10
