# Blender v2.81 (sub 16) OBJ File: 'dock.blend'
# www.blender.org
mtllib dock.mtl
o Cube
v -1.308783 0.000000 0.000000
v -1.093081 0.506651 -1.989660
v -1.136380 -0.404948 -2.079907
v -1.061048 0.486206 1.916574
v -1.099074 -0.388607 2.005850
v -1.136380 -0.404948 -0.003868
v -1.308783 0.000000 -2.439239
v -1.093081 0.506651 -0.004839
v -1.250482 0.000000 2.361314
v -0.498750 -0.865578 -2.114842
v -0.488553 0.830649 2.040409
v -0.498750 -0.865578 -0.003492
v -0.625241 0.000000 2.361314
v -0.654391 0.000000 -2.439239
v -0.488553 -0.830649 2.040409
v -0.498750 0.865578 -2.114842
v -0.498750 0.865578 -0.003492
v -1.308783 0.000000 -1.219619
v -1.093081 0.506651 -0.997249
v -1.136380 -0.404948 -1.041887
v -0.498750 -0.865578 -1.059167
v -0.498750 0.865578 -1.059167
v -0.498750 -0.865578 -0.003492
v -0.498750 -0.865578 -1.059167
v -0.521549 -1.354374 -0.801289
v 0.000000 0.000000 2.361314
v 0.000000 0.000000 -2.439239
v 1.308783 0.000000 0.000000
v 1.093081 0.506651 -1.989660
v 1.136380 -0.404948 -2.079907
v 1.061048 0.486206 1.916574
v 1.099074 -0.388607 2.005850
v 1.136380 -0.404948 -0.003868
v 1.308783 0.000000 -2.439239
v 1.093081 0.506651 -0.004839
v 1.250482 0.000000 2.361314
v 0.000000 -1.000000 -2.439239
v 0.000000 0.959647 2.361314
v 0.000000 -0.959647 2.361314
v 0.000000 1.000000 -2.439239
v 0.000000 -1.000000 0.000000
v 0.000000 1.000000 0.000000
v 0.498750 -0.865578 -2.114842
v 0.488553 0.830649 2.040409
v 0.498750 -0.865578 -0.003492
v 0.625241 0.000000 2.361314
v 0.654391 0.000000 -2.439239
v 0.488553 -0.830649 2.040409
v 0.498750 0.865578 -2.114842
v 0.498750 0.865578 -0.003492
v 1.308783 0.000000 -1.219619
v 1.093081 0.506651 -0.997249
v 1.136380 -0.404948 -1.041887
v 0.000000 1.000000 -1.219619
v 0.000000 -1.000000 -1.219619
v 0.498750 -0.865578 -1.059167
v 0.498750 0.865578 -1.059167
v 0.000000 -1.000000 0.000000
v 0.498750 -0.865578 -0.003492
v 0.000000 -1.000000 -1.219619
v 0.498750 -0.865578 -1.059167
v 0.000000 -1.488797 -0.801289
v 0.521549 -1.354374 -0.801289
vt 0.357474 0.911183
vt 0.351934 0.814626
vt 0.620237 0.799646
vt 0.643418 0.892362
vt 0.846575 0.641013
vt 0.965505 0.602158
vt 0.945221 0.689802
vt 0.861896 0.727095
vt 0.181613 0.744907
vt 0.214715 0.820749
vt 0.074449 0.825834
vt 0.007215 0.748362
vt 0.693393 0.132965
vt 0.816158 0.089787
vt 0.834730 0.185538
vt 0.693393 0.212950
vt 0.721653 0.647652
vt 0.789273 0.721495
vt 0.678877 0.722594
vt 0.348658 0.738704
vt 0.209982 0.918402
vt 0.340414 0.570951
vt 0.212126 0.575671
vt 0.212852 0.573412
vt 0.339374 0.569407
vt 0.946169 0.083937
vt 0.976071 0.158125
vt 0.360637 0.502349
vt 0.675264 0.501372
vt 0.629900 0.573525
vt 0.206018 0.683017
vt 0.056966 0.683991
vt 0.626728 0.665914
vt 0.345082 0.678267
vt 0.798002 0.000161
vt 0.892511 0.007278
vt 0.190760 0.992119
vt 0.362110 0.983520
vt 0.693393 0.574562
vt 0.829443 0.549176
vt 0.731037 0.035285
vt 0.965505 0.523788
vt 0.693070 0.960230
vt 0.018488 0.999839
vt 0.061040 0.924823
vt 0.049060 0.575612
vt 0.000161 0.499467
vt 0.173378 0.499048
vt 0.175362 0.499009
vt 0.359593 0.502375
vt 0.833321 0.872989
vt 0.703133 0.876028
vt 0.693393 0.801723
vt 0.823992 0.801723
vt 0.358624 0.091966
vt 0.643272 0.112360
vt 0.619704 0.204495
vt 0.352188 0.188180
vt 0.812303 0.457341
vt 0.795549 0.371526
vt 0.886716 0.376260
vt 0.937242 0.450691
vt 0.181879 0.255287
vt 0.008374 0.250050
vt 0.076221 0.173687
vt 0.215659 0.180385
vt 0.723294 0.287136
vt 0.853300 0.281289
vt 0.693393 0.496199
vt 0.729833 0.402940
vt 0.677867 0.281486
vt 0.348120 0.264123
vt 0.212006 0.083242
vt 0.336768 0.433892
vt 0.335745 0.435384
vt 0.210048 0.424797
vt 0.209350 0.422465
vt 0.976071 0.238112
vt 0.629233 0.429506
vt 0.205410 0.316996
vt 0.057144 0.314648
vt 0.625719 0.337777
vt 0.343734 0.324641
vt 0.869965 0.371204
vt 0.954962 0.329272
vt 0.193686 0.009770
vt 0.363846 0.020044
vt 0.794725 0.363661
vt 0.693070 0.045103
vt 0.022599 0.000161
vt 0.064035 0.075178
vt 0.048646 0.423069
vt 0.833321 0.730456
vt 0.703133 0.727417
vn -0.5176 0.8555 0.0175
vn -0.2369 0.5315 0.8132
vn -0.9201 0.3917 0.0000
vn -0.2862 -0.1873 -0.9397
vn -0.2063 -0.5115 0.8342
vn -0.9223 0.3860 0.0213
vn -0.5170 0.8560 0.0000
vn 0.0000 0.0000 1.0000
vn -0.2862 0.1873 -0.9397
vn -0.2630 -0.9646 0.0171
vn -0.9201 -0.3917 0.0000
vn -0.9222 -0.3861 0.0216
vn -0.5862 -0.8100 0.0171
vn -0.2329 0.5248 -0.8187
vn -0.5856 -0.8106 0.0000
vn -0.2602 0.9655 0.0000
vn -0.2921 -0.1903 0.9373
vn -0.2024 -0.5041 -0.8396
vn -0.2921 0.1903 0.9373
vn -0.2630 0.9646 0.0171
vn -0.2602 -0.9655 0.0000
vn -0.2207 -0.8308 0.5110
vn 0.5176 0.8555 0.0175
vn 0.2369 0.5315 0.8132
vn 0.9201 0.3917 0.0000
vn 0.2862 -0.1873 -0.9397
vn 0.2063 -0.5115 0.8342
vn 0.9223 0.3860 0.0213
vn 0.5170 0.8560 0.0000
vn 0.2862 0.1873 -0.9397
vn 0.2630 -0.9646 0.0171
vn 0.9201 -0.3917 0.0000
vn 0.9222 -0.3861 0.0216
vn 0.5862 -0.8100 0.0171
vn 0.2329 0.5248 -0.8187
vn 0.5856 -0.8106 0.0000
vn 0.2602 0.9655 0.0000
vn 0.2921 -0.1903 0.9373
vn 0.2024 -0.5041 -0.8396
vn 0.2921 0.1903 0.9373
vn 0.2630 0.9646 0.0171
vn 0.2602 -0.9655 0.0000
vn 0.2207 -0.8308 0.5110
usemtl Material
s off
f 17/1/1 8/2/1 4/3/1 11/4/1
f 13/5/2 11/6/2 4/7/2 9/8/2
f 18/9/3 19/10/3 2/11/3 7/12/3
f 10/13/4 14/14/4 27/15/4 37/16/4
f 15/17/5 13/5/5 9/8/5 5/18/5
f 9/19/6 4/3/6 8/2/6 1/20/6
f 22/21/7 19/10/7 8/2/7 17/1/7
f 12/22/8 21/23/8 24/24/8 23/25/8
f 14/14/9 16/26/9 40/27/9 27/15/9
f 12/22/10 41/28/10 39/29/10 15/30/10
f 20/31/11 18/9/11 7/12/11 3/32/11
f 5/33/12 9/19/12 1/20/12 6/34/12
f 6/34/13 12/22/13 15/30/13 5/33/13
f 7/35/14 2/36/14 16/26/14 14/14/14
f 20/31/15 21/23/15 12/22/15 6/34/15
f 54/37/16 22/21/16 17/1/16 42/38/16
f 39/39/17 26/40/17 13/5/17 15/17/17
f 3/41/18 7/35/18 14/14/18 10/13/18
f 26/40/19 38/42/19 11/6/19 13/5/19
f 42/38/20 17/1/20 11/4/20 38/43/20
f 40/44/16 16/45/16 22/21/16 54/37/16
f 3/32/15 10/46/15 21/23/15 20/31/15
f 6/34/11 1/20/11 18/9/11 20/31/11
f 10/46/21 37/47/21 55/48/21 21/23/21
f 16/45/7 2/11/7 19/10/7 22/21/7
f 1/20/3 8/2/3 19/10/3 18/9/3
f 21/23/8 55/48/8 60/49/8 24/24/8
f 41/28/8 12/22/8 23/25/8 58/50/8
f 23/51/22 25/52/22 62/53/22 58/54/22
f 50/55/23 44/56/23 31/57/23 35/58/23
f 46/59/24 36/60/24 31/61/24 44/62/24
f 51/63/25 34/64/25 29/65/25 52/66/25
f 43/67/26 37/16/26 27/15/26 47/68/26
f 48/69/27 32/70/27 36/60/27 46/59/27
f 36/71/28 28/72/28 35/58/28 31/57/28
f 57/73/29 50/55/29 35/58/29 52/66/29
f 45/74/8 59/75/8 61/76/8 56/77/8
f 47/68/30 27/15/30 40/27/30 49/78/30
f 45/74/31 48/79/31 39/29/31 41/28/31
f 53/80/32 30/81/32 34/64/32 51/63/32
f 32/82/33 33/83/33 28/72/33 36/71/33
f 33/83/34 32/82/34 48/79/34 45/74/34
f 34/84/35 47/68/35 49/78/35 29/85/35
f 53/80/36 33/83/36 45/74/36 56/77/36
f 54/86/37 42/87/37 50/55/37 57/73/37
f 39/39/38 48/69/38 46/59/38 26/40/38
f 30/88/39 43/67/39 47/68/39 34/84/39
f 26/40/40 46/59/40 44/62/40 38/42/40
f 42/87/41 38/89/41 44/56/41 50/55/41
f 40/90/37 54/86/37 57/73/37 49/91/37
f 30/81/36 53/80/36 56/77/36 43/92/36
f 33/83/32 53/80/32 51/63/32 28/72/32
f 43/92/42 56/77/42 55/48/42 37/47/42
f 49/91/29 57/73/29 52/66/29 29/65/29
f 28/72/25 51/63/25 52/66/25 35/58/25
f 56/77/8 61/76/8 60/49/8 55/48/8
f 41/28/8 58/50/8 59/75/8 45/74/8
f 59/93/43 58/54/43 62/53/43 63/94/43
