^D:\INGE_INFO_ANNEE_4\COMPUTERGRAPHICS\WORKSPACE\PROJECT\SFMLGRAPHICSPIPELINE\EXTLIB\TINYOBJLOADER\CMAKELISTS.TXT
setlocal
"C:\Program Files\CMake\bin\cmake.exe" -SD:/INGE_INFO_ANNEE_4/ComputerGraphics/WORKSPACE/project/sfmlGraphicsPipeline/extlib/tinyobjloader -BD:/INGE_INFO_ANNEE_4/ComputerGraphics/WORKSPACE/project/sfmlGraphicsPipeline/extlib/tinyobjloader/build --check-stamp-file D:/INGE_INFO_ANNEE_4/ComputerGraphics/WORKSPACE/project/sfmlGraphicsPipeline/extlib/tinyobjloader/build/CMakeFiles/generate.stamp
if %errorlevel% neq 0 goto :cmEnd
:cmEnd
endlocal & call :cmErrorLevel %errorlevel% & goto :cmDone
:cmErrorLevel
exit /b %1
:cmDone
if %errorlevel% neq 0 goto :VCEnd
