^D:\INGE_INFO_ANNEE_4\COMPUTERGRAPHICS\WORKSPACE\TP2\PRACTICAL02\SFMLGRAPHICSPIPELINE\EXTLIB\FREETYPE-2.5.5\CMAKELISTS.TXT
C:\PROGRAM FILES\CMAKE\SHARE\CMAKE-3.15\MODULES\CMAKECCOMPILER.CMAKE.IN
C:\PROGRAM FILES\CMAKE\SHARE\CMAKE-3.15\MODULES\CMAKECCOMPILERABI.C
C:\PROGRAM FILES\CMAKE\SHARE\CMAKE-3.15\MODULES\CMAKECINFORMATION.CMAKE
C:\PROGRAM FILES\CMAKE\SHARE\CMAKE-3.15\MODULES\CMAKECXXCOMPILER.CMAKE.IN
C:\PROGRAM FILES\CMAKE\SHARE\CMAKE-3.15\MODULES\CMAKECXXCOMPILERABI.CPP
C:\PROGRAM FILES\CMAKE\SHARE\CMAKE-3.15\MODULES\CMAKECXXINFORMATION.CMAKE
C:\PROGRAM FILES\CMAKE\SHARE\CMAKE-3.15\MODULES\CMAKECOMMONLANGUAGEINCLUDE.CMAKE
C:\PROGRAM FILES\CMAKE\SHARE\CMAKE-3.15\MODULES\CMAKECOMPILERIDDETECTION.CMAKE
C:\PROGRAM FILES\CMAKE\SHARE\CMAKE-3.15\MODULES\CMAKEDETERMINECCOMPILER.CMAKE
C:\PROGRAM FILES\CMAKE\SHARE\CMAKE-3.15\MODULES\CMAKEDETERMINECXXCOMPILER.CMAKE
C:\PROGRAM FILES\CMAKE\SHARE\CMAKE-3.15\MODULES\CMAKEDETERMINECOMPILEFEATURES.CMAKE
C:\PROGRAM FILES\CMAKE\SHARE\CMAKE-3.15\MODULES\CMAKEDETERMINECOMPILER.CMAKE
C:\PROGRAM FILES\CMAKE\SHARE\CMAKE-3.15\MODULES\CMAKEDETERMINECOMPILERABI.CMAKE
C:\PROGRAM FILES\CMAKE\SHARE\CMAKE-3.15\MODULES\CMAKEDETERMINECOMPILERID.CMAKE
C:\PROGRAM FILES\CMAKE\SHARE\CMAKE-3.15\MODULES\CMAKEDETERMINERCCOMPILER.CMAKE
C:\PROGRAM FILES\CMAKE\SHARE\CMAKE-3.15\MODULES\CMAKEDETERMINESYSTEM.CMAKE
C:\PROGRAM FILES\CMAKE\SHARE\CMAKE-3.15\MODULES\CMAKEFINDBINUTILS.CMAKE
C:\PROGRAM FILES\CMAKE\SHARE\CMAKE-3.15\MODULES\CMAKEGENERICSYSTEM.CMAKE
C:\PROGRAM FILES\CMAKE\SHARE\CMAKE-3.15\MODULES\CMAKEINITIALIZECONFIGS.CMAKE
C:\PROGRAM FILES\CMAKE\SHARE\CMAKE-3.15\MODULES\CMAKELANGUAGEINFORMATION.CMAKE
C:\PROGRAM FILES\CMAKE\SHARE\CMAKE-3.15\MODULES\CMAKEPARSEIMPLICITINCLUDEINFO.CMAKE
C:\PROGRAM FILES\CMAKE\SHARE\CMAKE-3.15\MODULES\CMAKEPARSEIMPLICITLINKINFO.CMAKE
C:\PROGRAM FILES\CMAKE\SHARE\CMAKE-3.15\MODULES\CMAKERCCOMPILER.CMAKE.IN
C:\PROGRAM FILES\CMAKE\SHARE\CMAKE-3.15\MODULES\CMAKERCINFORMATION.CMAKE
C:\PROGRAM FILES\CMAKE\SHARE\CMAKE-3.15\MODULES\CMAKESYSTEM.CMAKE.IN
C:\PROGRAM FILES\CMAKE\SHARE\CMAKE-3.15\MODULES\CMAKESYSTEMSPECIFICINFORMATION.CMAKE
C:\PROGRAM FILES\CMAKE\SHARE\CMAKE-3.15\MODULES\CMAKESYSTEMSPECIFICINITIALIZE.CMAKE
C:\PROGRAM FILES\CMAKE\SHARE\CMAKE-3.15\MODULES\CMAKETESTCCOMPILER.CMAKE
C:\PROGRAM FILES\CMAKE\SHARE\CMAKE-3.15\MODULES\CMAKETESTCXXCOMPILER.CMAKE
C:\PROGRAM FILES\CMAKE\SHARE\CMAKE-3.15\MODULES\CMAKETESTCOMPILERCOMMON.CMAKE
C:\PROGRAM FILES\CMAKE\SHARE\CMAKE-3.15\MODULES\CMAKETESTRCCOMPILER.CMAKE
C:\PROGRAM FILES\CMAKE\SHARE\CMAKE-3.15\MODULES\CPACK.CMAKE
C:\PROGRAM FILES\CMAKE\SHARE\CMAKE-3.15\MODULES\CPACKCOMPONENT.CMAKE
C:\PROGRAM FILES\CMAKE\SHARE\CMAKE-3.15\MODULES\COMPILER\ADSP-DETERMINECOMPILER.CMAKE
C:\PROGRAM FILES\CMAKE\SHARE\CMAKE-3.15\MODULES\COMPILER\ARMCC-DETERMINECOMPILER.CMAKE
C:\PROGRAM FILES\CMAKE\SHARE\CMAKE-3.15\MODULES\COMPILER\ARMCLANG-DETERMINECOMPILER.CMAKE
C:\PROGRAM FILES\CMAKE\SHARE\CMAKE-3.15\MODULES\COMPILER\APPLECLANG-DETERMINECOMPILER.CMAKE
C:\PROGRAM FILES\CMAKE\SHARE\CMAKE-3.15\MODULES\COMPILER\BORLAND-DETERMINECOMPILER.CMAKE
C:\PROGRAM FILES\CMAKE\SHARE\CMAKE-3.15\MODULES\COMPILER\BRUCE-C-DETERMINECOMPILER.CMAKE
C:\PROGRAM FILES\CMAKE\SHARE\CMAKE-3.15\MODULES\COMPILER\CMAKECOMMONCOMPILERMACROS.CMAKE
C:\PROGRAM FILES\CMAKE\SHARE\CMAKE-3.15\MODULES\COMPILER\CLANG-DETERMINECOMPILER.CMAKE
C:\PROGRAM FILES\CMAKE\SHARE\CMAKE-3.15\MODULES\COMPILER\CLANG-DETERMINECOMPILERINTERNAL.CMAKE
C:\PROGRAM FILES\CMAKE\SHARE\CMAKE-3.15\MODULES\COMPILER\COMEAU-CXX-DETERMINECOMPILER.CMAKE
C:\PROGRAM FILES\CMAKE\SHARE\CMAKE-3.15\MODULES\COMPILER\COMPAQ-C-DETERMINECOMPILER.CMAKE
C:\PROGRAM FILES\CMAKE\SHARE\CMAKE-3.15\MODULES\COMPILER\COMPAQ-CXX-DETERMINECOMPILER.CMAKE
C:\PROGRAM FILES\CMAKE\SHARE\CMAKE-3.15\MODULES\COMPILER\CRAY-DETERMINECOMPILER.CMAKE
C:\PROGRAM FILES\CMAKE\SHARE\CMAKE-3.15\MODULES\COMPILER\EMBARCADERO-DETERMINECOMPILER.CMAKE
C:\PROGRAM FILES\CMAKE\SHARE\CMAKE-3.15\MODULES\COMPILER\FUJITSU-DETERMINECOMPILER.CMAKE
C:\PROGRAM FILES\CMAKE\SHARE\CMAKE-3.15\MODULES\COMPILER\GHS-DETERMINECOMPILER.CMAKE
C:\PROGRAM FILES\CMAKE\SHARE\CMAKE-3.15\MODULES\COMPILER\GNU-C-DETERMINECOMPILER.CMAKE
C:\PROGRAM FILES\CMAKE\SHARE\CMAKE-3.15\MODULES\COMPILER\GNU-CXX-DETERMINECOMPILER.CMAKE
C:\PROGRAM FILES\CMAKE\SHARE\CMAKE-3.15\MODULES\COMPILER\HP-C-DETERMINECOMPILER.CMAKE
C:\PROGRAM FILES\CMAKE\SHARE\CMAKE-3.15\MODULES\COMPILER\HP-CXX-DETERMINECOMPILER.CMAKE
C:\PROGRAM FILES\CMAKE\SHARE\CMAKE-3.15\MODULES\COMPILER\IAR-DETERMINECOMPILER.CMAKE
C:\PROGRAM FILES\CMAKE\SHARE\CMAKE-3.15\MODULES\COMPILER\IBMCPP-C-DETERMINEVERSIONINTERNAL.CMAKE
C:\PROGRAM FILES\CMAKE\SHARE\CMAKE-3.15\MODULES\COMPILER\IBMCPP-CXX-DETERMINEVERSIONINTERNAL.CMAKE
C:\PROGRAM FILES\CMAKE\SHARE\CMAKE-3.15\MODULES\COMPILER\INTEL-DETERMINECOMPILER.CMAKE
C:\PROGRAM FILES\CMAKE\SHARE\CMAKE-3.15\MODULES\COMPILER\MSVC-C.CMAKE
C:\PROGRAM FILES\CMAKE\SHARE\CMAKE-3.15\MODULES\COMPILER\MSVC-CXX.CMAKE
C:\PROGRAM FILES\CMAKE\SHARE\CMAKE-3.15\MODULES\COMPILER\MSVC-DETERMINECOMPILER.CMAKE
C:\PROGRAM FILES\CMAKE\SHARE\CMAKE-3.15\MODULES\COMPILER\NVIDIA-DETERMINECOMPILER.CMAKE
C:\PROGRAM FILES\CMAKE\SHARE\CMAKE-3.15\MODULES\COMPILER\OPENWATCOM-DETERMINECOMPILER.CMAKE
C:\PROGRAM FILES\CMAKE\SHARE\CMAKE-3.15\MODULES\COMPILER\PGI-DETERMINECOMPILER.CMAKE
C:\PROGRAM FILES\CMAKE\SHARE\CMAKE-3.15\MODULES\COMPILER\PATHSCALE-DETERMINECOMPILER.CMAKE
C:\PROGRAM FILES\CMAKE\SHARE\CMAKE-3.15\MODULES\COMPILER\SCO-DETERMINECOMPILER.CMAKE
C:\PROGRAM FILES\CMAKE\SHARE\CMAKE-3.15\MODULES\COMPILER\SDCC-C-DETERMINECOMPILER.CMAKE
C:\PROGRAM FILES\CMAKE\SHARE\CMAKE-3.15\MODULES\COMPILER\SUNPRO-C-DETERMINECOMPILER.CMAKE
C:\PROGRAM FILES\CMAKE\SHARE\CMAKE-3.15\MODULES\COMPILER\SUNPRO-CXX-DETERMINECOMPILER.CMAKE
C:\PROGRAM FILES\CMAKE\SHARE\CMAKE-3.15\MODULES\COMPILER\TI-DETERMINECOMPILER.CMAKE
C:\PROGRAM FILES\CMAKE\SHARE\CMAKE-3.15\MODULES\COMPILER\TINYCC-C-DETERMINECOMPILER.CMAKE
C:\PROGRAM FILES\CMAKE\SHARE\CMAKE-3.15\MODULES\COMPILER\VISUALAGE-C-DETERMINECOMPILER.CMAKE
C:\PROGRAM FILES\CMAKE\SHARE\CMAKE-3.15\MODULES\COMPILER\VISUALAGE-CXX-DETERMINECOMPILER.CMAKE
C:\PROGRAM FILES\CMAKE\SHARE\CMAKE-3.15\MODULES\COMPILER\WATCOM-DETERMINECOMPILER.CMAKE
C:\PROGRAM FILES\CMAKE\SHARE\CMAKE-3.15\MODULES\COMPILER\XL-C-DETERMINECOMPILER.CMAKE
C:\PROGRAM FILES\CMAKE\SHARE\CMAKE-3.15\MODULES\COMPILER\XL-CXX-DETERMINECOMPILER.CMAKE
C:\PROGRAM FILES\CMAKE\SHARE\CMAKE-3.15\MODULES\COMPILER\XLCLANG-C-DETERMINECOMPILER.CMAKE
C:\PROGRAM FILES\CMAKE\SHARE\CMAKE-3.15\MODULES\COMPILER\XLCLANG-CXX-DETERMINECOMPILER.CMAKE
C:\PROGRAM FILES\CMAKE\SHARE\CMAKE-3.15\MODULES\COMPILER\ZOS-C-DETERMINECOMPILER.CMAKE
C:\PROGRAM FILES\CMAKE\SHARE\CMAKE-3.15\MODULES\COMPILER\ZOS-CXX-DETERMINECOMPILER.CMAKE
C:\PROGRAM FILES\CMAKE\SHARE\CMAKE-3.15\MODULES\COMPILERID\VS-10.VCXPROJ.IN
C:\PROGRAM FILES\CMAKE\SHARE\CMAKE-3.15\MODULES\INTERNAL\FEATURETESTING.CMAKE
C:\PROGRAM FILES\CMAKE\SHARE\CMAKE-3.15\MODULES\PLATFORM\WINDOWS-DETERMINE-CXX.CMAKE
C:\PROGRAM FILES\CMAKE\SHARE\CMAKE-3.15\MODULES\PLATFORM\WINDOWS-MSVC-C.CMAKE
C:\PROGRAM FILES\CMAKE\SHARE\CMAKE-3.15\MODULES\PLATFORM\WINDOWS-MSVC-CXX.CMAKE
C:\PROGRAM FILES\CMAKE\SHARE\CMAKE-3.15\MODULES\PLATFORM\WINDOWS-MSVC.CMAKE
C:\PROGRAM FILES\CMAKE\SHARE\CMAKE-3.15\MODULES\PLATFORM\WINDOWS.CMAKE
C:\PROGRAM FILES\CMAKE\SHARE\CMAKE-3.15\MODULES\PLATFORM\WINDOWSPATHS.CMAKE
C:\PROGRAM FILES\CMAKE\SHARE\CMAKE-3.15\TEMPLATES\CPACKCONFIG.CMAKE.IN
D:\INGE_INFO_ANNEE_4\COMPUTERGRAPHICS\WORKSPACE\TP2\PRACTICAL02\SFMLGRAPHICSPIPELINE\EXTLIB\FREETYPE-2.5.5\BUILD\CMAKEFILES\3.15.3\CMAKECCOMPILER.CMAKE
D:\INGE_INFO_ANNEE_4\COMPUTERGRAPHICS\WORKSPACE\TP2\PRACTICAL02\SFMLGRAPHICSPIPELINE\EXTLIB\FREETYPE-2.5.5\BUILD\CMAKEFILES\3.15.3\CMAKECXXCOMPILER.CMAKE
D:\INGE_INFO_ANNEE_4\COMPUTERGRAPHICS\WORKSPACE\TP2\PRACTICAL02\SFMLGRAPHICSPIPELINE\EXTLIB\FREETYPE-2.5.5\BUILD\CMAKEFILES\3.15.3\CMAKERCCOMPILER.CMAKE
D:\INGE_INFO_ANNEE_4\COMPUTERGRAPHICS\WORKSPACE\TP2\PRACTICAL02\SFMLGRAPHICSPIPELINE\EXTLIB\FREETYPE-2.5.5\BUILD\CMAKEFILES\3.15.3\CMAKESYSTEM.CMAKE
