# Blender v2.81 (sub 16) OBJ File: ''
# www.blender.org
mtllib cow.mtl
o cow.001
v 2.538740 5.461255 24.717636
v 1.678189 3.805664 24.717636
v 3.028622 5.393025 25.828503
v 2.741339 7.400387 25.538424
v 2.344173 7.118578 24.713699
v 1.385945 9.061569 24.999687
v -2.344173 7.118578 24.713699
v -1.385945 9.061569 24.999687
v -2.741339 7.400387 25.538424
v -2.538740 5.461255 24.717636
v -3.028622 5.393025 25.828503
v -1.678189 3.805664 24.717636
v -1.983465 3.378341 25.877321
v 0.000000 2.554049 25.854172
v 0.000000 3.097711 24.717636
v 1.983465 3.378341 25.877321
v 3.788582 5.284207 24.654959
v 2.470079 2.697317 24.717636
v 0.000000 1.687554 24.717636
v -2.470079 2.697317 24.717636
v -3.788582 5.284207 24.654959
v -3.271968 7.760231 24.713699
v 3.271968 7.760231 24.713699
v 0.000000 21.653543 -16.363146
v -0.825236 22.149450 -16.859364
v 0.000000 18.454805 -16.588814
v 0.825236 22.149450 -16.859364
v 1.165906 23.057167 -16.096056
v 0.000000 22.960001 -17.232752
v 0.000000 23.970079 -16.554010
v -1.165906 23.057167 -16.096056
v -0.490039 18.454805 -17.021095
v 0.000000 18.543154 -17.626451
v 0.490039 18.454805 -17.021095
v 0.000000 14.025595 -17.593538
v -0.442795 14.025595 -17.144249
v 0.000000 14.025595 -16.711964
v -0.854921 9.596459 -17.156376
v 0.000000 9.596459 -17.716532
v 0.442795 14.025595 -17.144249
v 0.854921 9.596459 -17.156376
v 0.000000 25.098427 -11.918183
v 5.993543 22.611969 -14.925152
v 3.410551 20.530710 -16.522041
v 2.529409 17.523783 -16.073696
v 0.000000 18.164726 -15.728736
v -2.529409 17.523783 -16.073696
v 0.000000 12.866459 -14.033738
v 3.117480 13.983821 -14.588304
v 6.130394 15.871027 -16.306610
v 9.814802 16.195749 -13.413027
v 9.460196 13.304016 -13.365273
v 9.960827 14.022992 -7.812911
v 8.470630 21.052755 -11.139285
v 8.072677 20.253542 -4.644760
v 8.492874 14.680592 -5.266730
v 8.832244 18.536062 -0.482988
v 8.777717 12.477558 -0.053383
v 6.859133 10.358268 -2.760785
v 5.466299 8.678189 1.199175
v 7.368858 11.800275 4.829373
v 7.990866 16.635117 4.530043
v 6.556811 21.653542 2.949689
v 9.267953 19.247713 7.917247
v 6.453976 24.768816 10.251894
v 4.444291 25.616848 8.417524
v 4.468071 25.590549 10.556226
v 3.128189 22.315588 17.103624
v 8.475354 18.946926 11.939846
v 4.988622 17.850548 15.166932
v 7.365275 14.316849 12.299018
v 3.312913 13.494366 15.377167
v 5.325000 10.703738 11.877481
v 0.000000 9.350391 12.984726
v 0.000000 7.135824 8.063467
v 3.014921 8.117990 8.063467
v 3.205433 8.048030 6.025829
v 0.000000 7.307166 2.829726
v -3.205433 8.048030 6.025829
v -3.014921 8.117990 8.063467
v -5.325000 10.703738 11.877481
v -3.312913 13.494366 15.377167
v -7.365275 14.316849 12.299018
v -4.988622 17.850548 15.166932
v -8.475354 18.946926 11.939846
v -3.128189 22.315588 17.103624
v -4.341496 17.291332 19.232916
v -2.960079 20.582830 21.480791
v -6.453976 24.768816 10.251894
v -9.267953 19.247713 7.917247
v -6.556811 21.653542 2.949689
v -7.990866 16.635117 4.530043
v -8.832244 18.536062 -0.482988
v -8.072677 20.253542 -4.644760
v -8.492874 14.680592 -5.266730
v -9.960827 14.022992 -7.812911
v -8.470630 21.052755 -11.139285
v -9.814802 16.195749 -13.413027
v -9.460196 13.304016 -13.365273
v -7.206772 9.079097 -8.860981
v -6.055945 10.466694 -7.781808
v -6.859133 10.358268 -2.760785
v -8.777717 12.477558 -0.053383
v -5.466299 8.678189 1.199175
v -7.368858 11.800275 4.829373
v -3.410551 20.530710 -16.522041
v -5.993543 22.611969 -14.925152
v -6.130394 15.871027 -16.306610
v -3.117480 13.983821 -14.588304
v -2.894134 10.377129 -12.389446
v -5.063819 9.651183 -14.333147
v -6.190825 8.031459 -11.967281
v -5.250984 6.894018 -11.009841
v -5.032362 8.555711 -9.592439
v -5.668071 6.357560 -6.157597
v -5.141140 5.638622 0.038584
v -4.914961 9.145747 3.988111
v -5.497244 23.991180 -10.424326
v -4.973661 22.126143 -5.293144
v -3.030276 23.302202 1.823509
v 0.000000 24.109604 -5.612632
v 5.497244 23.991180 -10.424326
v 4.973661 22.126143 -5.293144
v 3.030276 23.302202 1.823509
v 0.000000 24.114172 1.574848
v -4.444291 25.616848 8.417524
v 0.000000 24.729290 10.155044
v -4.468071 25.590549 10.556226
v 0.000000 22.726452 15.784572
v 0.000000 5.234492 -18.631495
v 1.520945 5.465555 -16.960314
v 0.000000 9.596459 -16.588816
v -1.520945 5.465555 -16.960314
v -1.140079 3.555515 -17.263779
v 0.000000 1.631421 -17.600157
v 1.140079 3.555515 -17.263779
v 0.000000 3.824492 -16.283306
v 0.000000 5.868270 -15.787085
v -2.436811 10.420781 22.458111
v -4.397244 13.064404 21.935278
v -3.016653 11.962671 20.804567
v -1.439252 10.821962 21.449135
v -1.680000 8.698340 20.920315
v 0.000000 10.524600 21.129450
v 0.000000 8.944404 20.920315
v 0.000000 7.904641 21.579844
v 1.680000 8.698340 20.920315
v 1.439252 10.821962 21.449135
v 2.436811 10.420781 22.458111
v 2.374646 8.944403 22.581261
v 1.209055 8.037003 21.750710
v 0.000000 7.837081 22.581261
v -1.209055 8.037003 21.750710
v -2.374646 8.944403 22.581261
v -3.018268 8.446097 23.234648
v -2.547559 8.080074 22.458111
v -2.654409 10.891097 23.854174
v -3.547165 13.757948 23.973228
v -4.687126 16.415585 23.296694
v -4.927440 15.324639 20.861732
v -4.387323 17.470230 21.745827
v -4.292244 18.617474 22.925987
v -3.343976 20.106136 23.726776
v -1.573268 21.062986 23.442364
v 0.000000 21.577635 20.543627
v 0.000000 21.600626 23.278273
v -0.768504 20.400780 25.502048
v 0.000000 20.456057 25.738270
v 0.768504 20.400780 25.502048
v 1.573268 21.062986 23.442364
v 2.960079 20.582830 21.480791
v 3.343976 20.106136 23.726776
v 4.292244 18.617474 22.925987
v 4.387323 17.470230 21.745827
v 4.341496 17.291332 19.232916
v 4.927440 15.324639 20.861732
v 4.687126 16.415585 23.296694
v 4.397244 13.064404 21.935278
v 2.990866 13.884405 19.227558
v 3.016653 11.962671 20.804567
v 0.000000 11.656688 20.740473
v 0.000000 13.030546 18.776537
v -2.990866 13.884405 19.227558
v -1.295591 8.114562 22.673388
v 1.295591 8.114562 22.673388
v 0.000000 8.080074 22.871025
v 0.000000 10.420781 22.458111
v 2.547559 8.080074 22.458111
v 3.018268 8.446097 23.234648
v 2.654409 10.891097 23.854174
v 3.041024 8.937475 24.816538
v 1.955551 12.447711 24.888033
v 1.944094 8.927159 26.200947
v 0.997953 11.890979 25.714962
v 0.000000 9.610979 25.947874
v 0.000000 11.819995 26.137482
v -0.997953 11.890979 25.714962
v -1.499488 15.069638 26.848820
v -1.955551 12.447711 24.888033
v -1.944094 8.927159 26.200947
v 0.000000 8.041136 25.806772
v -1.164134 7.630152 25.534645
v 0.000000 7.017436 24.156693
v -1.740157 6.788262 23.811499
v -2.416614 7.419837 24.246141
v -3.041024 8.937475 24.816538
v -3.455984 16.593536 26.350868
v -2.024764 16.107080 27.502522
v 0.000000 15.764402 27.149290
v 1.499488 15.069638 26.848820
v 3.455984 16.593536 26.350868
v 3.547165 13.757948 23.973228
v 4.405984 17.440466 24.159687
v 2.252520 19.405663 25.785198
v 1.191260 18.736372 26.894335
v 0.000000 18.210230 27.179373
v 2.024764 16.107080 27.502522
v -1.191260 18.736372 26.894335
v -2.252520 19.405663 25.785198
v -4.405984 17.440466 24.159687
v 0.000000 12.180114 15.937482
v -7.917402 15.438892 22.694962
v -7.325551 17.932434 23.811026
v -6.749173 15.333144 22.552441
v -5.566063 18.754799 23.342680
v -8.747833 15.964088 24.054018
v -2.598307 21.832119 25.346775
v -3.224646 21.048340 25.602364
v -2.579213 21.638420 26.086931
v -2.393622 20.977320 26.472759
v -1.582992 21.693539 25.851341
v 7.325551 17.932434 23.811026
v 7.917402 15.438892 22.694962
v 6.749173 15.333144 22.552441
v 5.566063 18.754799 23.342680
v 8.747833 15.964088 24.054018
v 2.598307 21.832119 25.346775
v 3.224646 21.048340 25.602364
v 2.579213 21.638420 26.086931
v 2.393622 20.977320 26.472759
v 1.582992 21.693539 25.851341
v -8.751024 12.286534 7.312207
v -7.035826 8.137204 6.615396
v -4.260118 5.492006 5.815709
v -5.290984 5.967005 7.405355
v -4.505669 4.360353 7.166850
v -4.409095 5.629209 8.825434
v -6.791771 9.449800 10.263584
v -2.837559 5.659447 7.817402
v -3.806535 4.507754 6.553898
v -3.633582 2.032164 6.442756
v -3.125748 4.234761 7.565197
v -3.930000 4.842557 8.180079
v -4.758189 1.830589 7.384134
v -3.696693 1.566377 7.042402
v -4.367480 0.771455 7.339764
v -3.372047 0.787597 7.573307
v -4.606457 -0.000001 7.410826
v -3.317756 -0.000001 7.725157
v -5.081850 -0.000001 8.738583
v -4.298819 1.294999 8.194174
v -4.332953 0.788226 9.206102
v -4.452323 -0.000002 9.703229
v -3.425984 -0.000001 9.093267
v -3.805669 1.384092 8.470471
v -3.073150 2.018975 7.727362
v -4.170157 2.079369 8.535906
v -4.281417 4.564451 -12.937557
v -5.478148 7.135829 -14.933267
v -3.395354 7.715553 -13.162911
v -5.167362 4.480711 -13.668226
v -6.413228 7.135829 -14.430037
v -5.726220 4.062168 -12.452320
v -4.770354 4.348821 -11.859054
v -5.741772 1.999806 -12.040668
v -5.403386 1.983625 -13.779803
v -5.007323 1.449766 -13.119330
v -5.288504 0.771459 -12.435826
v -4.373386 0.787601 -12.891771
v -5.427047 0.000003 -12.228543
v -4.234645 0.000003 -12.809606
v -4.944961 0.000002 -10.903189
v -4.690079 1.295002 -11.822165
v -4.070118 0.788231 -11.021652
v -4.134134 1.384097 -11.924488
v -4.401732 2.135042 -11.593031
v -3.978504 2.289924 -12.728503
v -3.444213 0.000003 -11.687676
v -3.844488 0.000002 -10.562873
v -3.870394 3.622047 -2.514173
v -2.852086 3.100157 -3.462755
v -3.662716 1.859213 -3.679763
v -4.436378 1.878425 -2.591181
v -3.886378 1.769134 -1.379016
v -3.194724 0.864331 -2.510197
v -2.339055 1.730710 -3.556102
v -1.789055 1.621417 -2.343937
v -2.562716 1.640630 -1.255354
v -3.009173 3.584409 -1.493148
v -1.931654 3.135592 -2.387046
v -2.987362 3.849647 -8.018187
v -1.952283 3.339017 -7.276967
v 0.000000 2.569607 -5.046810
v -1.209606 3.507324 -8.343147
v 0.000000 3.462285 -8.735785
v 1.209606 3.507324 -8.343147
v 1.952283 3.339017 -7.276967
v 2.852086 3.100157 -3.462755
v 1.931654 3.135592 -2.387046
v 0.000000 3.071260 -1.313504
v 3.009173 3.584409 -1.493148
v 0.000000 4.391181 0.718663
v 5.141140 5.638622 0.038584
v 3.870394 3.622047 -2.514173
v 5.668071 6.357560 -6.157597
v 2.987362 3.849647 -8.018187
v 3.832086 6.058191 -9.747912
v 2.033465 3.964371 -9.095393
v 2.065118 5.598742 -10.909447
v 0.000000 5.352128 -11.451731
v 0.000000 8.582442 -13.282990
v -2.065118 5.598742 -10.909447
v 2.894134 10.377129 -12.389446
v 5.132637 8.594491 -9.715195
v 6.055945 10.466694 -7.781808
v 4.914961 9.145747 3.988111
v -3.832086 6.058191 -9.747912
v -2.033465 3.964371 -9.095393
v -2.945039 2.250554 -9.708306
v -3.494960 1.896182 -8.514803
v -2.694173 1.660001 -7.439920
v -2.093858 1.226970 -8.843976
v -1.594331 2.368703 -9.826928
v -0.793583 2.132521 -8.752047
v -1.343465 1.778190 -7.558502
v -5.132637 8.594491 -9.715195
v 8.751024 12.286534 7.312207
v 7.035826 8.137204 6.615396
v 4.260118 5.492006 5.815709
v 5.290984 5.967005 7.405355
v 4.505669 4.360353 7.166850
v 4.409095 5.629209 8.825434
v 6.791771 9.449800 10.263584
v 2.837559 5.659447 7.817402
v 3.806535 4.507754 6.553898
v 3.633582 2.032164 6.442756
v 3.125748 4.234761 7.565197
v 3.930000 4.842557 8.180079
v 4.758189 1.830589 7.384134
v 3.696693 1.566377 7.042402
v 4.367480 0.771455 7.339764
v 3.372047 0.787597 7.573307
v 4.606457 -0.000001 7.410826
v 3.317756 -0.000001 7.725157
v 5.081850 -0.000001 8.738583
v 4.298819 1.294999 8.194174
v 4.332953 0.788226 9.206102
v 4.452323 -0.000002 9.703229
v 3.425984 -0.000001 9.093267
v 3.805669 1.384092 8.470471
v 3.073150 2.018975 7.727362
v 4.170157 2.079369 8.535906
v 7.206772 9.079097 -8.860981
v 5.032362 8.555711 -9.592439
v 5.250984 6.894018 -11.009841
v 6.190825 8.031459 -11.967281
v 5.063819 9.651183 -14.333147
v 4.281417 4.564451 -12.937557
v 3.395354 7.715553 -13.162911
v 5.478148 7.135829 -14.933267
v 5.167362 4.480711 -13.668226
v 6.413228 7.135829 -14.430037
v 5.726220 4.062168 -12.452320
v 4.770354 4.348821 -11.859054
v 5.741772 1.999806 -12.040668
v 5.403386 1.983625 -13.779803
v 5.007323 1.449766 -13.119330
v 5.288504 0.771459 -12.435826
v 4.373386 0.787601 -12.891771
v 5.427047 0.000003 -12.228543
v 4.234645 0.000003 -12.809606
v 4.944961 0.000002 -10.903189
v 4.690079 1.295002 -11.822165
v 4.070118 0.788231 -11.021652
v 4.134134 1.384097 -11.924488
v 4.401732 2.135042 -11.593031
v 3.978504 2.289924 -12.728503
v 3.844488 0.000002 -10.562873
v 3.444213 0.000003 -11.687676
v 3.662716 1.859213 -3.679763
v 4.436378 1.878425 -2.591181
v 3.886378 1.769134 -1.379016
v 3.194724 0.864331 -2.510197
v 2.339055 1.730710 -3.556102
v 1.789055 1.621417 -2.343937
v 2.562716 1.640630 -1.255354
v 2.945039 2.250554 -9.708306
v 3.494960 1.896182 -8.514803
v 2.694173 1.660001 -7.439920
v 2.093858 1.226970 -8.843976
v 1.594331 2.368703 -9.826928
v 0.793583 2.132521 -8.752047
v 1.343465 1.778190 -7.558502
v 1.740157 6.788262 23.811499
v 2.416614 7.419837 24.246141
v 1.164134 7.630152 25.534645
vt 0.010000 0.190000
vt 0.010000 0.090000
vt 0.050000 0.190000
vt 0.050000 0.260000
vt 0.010000 0.260000
vt 0.030000 0.370000
vt 0.010000 0.260000
vt 0.030000 0.370000
vt 0.050000 0.260000
vt 0.010000 0.190000
vt 0.050000 0.190000
vt 0.010000 0.090000
vt 0.050000 0.090000
vt 0.050000 0.010000
vt 0.010000 0.010000
vt 0.050000 0.090000
vt 0.070000 0.090000
vt 0.120000 0.190000
vt 0.070000 0.190000
vt 0.120000 0.090000
vt 0.120000 0.010000
vt 0.070000 0.010000
vt 0.070000 0.090000
vt 0.120000 0.090000
vt 0.120000 0.190000
vt 0.070000 0.190000
vt 0.120000 0.260000
vt 0.070000 0.260000
vt 0.090000 0.370000
vt 0.070000 0.260000
vt 0.120000 0.260000
vt 0.090000 0.370000
vt 0.130000 0.190000
vt 0.180000 0.090000
vt 0.180000 0.190000
vt 0.130000 0.090000
vt 0.130000 0.010000
vt 0.180000 0.010000
vt 0.180000 0.090000
vt 0.130000 0.090000
vt 0.130000 0.190000
vt 0.180000 0.190000
vt 0.180000 0.260000
vt 0.130000 0.260000
vt 0.160000 0.370000
vt 0.130000 0.260000
vt 0.180000 0.260000
vt 0.160000 0.370000
vt 0.510000 0.940000
vt 0.500000 0.960000
vt 0.560000 0.930000
vt 0.500000 0.960000
vt 0.480000 0.960000
vt 0.490000 0.990000
vt 0.480000 0.990000
vt 0.480000 0.960000
vt 0.560000 0.960000
vt 0.560000 0.990000
vt 0.560000 0.960000
vt 0.630000 0.990000
vt 0.630000 0.950000
vt 0.630000 0.910000
vt 0.710000 0.950000
vt 0.710000 0.990000
vt 0.630000 0.950000
vt 0.710000 0.950000
vt 0.960000 0.490000
vt 0.950000 0.520000
vt 0.860000 0.490000
vt 0.950000 0.460000
vt 0.880000 0.390000
vt 0.940000 0.380000
vt 0.990000 0.420000
vt 0.960000 0.340000
vt 0.990000 0.350000
vt 0.960000 0.340000
vt 0.990000 0.260000
vt 0.950000 0.270000
vt 0.910000 0.300000
vt 0.850000 0.300000
vt 0.850000 0.270000
vt 0.780000 0.260000
vt 0.830000 0.370000
vt 0.740000 0.370000
vt 0.740000 0.270000
vt 0.670000 0.330000
vt 0.660000 0.230000
vt 0.690000 0.180000
vt 0.630000 0.160000
vt 0.590000 0.230000
vt 0.600000 0.300000
vt 0.620000 0.390000
vt 0.550000 0.350000
vt 0.520000 0.410000
vt 0.550000 0.430000
vt 0.520000 0.430000
vt 0.410000 0.440000
vt 0.500000 0.360000
vt 0.430000 0.370000
vt 0.480000 0.310000
vt 0.410000 0.280000
vt 0.480000 0.270000
vt 0.450000 0.200000
vt 0.510000 0.150000
vt 0.520000 0.200000
vt 0.550000 0.170000
vt 0.560000 0.110000
vt 0.550000 0.170000
vt 0.520000 0.200000
vt 0.480000 0.270000
vt 0.410000 0.280000
vt 0.480000 0.310000
vt 0.430000 0.370000
vt 0.500000 0.360000
vt 0.410000 0.440000
vt 0.350000 0.370000
vt 0.350000 0.440000
vt 0.520000 0.410000
vt 0.550000 0.350000
vt 0.620000 0.390000
vt 0.600000 0.300000
vt 0.670000 0.330000
vt 0.740000 0.370000
vt 0.740000 0.270000
vt 0.780000 0.260000
vt 0.830000 0.370000
vt 0.850000 0.300000
vt 0.850000 0.270000
vt 0.800000 0.180000
vt 0.740000 0.180000
vt 0.690000 0.180000
vt 0.660000 0.230000
vt 0.630000 0.160000
vt 0.590000 0.230000
vt 0.950000 0.460000
vt 0.940000 0.380000
vt 0.880000 0.390000
vt 0.910000 0.300000
vt 0.950000 0.270000
vt 0.960000 0.220000
vt 0.910000 0.210000
vt 0.860000 0.160000
vt 0.830000 0.150000
vt 0.790000 0.150000
vt 0.700000 0.110000
vt 0.630000 0.120000
vt 0.570000 0.190000
vt 0.880000 0.590000
vt 0.820000 0.570000
vt 0.830000 0.620000
vt 0.740000 0.620000
vt 0.740000 0.570000
vt 0.620000 0.590000
vt 0.630000 0.540000
vt 0.740000 0.490000
vt 0.820000 0.410000
vt 0.740000 0.410000
vt 0.630000 0.450000
vt 0.630000 0.490000
vt 0.550000 0.550000
vt 0.520000 0.490000
vt 0.520000 0.550000
vt 0.520000 0.570000
vt 0.410000 0.550000
vt 0.410000 0.490000
vt 0.840000 0.990000
vt 0.840000 0.940000
vt 0.710000 0.890000
vt 0.840000 0.940000
vt 0.910000 0.940000
vt 0.990000 0.940000
vt 0.910000 0.940000
vt 0.910000 0.890000
vt 0.830000 0.880000
vt 0.120000 0.600000
vt 0.100000 0.680000
vt 0.060000 0.640000
vt 0.060000 0.590000
vt 0.050000 0.520000
vt 0.010000 0.560000
vt 0.010000 0.520000
vt 0.010000 0.480000
vt 0.050000 0.520000
vt 0.060000 0.590000
vt 0.120000 0.600000
vt 0.110000 0.510000
vt 0.050000 0.480000
vt 0.010000 0.450000
vt 0.050000 0.480000
vt 0.110000 0.510000
vt 0.160000 0.540000
vt 0.140000 0.520000
vt 0.190000 0.610000
vt 0.160000 0.700000
vt 0.100000 0.800000
vt 0.050000 0.730000
vt 0.060000 0.810000
vt 0.010000 0.760000
vt 0.010000 0.910000
vt 0.070000 0.840000
vt 0.100000 0.900000
vt 0.090000 0.950000
vt 0.010000 0.990000
vt 0.070000 0.990000
vt 0.160000 0.950000
vt 0.190000 0.990000
vt 0.160000 0.950000
vt 0.090000 0.950000
vt 0.010000 0.910000
vt 0.100000 0.900000
vt 0.070000 0.840000
vt 0.060000 0.810000
vt 0.010000 0.760000
vt 0.050000 0.730000
vt 0.100000 0.800000
vt 0.100000 0.680000
vt 0.010000 0.680000
vt 0.060000 0.640000
vt 0.010000 0.590000
vt 0.010000 0.620000
vt 0.010000 0.680000
vt 0.060000 0.450000
vt 0.060000 0.450000
vt 0.710000 0.630000
vt 0.600000 0.640000
vt 0.600000 0.750000
vt 0.710000 0.750000
vt 0.600000 0.750000
vt 0.600000 0.640000
vt 0.660000 0.860000
vt 0.710000 0.870000
vt 0.660000 0.860000
vt 0.600000 0.830000
vt 0.160000 0.540000
vt 0.140000 0.520000
vt 0.190000 0.610000
vt 0.220000 0.550000
vt 0.240000 0.660000
vt 0.270000 0.540000
vt 0.300000 0.630000
vt 0.340000 0.550000
vt 0.340000 0.630000
vt 0.300000 0.630000
vt 0.280000 0.750000
vt 0.240000 0.660000
vt 0.270000 0.540000
vt 0.300000 0.470000
vt 0.270000 0.480000
vt 0.230000 0.410000
vt 0.190000 0.460000
vt 0.210000 0.500000
vt 0.220000 0.550000
vt 0.210000 0.820000
vt 0.270000 0.800000
vt 0.340000 0.800000
vt 0.390000 0.750000
vt 0.370000 0.630000
vt 0.430000 0.660000
vt 0.460000 0.820000
vt 0.510000 0.700000
vt 0.480000 0.610000
vt 0.570000 0.680000
vt 0.570000 0.800000
vt 0.560000 0.820000
vt 0.460000 0.920000
vt 0.570000 0.900000
vt 0.380000 0.990000
vt 0.390000 0.910000
vt 0.340000 0.990000
vt 0.340000 0.900000
vt 0.400000 0.800000
vt 0.280000 0.910000
vt 0.290000 0.990000
vt 0.210000 0.920000
vt 0.110000 0.820000
vt 0.550000 0.600000
vt 0.600000 0.830000
vt 0.400000 0.230000
vt 0.350000 0.280000
vt 0.350000 0.230000
vt 0.350000 0.280000
vt 0.350000 0.370000
vt 0.350000 0.440000
vt 0.350000 0.490000
vt 0.350000 0.550000
vt 0.900000 0.770000
vt 0.760000 0.760000
vt 0.800000 0.830000
vt 0.800000 0.730000
vt 0.870000 0.730000
vt 0.860000 0.830000
vt 0.900000 0.830000
vt 0.870000 0.870000
vt 0.730000 0.830000
vt 0.990000 0.630000
vt 0.940000 0.710000
vt 0.940000 0.630000
vt 0.980000 0.720000
vt 0.940000 0.740000
vt 0.940000 0.710000
vt 0.940000 0.630000
vt 0.880000 0.630000
vt 0.900000 0.720000
vt 0.730000 0.710000
vt 0.840000 0.660000
vt 0.800000 0.650000
vt 0.860000 0.710000
vt 0.730000 0.670000
vt 0.900000 0.770000
vt 0.800000 0.830000
vt 0.760000 0.760000
vt 0.800000 0.730000
vt 0.870000 0.730000
vt 0.860000 0.830000
vt 0.900000 0.830000
vt 0.870000 0.870000
vt 0.730000 0.830000
vt 0.990000 0.630000
vt 0.940000 0.630000
vt 0.940000 0.710000
vt 0.980000 0.720000
vt 0.940000 0.740000
vt 0.940000 0.710000
vt 0.940000 0.630000
vt 0.880000 0.630000
vt 0.900000 0.720000
vt 0.730000 0.710000
vt 0.800000 0.650000
vt 0.840000 0.660000
vt 0.860000 0.710000
vt 0.730000 0.670000
vt 0.110000 0.820000
vt 0.280000 0.240000
vt 0.210000 0.350000
vt 0.270000 0.350000
vt 0.330000 0.310000
vt 0.330000 0.230000
vt 0.290000 0.180000
vt 0.340000 0.190000
vt 0.310000 0.130000
vt 0.270000 0.140000
vt 0.280000 0.110000
vt 0.230000 0.130000
vt 0.230000 0.200000
vt 0.200000 0.270000
vt 0.200000 0.200000
vt 0.270000 0.140000
vt 0.270000 0.190000
vt 0.300000 0.180000
vt 0.310000 0.110000
vt 0.310000 0.060000
vt 0.280000 0.110000
vt 0.250000 0.120000
vt 0.280000 0.050000
vt 0.300000 0.050000
vt 0.290000 0.020000
vt 0.320000 0.020000
vt 0.290000 0.010000
vt 0.320000 0.010000
vt 0.260000 0.010000
vt 0.270000 0.040000
vt 0.230000 0.030000
vt 0.230000 0.010000
vt 0.260000 0.010000
vt 0.270000 0.040000
vt 0.290000 0.020000
vt 0.280000 0.050000
vt 0.250000 0.060000
vt 0.250000 0.050000
vt 0.880000 0.100000
vt 0.910000 0.160000
vt 0.860000 0.160000
vt 0.910000 0.100000
vt 0.900000 0.160000
vt 0.880000 0.100000
vt 0.850000 0.110000
vt 0.880000 0.050000
vt 0.910000 0.060000
vt 0.910000 0.050000
vt 0.890000 0.020000
vt 0.920000 0.020000
vt 0.890000 0.010000
vt 0.920000 0.010000
vt 0.860000 0.010000
vt 0.870000 0.040000
vt 0.840000 0.030000
vt 0.850000 0.050000
vt 0.850000 0.060000
vt 0.880000 0.050000
vt 0.800000 0.180000
vt 0.850000 0.230000
vt 0.890000 0.020000
vt 0.870000 0.040000
vt 0.860000 0.010000
vt 0.890000 0.010000
vt 0.830000 0.010000
vt 0.490000 0.010000
vt 0.480000 0.060000
vt 0.520000 0.090000
vt 0.540000 0.010000
vt 0.550000 0.060000
vt 0.490000 0.010000
vt 0.480000 0.060000
vt 0.520000 0.090000
vt 0.540000 0.010000
vt 0.550000 0.060000
vt 0.390000 0.120000
vt 0.460000 0.120000
vt 0.430000 0.050000
vt 0.380000 0.050000
vt 0.350000 0.050000
vt 0.410000 0.010000
vt 0.460000 0.050000
vt 0.420000 0.050000
vt 0.380000 0.050000
vt 0.350000 0.120000
vt 0.410000 0.120000
vt 0.660000 0.060000
vt 0.650000 0.080000
vt 0.720000 0.050000
vt 0.700000 0.050000
vt 0.660000 0.010000
vt 0.710000 0.020000
vt 0.720000 0.010000
vt 0.710000 0.020000
vt 0.700000 0.050000
vt 0.660000 0.060000
vt 0.640000 0.050000
vt 0.620000 0.030000
vt 0.630000 0.070000
vt 0.590000 0.060000
vt 0.630000 0.070000
vt 0.630000 0.120000
vt 0.650000 0.080000
vt 0.700000 0.110000
vt 0.720000 0.050000
vt 0.740000 0.080000
vt 0.730000 0.030000
vt 0.750000 0.050000
vt 0.770000 0.020000
vt 0.800000 0.050000
vt 0.750000 0.050000
vt 0.790000 0.090000
vt 0.830000 0.070000
vt 0.790000 0.090000
vt 0.760000 0.120000
vt 0.740000 0.180000
vt 0.570000 0.190000
vt 0.740000 0.080000
vt 0.730000 0.030000
vt 0.400000 0.120000
vt 0.460000 0.120000
vt 0.420000 0.050000
vt 0.380000 0.050000
vt 0.350000 0.050000
vt 0.410000 0.010000
vt 0.460000 0.050000
vt 0.420000 0.060000
vt 0.380000 0.050000
vt 0.350000 0.120000
vt 0.410000 0.120000
vt 0.640000 0.050000
vt 0.290000 0.010000
vt 0.760000 0.120000
vt 0.280000 0.240000
vt 0.270000 0.350000
vt 0.210000 0.350000
vt 0.330000 0.310000
vt 0.330000 0.230000
vt 0.290000 0.180000
vt 0.340000 0.190000
vt 0.310000 0.130000
vt 0.270000 0.140000
vt 0.280000 0.110000
vt 0.230000 0.130000
vt 0.230000 0.200000
vt 0.200000 0.270000
vt 0.200000 0.200000
vt 0.270000 0.140000
vt 0.270000 0.190000
vt 0.300000 0.180000
vt 0.310000 0.110000
vt 0.310000 0.060000
vt 0.280000 0.110000
vt 0.250000 0.120000
vt 0.280000 0.050000
vt 0.300000 0.050000
vt 0.290000 0.020000
vt 0.320000 0.020000
vt 0.290000 0.010000
vt 0.320000 0.010000
vt 0.260000 0.010000
vt 0.270000 0.040000
vt 0.230000 0.030000
vt 0.230000 0.010000
vt 0.260000 0.010000
vt 0.270000 0.040000
vt 0.290000 0.020000
vt 0.280000 0.050000
vt 0.250000 0.060000
vt 0.250000 0.050000
vt 0.800000 0.180000
vt 0.790000 0.150000
vt 0.830000 0.150000
vt 0.860000 0.160000
vt 0.910000 0.210000
vt 0.960000 0.220000
vt 0.880000 0.100000
vt 0.860000 0.160000
vt 0.910000 0.160000
vt 0.910000 0.100000
vt 0.900000 0.160000
vt 0.880000 0.100000
vt 0.850000 0.110000
vt 0.880000 0.050000
vt 0.910000 0.060000
vt 0.910000 0.050000
vt 0.890000 0.020000
vt 0.920000 0.020000
vt 0.890000 0.010000
vt 0.920000 0.010000
vt 0.860000 0.010000
vt 0.870000 0.040000
vt 0.840000 0.030000
vt 0.850000 0.050000
vt 0.850000 0.060000
vt 0.880000 0.050000
vt 0.800000 0.180000
vt 0.850000 0.230000
vt 0.890000 0.020000
vt 0.870000 0.040000
vt 0.490000 0.010000
vt 0.520000 0.090000
vt 0.480000 0.060000
vt 0.540000 0.010000
vt 0.550000 0.060000
vt 0.490000 0.010000
vt 0.520000 0.090000
vt 0.480000 0.060000
vt 0.540000 0.010000
vt 0.550000 0.060000
vt 0.390000 0.120000
vt 0.430000 0.050000
vt 0.460000 0.120000
vt 0.380000 0.050000
vt 0.350000 0.050000
vt 0.410000 0.010000
vt 0.460000 0.050000
vt 0.420000 0.050000
vt 0.380000 0.050000
vt 0.350000 0.120000
vt 0.410000 0.120000
vt 0.400000 0.120000
vt 0.420000 0.050000
vt 0.460000 0.120000
vt 0.380000 0.050000
vt 0.350000 0.050000
vt 0.410000 0.010000
vt 0.460000 0.050000
vt 0.420000 0.060000
vt 0.380000 0.050000
vt 0.350000 0.120000
vt 0.410000 0.120000
vt 0.860000 0.010000
vt 0.890000 0.010000
vt 0.830000 0.010000
vt 0.290000 0.010000
vt 0.140000 0.410000
vt 0.190000 0.460000
vt 0.210000 0.500000
vt 0.270000 0.480000
vn -0.8182 0.4253 0.3869
vn -0.9142 -0.0732 0.3986
vn -0.8821 -0.1025 0.4598
vn -0.7410 -0.4401 0.5072
vn 0.7410 -0.4401 0.5072
vn 0.8821 -0.1025 0.4598
vn 0.9142 -0.0732 0.3986
vn 0.8182 0.4253 0.3869
vn 0.8190 0.4339 0.3755
vn 0.3554 0.8431 0.4036
vn 0.3556 0.8431 0.4035
vn 0.3551 0.8430 0.4041
vn 0.3557 0.8431 0.4033
vn -0.3557 0.8431 0.4034
vn -0.3557 0.8431 0.4033
vn -0.3554 0.8431 0.4036
vn -0.3551 0.8430 0.4041
vn -0.8190 0.4339 0.3755
vn 0.7590 -0.3797 0.5289
vn 0.7573 -0.3738 0.5354
vn 0.7595 -0.3812 0.5272
vn 0.7570 -0.3728 0.5366
vn 0.3081 -0.7568 0.5765
vn 0.3095 -0.7574 0.5749
vn 0.3097 -0.7575 0.5748
vn 0.3077 -0.7567 0.5769
vn -0.3077 -0.7567 0.5769
vn -0.3081 -0.7568 0.5765
vn -0.3094 -0.7574 0.5750
vn -0.3097 -0.7575 0.5748
vn -0.7570 -0.3728 0.5366
vn -0.7590 -0.3797 0.5289
vn -0.7573 -0.3738 0.5354
vn -0.7595 -0.3812 0.5272
vn -0.8351 0.1618 0.5258
vn -0.7830 0.1973 0.5899
vn -0.5144 0.6139 0.5988
vn 0.7830 0.1973 0.5899
vn 0.5144 0.6139 0.5988
vn 0.8351 0.1618 0.5258
vn -0.0466 0.0242 -0.9986
vn -0.0198 -0.0141 -0.9997
vn -0.0000 0.0000 -1.0000
vn 0.0198 -0.0141 -0.9997
vn 0.0466 0.0242 -0.9986
vn 0.0513 -0.0084 -0.9986
vn 0.0143 0.0207 -0.9997
vn 0.0752 0.1088 -0.9912
vn -0.0143 0.0207 -0.9997
vn -0.0752 0.1088 -0.9912
vn -0.0513 -0.0084 -0.9986
vn -0.5403 -0.0592 0.8394
vn 0.5403 -0.0592 0.8394
vn 0.6430 -0.6197 0.4500
vn 0.6426 0.3373 -0.6879
vn 0.6065 0.4435 -0.6600
vn -0.6065 0.4435 -0.6600
vn -0.6426 0.3373 -0.6879
vn -0.6430 -0.6197 0.4500
vn -0.6587 -0.0924 0.7467
vn -0.7735 -0.0425 -0.6324
vn -0.4737 0.0782 -0.8772
vn 0.4737 0.0782 -0.8772
vn 0.7735 -0.0425 -0.6324
vn 0.7769 -0.0046 -0.6296
vn -0.7769 -0.0046 -0.6296
vn -0.7122 0.0119 -0.7019
vn -0.7122 0.0121 -0.7018
vn -0.7122 0.0193 -0.7017
vn -0.6613 -0.0279 0.7496
vn -0.6984 -0.0199 0.7154
vn -0.6972 0.0629 0.7141
vn -0.5473 0.0532 -0.8353
vn -0.7121 0.0195 -0.7018
vn 0.7121 0.0195 -0.7018
vn 0.7122 0.0121 -0.7018
vn 0.7121 0.0193 -0.7018
vn 0.5473 0.0532 -0.8353
vn 0.6972 0.0629 0.7141
vn 0.6984 -0.0199 0.7154
vn 0.6613 -0.0279 0.7496
vn 0.6587 -0.0924 0.7467
vn 0.7122 0.0119 -0.7019
vn -0.6493 0.7390 -0.1799
vn 0.6493 0.7390 -0.1799
vn 0.1782 0.9028 -0.3914
vn 0.2510 0.3736 -0.8930
vn 0.0124 0.1770 -0.9841
vn -0.0863 -0.1221 -0.9888
vn -0.1767 -0.1761 -0.9684
vn 0.1767 -0.1761 -0.9684
vn 0.2028 -0.2984 -0.9327
vn -0.2028 -0.2984 -0.9327
vn -0.0239 -0.3902 -0.9204
vn -0.2448 -0.4094 -0.8789
vn -0.1158 -0.1132 -0.9868
vn 0.3996 0.1918 -0.8964
vn 0.5990 0.1724 -0.7820
vn 0.6200 -0.0889 -0.7795
vn 0.9897 -0.1226 -0.0734
vn 0.9692 0.2370 0.0667
vn 0.9649 0.2469 0.0895
vn 0.8674 0.0099 0.4975
vn 0.9857 0.0902 -0.1427
vn 0.9981 -0.0132 -0.0601
vn 0.8528 -0.4627 -0.2421
vn 0.7512 -0.6599 -0.0158
vn 0.7686 -0.6254 0.1350
vn 0.9591 -0.1072 0.2619
vn 0.9860 0.0029 0.1666
vn 0.8958 0.3445 0.2810
vn 0.8947 0.1202 -0.4301
vn 0.8335 0.5123 -0.2068
vn 0.5947 0.7424 -0.3084
vn 0.3833 0.9236 0.0071
vn 0.3977 0.7854 0.4743
vn 0.7539 0.4105 0.5129
vn 0.6842 -0.0310 0.7287
vn 0.6936 -0.1111 0.7117
vn 0.6181 -0.2011 0.7600
vn 0.6016 -0.4191 0.6800
vn 0.3094 -0.6488 0.6952
vn 0.3023 -0.8693 0.3912
vn 0.2817 -0.8648 0.4157
vn 0.3092 -0.9490 0.0615
vn 0.2549 -0.9664 -0.0316
vn -0.2549 -0.9664 -0.0316
vn -0.3092 -0.9490 0.0615
vn -0.2817 -0.8648 0.4157
vn -0.3023 -0.8693 0.3912
vn -0.3094 -0.6488 0.6952
vn -0.6016 -0.4191 0.6800
vn -0.6181 -0.2011 0.7600
vn -0.6936 -0.1111 0.7117
vn -0.6842 -0.0310 0.7287
vn -0.9328 0.3060 0.1905
vn -0.9441 0.2924 0.1520
vn -0.7539 0.4105 0.5129
vn -0.9043 0.3738 0.2061
vn -0.8335 0.5123 -0.2068
vn -0.8947 0.1202 -0.4301
vn -0.8958 0.3445 0.2810
vn -0.8403 0.5378 0.0686
vn -0.9857 0.0902 -0.1427
vn -0.8674 0.0099 0.4975
vn -0.9649 0.2469 0.0895
vn -0.9692 0.2370 0.0667
vn -0.9897 -0.1226 -0.0734
vn -0.8749 -0.4840 -0.0162
vn -0.6905 -0.4962 0.5263
vn -0.1061 -0.5541 0.8256
vn -0.8922 -0.4253 -0.1519
vn -0.8528 -0.4627 -0.2421
vn -0.7512 -0.6599 -0.0158
vn -0.7686 -0.6254 0.1350
vn -0.9591 -0.1072 0.2619
vn -0.9860 0.0029 0.1666
vn -0.9981 -0.0132 -0.0601
vn -0.2510 0.3736 -0.8930
vn -0.0124 0.1770 -0.9841
vn 0.0863 -0.1221 -0.9888
vn 0.1158 -0.1132 -0.9868
vn 0.2448 -0.4094 -0.8789
vn 0.0239 -0.3902 -0.9204
vn -0.0354 -0.5218 -0.8523
vn 0.6876 -0.3465 -0.6381
vn 0.3748 -0.2214 -0.9003
vn -0.4622 -0.3392 -0.8193
vn -0.5732 -0.5228 -0.6310
vn -0.8355 -0.5420 -0.0904
vn -0.7586 -0.6509 -0.0286
vn 0.0954 -0.6532 0.7511
vn 0.0933 -0.6574 0.7478
vn 0.0950 -0.6540 0.7505
vn 0.0929 -0.6581 0.7471
vn -0.9750 -0.1550 -0.1593
vn -0.9468 -0.3188 0.0435
vn -0.9480 -0.1968 0.2499
vn -0.3492 -0.3666 0.8624
vn -0.2391 -0.9709 -0.0148
vn -0.7167 -0.6507 0.2508
vn -0.6703 -0.6988 0.2497
vn -0.1782 0.9028 -0.3914
vn -0.2575 0.9315 -0.2570
vn -0.6773 0.7210 -0.1462
vn -0.7125 0.6897 0.1285
vn -0.4309 0.8331 0.3468
vn -0.5244 0.8499 -0.0520
vn -0.4315 0.9016 -0.0312
vn -0.3728 0.9265 -0.0513
vn -0.3271 0.8769 0.3521
vn -0.1550 0.9760 0.1531
vn 0.1550 0.9760 0.1531
vn 0.3271 0.8769 0.3521
vn 0.3728 0.9265 -0.0513
vn 0.2589 0.9659 -0.0006
vn -0.2589 0.9659 -0.0006
vn -0.2687 0.8894 -0.3698
vn 0.2215 0.9727 -0.0697
vn 0.1905 0.9816 0.0142
vn -0.3833 0.9236 0.0071
vn -0.3977 0.7854 0.4743
vn 0.0658 0.8977 0.4356
vn 0.2071 0.9217 0.3279
vn -0.2071 0.9217 0.3279
vn -0.1905 0.9816 0.0142
vn -0.2215 0.9727 -0.0697
vn 0.2687 0.8894 -0.3698
vn 0.4886 0.7852 -0.3804
vn 0.4315 0.9016 -0.0312
vn 0.5244 0.8499 -0.0520
vn 0.8403 0.5378 0.0686
vn 0.4309 0.8331 0.3468
vn 0.7125 0.6897 0.1285
vn 0.6773 0.7210 -0.1462
vn 0.8321 0.4068 -0.3769
vn 0.2575 0.9315 -0.2570
vn -0.5398 0.1728 -0.8239
vn 0.5398 0.1728 -0.8239
vn 0.7309 0.0857 -0.6771
vn 0.5486 0.1277 0.8263
vn 0.5529 0.0232 0.8329
vn -0.5529 0.0232 0.8329
vn -0.5486 0.1277 0.8263
vn -0.7309 0.0857 -0.6771
vn -0.7418 -0.0416 -0.6694
vn -0.5990 -0.2204 -0.7698
vn 0.5990 -0.2204 -0.7698
vn 0.7418 -0.0416 -0.6694
vn 0.5996 -0.2408 0.7632
vn 0.5663 -0.1945 0.8009
vn -0.5663 -0.1945 0.8009
vn -0.6293 0.1634 0.7598
vn 0.6293 0.1634 0.7598
vn -0.5996 -0.2408 0.7632
vn -0.5244 -0.4383 0.7300
vn 0.5244 -0.4383 0.7300
vn -0.7344 -0.6053 -0.3069
vn -0.2987 -0.7480 -0.5927
vn -0.7364 0.2409 -0.6322
vn -0.1590 0.2555 -0.9536
vn -0.0192 0.1312 -0.9912
vn 0.0782 -0.5340 -0.8419
vn -0.0782 -0.5340 -0.8419
vn 0.0192 0.1312 -0.9912
vn 0.1590 0.2555 -0.9536
vn 0.7364 0.2409 -0.6322
vn 0.9239 -0.0703 -0.3760
vn 0.6808 -0.7102 -0.1795
vn 0.1676 -0.8153 -0.5543
vn 0.1179 -0.9908 -0.0668
vn -0.1179 -0.9908 -0.0668
vn -0.1676 -0.8153 -0.5543
vn -0.6808 -0.7102 -0.1795
vn -0.9239 -0.0703 -0.3760
vn -0.8460 0.0400 -0.5317
vn -0.9565 0.1969 -0.2154
vn -0.8079 -0.5850 0.0712
vn -0.8474 -0.2825 0.4496
vn -0.8585 -0.2550 0.4449
vn -0.9749 -0.1509 0.1638
vn -0.9680 0.2506 -0.0167
vn -0.9655 0.2579 -0.0360
vn -0.9095 0.4131 -0.0460
vn -0.8776 0.3772 -0.2960
vn -0.8365 0.5473 -0.0268
vn -0.4590 0.8818 0.1087
vn -0.3236 0.9462 -0.0083
vn -0.3236 0.9462 -0.0080
vn -0.3201 0.9474 -0.0056
vn -0.3241 0.9460 -0.0080
vn -0.2619 0.8843 0.3866
vn -0.1913 0.8899 0.4141
vn 0.1913 0.8899 0.4141
vn 0.2619 0.8843 0.3866
vn 0.3236 0.9462 -0.0083
vn 0.3236 0.9462 -0.0080
vn 0.3241 0.9460 -0.0080
vn 0.3201 0.9474 -0.0056
vn 0.4590 0.8818 0.1087
vn 0.8365 0.5473 -0.0268
vn 0.8776 0.3772 -0.2960
vn 0.9095 0.4131 -0.0460
vn 0.9655 0.2579 -0.0360
vn 0.9680 0.2506 -0.0167
vn 0.9749 -0.1509 0.1638
vn 0.7510 -0.4130 -0.5152
vn 0.7471 -0.4200 -0.5152
vn 0.7513 -0.4131 -0.5147
vn 0.7512 -0.4127 -0.5151
vn 0.7344 -0.6053 -0.3069
vn 0.2987 -0.7480 -0.5927
vn 0.0750 -0.5671 -0.8202
vn 0.0949 -0.8157 -0.5706
vn -0.0949 -0.8157 -0.5706
vn -0.2850 -0.6058 -0.7429
vn -0.7513 -0.4131 -0.5147
vn -0.7510 -0.4130 -0.5152
vn -0.7512 -0.4127 -0.5151
vn -0.7471 -0.4200 -0.5152
vn -0.7339 -0.2900 -0.6142
vn -0.0750 -0.5671 -0.8202
vn -0.2671 -0.3131 -0.9114
vn 0.2671 -0.3131 -0.9114
vn -0.2047 -0.9768 0.0629
vn -0.6101 -0.7923 0.0094
vn 0.2850 -0.6058 -0.7429
vn 0.7339 -0.2900 -0.6142
vn 0.2047 -0.9768 0.0629
vn 0.6101 -0.7923 0.0094
vn 0.1600 -0.0076 -0.9871
vn 0.0000 -0.1737 -0.9848
vn -0.1600 -0.0076 -0.9871
vn 0.0000 0.0929 0.9957
vn -0.0810 0.0475 0.9956
vn 0.0810 0.0475 0.9956
vn -0.0219 0.0822 0.9964
vn 0.8460 0.0400 -0.5317
vn 0.9565 0.1969 -0.2154
vn 0.9845 0.1629 -0.0648
vn 0.9366 0.2855 0.2033
vn 0.7631 0.2236 0.6063
vn 0.5192 0.2971 0.8013
vn -0.0806 0.1362 0.9874
vn 0.3934 -0.0786 0.9160
vn -0.3934 -0.0786 0.9160
vn -0.3850 -0.3634 0.8484
vn -0.7196 -0.3312 0.6103
vn -0.5192 0.2971 0.8013
vn 0.0806 0.1362 0.9874
vn 0.1591 -0.0884 0.9833
vn -0.0380 -0.4746 0.8794
vn 0.1741 -0.8368 0.5191
vn 0.0336 -0.9024 0.4296
vn -0.3919 -0.7682 0.5063
vn -0.7364 -0.6420 -0.2133
vn -0.9025 -0.4149 0.1159
vn -0.5862 -0.4851 0.6489
vn -0.6172 -0.6200 0.4844
vn -0.7631 0.2236 0.6063
vn -0.9366 0.2855 0.2033
vn -0.6175 -0.2236 0.7541
vn -0.6936 -0.4496 0.5628
vn -0.5310 -0.4463 0.7203
vn -0.6089 -0.6201 0.4948
vn 0.0637 -0.5087 0.8586
vn -0.0787 -0.2477 0.9656
vn 0.0787 -0.2477 0.9656
vn 0.3850 -0.3634 0.8484
vn 0.7196 -0.3312 0.6103
vn 0.5310 -0.4463 0.7203
vn 0.6936 -0.4496 0.5628
vn 0.6175 -0.2236 0.7541
vn 0.8474 -0.2825 0.4496
vn 0.8585 -0.2550 0.4449
vn 0.8834 -0.2841 0.3727
vn 0.9243 -0.0633 0.3763
vn 0.7594 0.4242 0.4932
vn 0.7538 0.3866 0.5313
vn 0.3078 0.6553 0.6899
vn 0.2642 0.6574 0.7057
vn -0.0371 0.5397 0.8410
vn 0.1154 0.2584 0.9591
vn -0.1699 -0.0121 0.9854
vn 0.1699 -0.0121 0.9854
vn -0.1154 0.2584 0.9591
vn 0.0371 0.5397 0.8410
vn -0.2642 0.6574 0.7057
vn -0.3078 0.6553 0.6899
vn -0.5414 0.3823 0.7488
vn -0.7594 0.4242 0.4932
vn -0.9243 -0.0633 0.3763
vn -0.8834 -0.2841 0.3727
vn -0.5146 0.3447 0.7851
vn 0.8079 -0.5850 0.0712
vn 0.0219 0.0822 0.9964
vn -0.3741 -0.6696 0.6417
vn -0.3840 -0.9148 0.1248
vn -0.2243 -0.9335 0.2796
vn 0.2243 -0.9335 0.2796
vn 0.3840 -0.9148 0.1248
vn 0.3741 -0.6696 0.6417
vn 0.9303 -0.3531 0.0995
vn 0.9328 0.3060 0.1905
vn 0.9441 0.2924 0.1520
vn 0.1896 0.9104 0.3677
vn 0.0287 0.9717 0.2346
vn -0.0658 0.8977 0.4356
vn -0.0287 0.9717 0.2346
vn -0.1896 0.9104 0.3677
vn -0.4645 0.4513 -0.7619
vn -0.1373 -0.2133 -0.9673
vn 0.5351 -0.7431 -0.4019
vn -0.1465 0.7152 -0.6834
vn 0.2935 0.6780 0.6739
vn -0.0147 0.5185 0.8550
vn -0.0861 0.1831 0.9793
vn -0.6895 0.4259 -0.5859
vn -0.4371 0.5153 -0.7372
vn -0.4665 0.7041 -0.5354
vn -0.7954 0.5604 -0.2309
vn -0.7361 0.6499 0.1891
vn -0.6999 0.2032 0.6848
vn -0.6939 -0.3400 0.6348
vn -0.8382 -0.4641 0.2865
vn 0.3908 -0.3393 0.8557
vn 0.5390 0.1141 0.8346
vn 0.1670 0.5315 0.8304
vn 0.0063 0.9674 0.2530
vn 0.2493 0.9371 -0.2443
vn 0.8198 0.5548 -0.1419
vn 0.0372 -0.6319 0.7742
vn 0.2706 -0.8308 0.4864
vn 0.0714 -0.6538 0.7533
vn -0.9303 -0.3531 0.0995
vn -0.9235 -0.3663 0.1143
vn -0.7538 0.3866 0.5313
vn -0.8698 0.3946 0.2963
vn 0.4645 0.4513 -0.7619
vn 0.1373 -0.2133 -0.9673
vn -0.5351 -0.7431 -0.4019
vn 0.1465 0.7152 -0.6834
vn -0.2935 0.6780 0.6739
vn 0.0147 0.5185 0.8550
vn 0.0861 0.1831 0.9793
vn 0.6895 0.4259 -0.5859
vn 0.4371 0.5153 -0.7372
vn 0.4665 0.7041 -0.5354
vn 0.7954 0.5604 -0.2309
vn 0.7361 0.6499 0.1891
vn 0.6999 0.2032 0.6848
vn 0.6939 -0.3400 0.6348
vn 0.8382 -0.4641 0.2865
vn -0.3908 -0.3393 0.8557
vn -0.5390 0.1141 0.8346
vn -0.1670 0.5315 0.8304
vn -0.0063 0.9674 0.2530
vn -0.2493 0.9371 -0.2443
vn -0.8198 0.5548 -0.1419
vn -0.0372 -0.6319 0.7742
vn -0.2706 -0.8308 0.4864
vn -0.0714 -0.6538 0.7533
vn 0.9235 -0.3663 0.1143
vn 0.8698 0.3946 0.2963
vn -0.0637 -0.5087 0.8586
vn 0.6089 -0.6201 0.4948
vn 0.5146 0.3447 0.7851
vn 0.5414 0.3823 0.7488
vn -0.9785 -0.0888 0.1862
vn -0.9451 -0.0420 -0.3239
vn -0.8765 -0.1413 -0.4603
vn -0.8602 -0.2845 -0.4232
vn -0.6417 -0.3825 -0.6648
vn -0.6090 -0.4394 -0.6603
vn -0.7044 -0.6607 -0.2594
vn -0.8319 -0.3417 -0.4374
vn -0.8025 -0.4504 0.3913
vn -0.7438 -0.5853 0.3227
vn -0.7970 -0.5494 0.2510
vn -0.8920 -0.4031 0.2047
vn -0.9003 -0.2539 0.3536
vn -0.5171 -0.3814 0.7663
vn -0.3851 -0.5257 0.7585
vn 0.5054 -0.3759 0.7767
vn 0.8585 0.0106 0.5128
vn 0.9921 0.0811 -0.0955
vn 0.7929 -0.2828 -0.5398
vn 0.8161 -0.0554 -0.5753
vn 0.8163 -0.0558 -0.5749
vn 0.8191 -0.0637 -0.5701
vn -0.4113 -0.6606 -0.6280
vn -0.6577 -0.0121 -0.7531
vn 0.8369 0.0828 -0.5411
vn 0.8196 -0.0650 -0.5693
vn 0.4654 -0.2447 0.8506
vn 0.5132 -0.3355 0.7900
vn -0.4052 -0.7146 0.5703
vn -0.8872 0.1267 0.4438
vn -0.6417 -0.0018 -0.7670
vn -0.3691 -0.7147 -0.5940
vn -0.3234 -0.0798 -0.9429
vn 0.2065 -0.4909 -0.8464
vn 0.2332 -0.1680 -0.9578
vn 0.2279 -0.1591 -0.9606
vn 0.2287 -0.1604 -0.9602
vn 0.2336 -0.1685 -0.9576
vn -0.9110 0.2522 -0.3262
vn -0.8734 0.4434 -0.2015
vn -0.7725 0.5778 0.2633
vn -0.7575 0.4265 0.4943
vn 0.4633 0.4215 0.7796
vn 0.4960 0.4658 0.7328
vn 0.9140 0.3460 0.2117
vn 0.7896 -0.2611 0.5553
vn 0.7697 -0.1081 -0.6292
vn 0.7679 -0.5425 -0.3406
vn 0.9165 -0.0075 -0.3999
vn 0.6392 0.0712 0.7657
vn 0.5944 0.0517 0.8025
vn -0.8941 0.1328 0.4278
vn -0.8842 -0.0570 0.4637
vn -0.4237 -0.3025 0.8538
vn -0.3772 0.8331 0.4045
vn -0.8963 -0.3424 0.2819
vn -0.9217 -0.1949 0.3355
vn -0.8321 0.4068 -0.3769
vn -0.5990 0.1724 -0.7820
vn -0.6200 -0.0889 -0.7795
vn -0.3996 0.1918 -0.8964
vn 0.6666 -0.2380 -0.7064
vn 0.6272 -0.2740 -0.7291
vn -0.4281 -0.4291 -0.7954
vn -0.4554 0.2769 -0.8462
vn -0.8759 0.4735 -0.0931
vn -0.9819 -0.1316 0.1365
vn -0.7945 -0.1644 0.5846
vn -0.4128 -0.3575 0.8378
vn -0.5556 0.1668 0.8146
vn -0.9812 -0.0307 -0.1906
vn -0.7110 -0.6907 -0.1319
vn -0.8514 -0.1527 -0.5018
vn -0.3525 -0.5877 -0.7283
vn -0.4321 -0.1679 -0.8860
vn -0.4380 -0.1591 -0.8848
vn -0.4371 -0.1604 -0.8850
vn -0.4318 -0.1685 -0.8861
vn -0.9094 0.2522 0.3308
vn -0.8008 0.4434 0.4027
vn -0.4264 0.5778 0.6960
vn -0.0319 0.8331 0.5521
vn 0.2215 -0.3266 0.9188
vn -0.2990 -0.1542 0.9417
vn -0.4451 -0.4189 0.7915
vn -0.3217 0.0600 0.9449
vn 0.9099 0.1955 0.3658
vn 0.8871 0.1580 0.4337
vn 0.9031 -0.2279 0.3639
vn 0.7683 -0.0673 0.6365
vn 0.7448 -0.4870 0.4561
vn 0.8420 -0.2906 0.4544
vn 0.6455 0.0985 -0.7574
vn 0.6326 0.0796 -0.7703
vn 0.5969 -0.4102 -0.6895
vn 0.3476 0.0105 -0.9376
vn 0.9657 -0.2442 -0.0882
vn 0.9164 0.1658 0.3642
vn 0.8497 0.4658 0.2472
vn 0.8386 0.3460 -0.4208
vn 0.8146 0.0836 -0.5739
vn 0.8543 0.4215 0.3040
vn -0.2672 0.4265 0.8641
vn -0.9168 0.1039 -0.3856
vn -0.7217 -0.4814 -0.4974
vn 0.6354 0.0137 -0.7720
vn 0.5964 -0.0205 -0.8024
vn 0.0000 -1.0000 -0.0000
vn 0.5852 0.2337 0.7765
vn 0.6834 -0.2249 -0.6945
vn -0.4778 0.4446 -0.7576
vn -0.7806 0.2781 -0.5597
vn -0.8692 0.2637 0.4182
vn -0.6260 -0.7492 0.2165
vn -0.5670 -0.7254 -0.3902
vn -0.0140 -0.7644 -0.6446
vn 0.4800 -0.8271 -0.2924
vn 0.4211 -0.8508 0.3143
vn -0.1320 -0.8119 0.5687
vn -0.0827 0.1023 0.9913
vn -0.7011 0.3769 0.6053
vn 0.6771 0.2406 0.6954
vn 0.8124 0.0929 0.5757
vn 0.9106 0.0742 -0.4065
vn 0.7170 0.3111 -0.6238
vn 0.1027 0.1059 -0.9891
vn -0.5397 -0.8331 -0.1210
vn -0.3546 -0.9242 -0.1415
vn -0.2446 -0.9624 -0.1180
vn -0.1134 -0.9658 -0.2331
vn -0.1150 -0.9658 -0.2325
vn -0.1145 -0.9658 -0.2325
vn -0.1118 -0.9659 -0.2337
vn 0.1134 -0.9658 -0.2331
vn 0.1118 -0.9659 -0.2337
vn 0.1145 -0.9658 -0.2325
vn 0.1150 -0.9658 -0.2325
vn 0.2446 -0.9624 -0.1180
vn 0.1114 -0.9854 0.1285
vn 0.1120 -0.9854 0.1283
vn 0.1113 -0.9855 0.1278
vn 0.1064 -0.9855 0.1324
vn 0.1774 -0.9485 0.2624
vn 0.1729 -0.8260 0.5365
vn -0.1729 -0.8260 0.5365
vn -0.2612 -0.7364 0.6240
vn -0.2420 -0.5690 0.7859
vn 0.2420 -0.5690 0.7859
vn 0.2612 -0.7364 0.6240
vn 0.4853 -0.7873 0.3803
vn 0.8410 -0.5410 0.0087
vn 0.7276 -0.6706 -0.1445
vn 0.5397 -0.8331 -0.1210
vn 0.3546 -0.9242 -0.1415
vn 0.7575 -0.5567 -0.3409
vn 0.5424 -0.6367 -0.5481
vn 0.5334 -0.6330 -0.5610
vn 0.2553 -0.7205 -0.6447
vn 0.2762 -0.4740 -0.8361
vn -0.2762 -0.4740 -0.8361
vn -0.4612 -0.3346 -0.8218
vn -0.3803 -0.1596 -0.9110
vn 0.3803 -0.1596 -0.9110
vn 0.4612 -0.3346 -0.8218
vn 0.5769 -0.3313 -0.7466
vn 0.6185 -0.3078 -0.7229
vn 0.8229 -0.4170 -0.3860
vn 0.9449 -0.1935 -0.2639
vn 0.9750 -0.1550 -0.1593
vn 0.9468 -0.3188 0.0435
vn 0.9480 -0.1968 0.2499
vn 0.3492 -0.3666 0.8624
vn 0.2391 -0.9709 -0.0148
vn 0.7167 -0.6507 0.2508
vn 0.6703 -0.6988 0.2497
vn -0.4853 -0.7873 0.3803
vn -0.8410 -0.5410 0.0087
vn -0.7276 -0.6706 -0.1445
vn -0.7575 -0.5567 -0.3409
vn -0.5424 -0.6367 -0.5481
vn -0.5334 -0.6330 -0.5610
vn -0.2553 -0.7205 -0.6447
vn -0.1011 -0.8166 -0.5682
vn -0.1576 -0.9111 -0.3810
vn 0.1011 -0.8166 -0.5682
vn 0.1576 -0.9111 -0.3810
vn -0.6586 0.5383 -0.5258
vn -0.8944 0.3135 -0.3190
vn -0.7952 0.0531 0.6041
vn -0.4084 -0.9067 0.1050
vn -0.4690 -0.7641 -0.4430
vn -0.0099 -0.6499 -0.7599
vn 0.5099 -0.6784 -0.5289
vn 0.5705 -0.8211 0.0191
vn 0.1113 -0.9352 0.3360
vn 0.0987 -0.1392 0.9853
vn -0.5253 0.1508 0.8374
vn 0.7882 0.2027 0.5811
vn 0.8842 0.1345 0.4473
vn 0.7790 0.3833 -0.4961
vn 0.7262 0.4415 -0.5271
vn -0.1142 0.3879 -0.9146
vn -0.1774 -0.9485 0.2624
vn -0.1114 -0.9855 0.1278
vn -0.1114 -0.9854 0.1285
vn -0.1064 -0.9855 0.1324
vn -0.1120 -0.9854 0.1283
vn 0.9934 0.0836 0.0786
vn -0.9449 -0.1935 -0.2639
vn -0.8229 -0.4170 -0.3860
vn -0.6185 -0.3078 -0.7229
vn -0.5769 -0.3313 -0.7466
vn -0.5947 0.7424 -0.3084
vn -0.4886 0.7852 -0.3804
vn 0.9785 -0.0888 0.1862
vn 0.9451 -0.0420 -0.3239
vn 0.8765 -0.1413 -0.4603
vn 0.8602 -0.2845 -0.4232
vn 0.6417 -0.3825 -0.6648
vn 0.6090 -0.4394 -0.6603
vn 0.7044 -0.6607 -0.2594
vn 0.8319 -0.3417 -0.4374
vn 0.8025 -0.4504 0.3913
vn 0.7438 -0.5853 0.3227
vn 0.7970 -0.5494 0.2510
vn 0.8920 -0.4031 0.2047
vn 0.9003 -0.2539 0.3536
vn 0.5171 -0.3814 0.7663
vn 0.3851 -0.5257 0.7585
vn -0.5054 -0.3759 0.7767
vn -0.8585 0.0106 0.5128
vn -0.9921 0.0811 -0.0955
vn -0.7929 -0.2828 -0.5398
vn -0.8161 -0.0554 -0.5753
vn -0.8191 -0.0637 -0.5701
vn -0.8163 -0.0558 -0.5749
vn 0.4113 -0.6606 -0.6280
vn 0.6577 -0.0121 -0.7531
vn -0.8369 0.0828 -0.5411
vn -0.8196 -0.0650 -0.5693
vn -0.4654 -0.2447 0.8506
vn -0.5132 -0.3355 0.7900
vn 0.4052 -0.7146 0.5703
vn 0.8872 0.1267 0.4438
vn 0.6417 -0.0018 -0.7670
vn 0.3691 -0.7147 -0.5940
vn 0.3234 -0.0798 -0.9429
vn -0.2065 -0.4909 -0.8464
vn -0.2287 -0.1604 -0.9602
vn -0.2279 -0.1591 -0.9606
vn -0.2332 -0.1680 -0.9578
vn -0.2336 -0.1685 -0.9576
vn 0.9110 0.2522 -0.3262
vn 0.8734 0.4434 -0.2015
vn 0.7725 0.5778 0.2633
vn 0.7575 0.4265 0.4943
vn -0.4633 0.4215 0.7796
vn -0.4960 0.4658 0.7328
vn -0.9140 0.3460 0.2117
vn -0.7896 -0.2611 0.5553
vn -0.7697 -0.1081 -0.6292
vn -0.7679 -0.5425 -0.3406
vn -0.9165 -0.0075 -0.3999
vn -0.6392 0.0712 0.7657
vn -0.5944 0.0517 0.8025
vn 0.8941 0.1328 0.4278
vn 0.8842 -0.0570 0.4637
vn 0.4237 -0.3025 0.8538
vn 0.3772 0.8331 0.4045
vn 0.8963 -0.3424 0.2819
vn 0.9217 -0.1949 0.3355
vn 0.6905 -0.4962 0.5263
vn 0.1061 -0.5541 0.8256
vn 0.8922 -0.4253 -0.1519
vn -0.0929 -0.6581 0.7471
vn -0.0954 -0.6532 0.7511
vn 0.7586 -0.6509 -0.0286
vn 0.8355 -0.5420 -0.0904
vn 0.5732 -0.5228 -0.6310
vn 0.4622 -0.3392 -0.8193
vn -0.3748 -0.2214 -0.9003
vn -0.6876 -0.3465 -0.6381
vn 0.0354 -0.5218 -0.8523
vn -0.6666 -0.2380 -0.7064
vn -0.6272 -0.2740 -0.7291
vn 0.4281 -0.4291 -0.7954
vn 0.4554 0.2769 -0.8462
vn 0.8759 0.4735 -0.0931
vn 0.9819 -0.1316 0.1365
vn 0.7945 -0.1644 0.5846
vn 0.4128 -0.3575 0.8378
vn 0.5556 0.1668 0.8146
vn 0.9812 -0.0307 -0.1906
vn 0.7110 -0.6907 -0.1319
vn 0.8514 -0.1527 -0.5018
vn 0.3525 -0.5877 -0.7283
vn 0.4371 -0.1604 -0.8850
vn 0.4380 -0.1591 -0.8848
vn 0.4321 -0.1679 -0.8860
vn 0.4318 -0.1685 -0.8861
vn 0.9094 0.2522 0.3308
vn 0.8008 0.4434 0.4027
vn 0.4264 0.5778 0.6960
vn 0.0319 0.8331 0.5521
vn -0.2215 -0.3266 0.9188
vn 0.2990 -0.1542 0.9417
vn 0.4451 -0.4189 0.7915
vn 0.3217 0.0600 0.9449
vn -0.9099 0.1955 0.3658
vn -0.8871 0.1580 0.4337
vn -0.9031 -0.2279 0.3639
vn -0.7683 -0.0673 0.6365
vn -0.7448 -0.4870 0.4561
vn -0.8420 -0.2906 0.4544
vn -0.6455 0.0985 -0.7574
vn -0.6326 0.0796 -0.7703
vn -0.5969 -0.4102 -0.6895
vn -0.3476 0.0105 -0.9376
vn -0.9657 -0.2442 -0.0882
vn -0.9164 0.1658 0.3642
vn -0.6354 0.0137 -0.7720
vn -0.5964 -0.0205 -0.8024
vn 0.9168 0.1039 -0.3856
vn 0.7217 -0.4814 -0.4974
vn -0.5852 0.2337 0.7765
vn -0.6834 -0.2249 -0.6945
vn 0.4778 0.4446 -0.7576
vn 0.7806 0.2781 -0.5597
vn 0.8692 0.2637 0.4182
vn 0.6260 -0.7492 0.2165
vn 0.5670 -0.7254 -0.3902
vn 0.0140 -0.7644 -0.6446
vn -0.4800 -0.8271 -0.2924
vn -0.4211 -0.8508 0.3143
vn 0.1320 -0.8119 0.5687
vn 0.0827 0.1023 0.9913
vn 0.7011 0.3769 0.6053
vn -0.6771 0.2406 0.6954
vn -0.8124 0.0929 0.5757
vn -0.9106 0.0742 -0.4065
vn -0.7170 0.3111 -0.6238
vn -0.1027 0.1059 -0.9891
vn 0.6586 0.5383 -0.5258
vn 0.8944 0.3135 -0.3190
vn 0.7952 0.0531 0.6041
vn 0.4084 -0.9067 0.1050
vn 0.4690 -0.7641 -0.4430
vn 0.0099 -0.6499 -0.7599
vn -0.5099 -0.6784 -0.5289
vn -0.5705 -0.8211 0.0191
vn -0.1113 -0.9352 0.3360
vn -0.0987 -0.1392 0.9853
vn 0.5253 0.1508 0.8374
vn -0.7882 0.2027 0.5811
vn -0.8842 0.1345 0.4473
vn -0.7790 0.3833 -0.4961
vn -0.7262 0.4415 -0.5271
vn 0.1142 0.3879 -0.9146
vn 0.9043 0.3738 0.2061
vn 0.8749 -0.4840 -0.0162
vn -0.8497 0.4658 0.2472
vn -0.8386 0.3460 -0.4208
vn -0.8146 0.0836 -0.5739
vn -0.8543 0.4215 0.3040
vn 0.2672 0.4265 0.8641
vn -0.9934 0.0836 0.0786
vn -0.9845 0.1629 -0.0648
vn -0.7548 -0.6367 -0.1574
vn 0.1169 -0.6826 -0.7213
vn 0.2222 -0.7515 -0.6212
vn -0.2222 -0.7515 -0.6212
vn -0.1169 -0.6826 -0.7213
vn 0.7548 -0.6367 -0.1574
vn 0.7364 -0.6420 -0.2133
vn 0.9025 -0.4149 0.1159
vn 0.5862 -0.4851 0.6489
vn 0.6172 -0.6200 0.4844
vn 0.0380 -0.4746 0.8794
vn -0.1591 -0.0884 0.9833
vn -0.1741 -0.8368 0.5191
vn -0.0336 -0.9024 0.4296
vn 0.3919 -0.7682 0.5063
usemtl material_009C21CE
s 1
f 1/1/1 2/2/1 3/3/1
f 4/4/2 1/1/2 3/3/2
f 5/5/3 1/1/3 4/4/3
f 6/6/4 5/5/4 4/4/4
f 7/7/5 8/8/5 9/9/5
f 10/10/6 7/7/6 9/9/6
f 10/10/7 9/9/7 11/11/7
f 11/11/8 12/12/8 10/10/8
f 13/13/9 12/12/9 11/11/9
f 14/14/10 12/12/11 13/13/12
f 15/15/13 12/12/11 14/14/10
f 2/2/14 15/15/15 14/14/16
f 2/2/14 14/14/16 16/16/17
f 3/3/18 2/2/18 16/16/18
f 16/17/19 17/18/20 3/19/21
f 18/20/22 17/18/20 16/17/19
f 16/17/23 19/21/24 18/20/25
f 16/17/23 14/22/26 19/21/24
f 14/22/27 13/23/28 19/21/29
f 19/21/29 13/23/28 20/24/30
f 20/24/31 13/23/32 21/25/33
f 21/25/33 13/23/32 11/26/34
f 11/26/35 22/27/35 21/25/35
f 11/26/36 9/28/36 22/27/36
f 9/28/37 8/29/37 22/27/37
f 4/30/38 3/19/38 23/31/38
f 6/32/39 4/30/39 23/31/39
f 23/31/40 3/19/40 17/18/40
f 17/33/41 2/34/41 1/35/41
f 17/33/42 18/36/42 2/34/42
f 18/36/43 19/37/43 2/34/43
f 2/34/43 19/37/43 15/38/43
f 19/37/43 12/39/43 15/38/43
f 19/37/43 20/40/43 12/39/43
f 20/40/44 21/41/44 12/39/44
f 12/39/45 21/41/45 10/42/45
f 21/41/46 7/43/46 10/42/46
f 21/41/47 22/44/47 7/43/47
f 22/44/48 8/45/48 7/43/48
f 23/46/49 17/33/49 5/47/49
f 6/48/50 23/46/50 5/47/50
f 5/47/51 17/33/51 1/35/51
f 24/49/52 25/50/52 26/51/52
f 24/49/53 26/51/53 27/52/53
f 24/49/54 27/52/54 28/53/54
f 28/53/55 27/52/55 29/54/55
f 28/53/56 29/54/56 30/55/56
f 31/56/57 30/55/57 29/54/57
f 31/56/58 29/54/58 25/50/58
f 24/49/59 31/56/59 25/50/59
f 25/50/60 32/57/60 26/51/60
f 33/58/61 32/57/61 25/50/61
f 29/54/62 33/58/62 25/50/62
f 29/54/63 27/52/63 33/58/63
f 33/58/64 27/52/64 34/59/64
f 35/60/65 33/58/65 34/59/65
f 35/60/66 32/57/66 33/58/66
f 32/57/67 35/60/68 36/61/69
f 32/57/70 36/61/70 26/51/70
f 36/61/71 37/62/71 26/51/71
f 36/61/72 38/63/72 37/62/72
f 36/61/73 39/64/73 38/63/73
f 39/64/74 36/61/69 35/60/68
f 39/64/75 35/60/76 40/65/77
f 40/65/78 41/66/78 39/64/78
f 40/65/79 37/62/79 41/66/79
f 26/51/80 37/62/80 40/65/80
f 34/59/81 26/51/81 40/65/81
f 26/51/82 34/59/82 27/52/82
f 34/59/83 40/65/77 35/60/76
f 30/67/84 31/68/84 42/69/84
f 30/67/85 42/69/85 28/70/85
f 28/70/86 42/69/86 43/71/86
f 28/70/87 43/71/87 44/72/87
f 28/70/88 44/72/88 24/73/88
f 45/74/89 24/73/89 44/72/89
f 46/75/90 24/73/90 45/74/90
f 46/75/91 47/76/91 24/73/91
f 46/75/92 48/77/92 47/76/92
f 46/75/93 45/74/93 48/77/93
f 49/78/94 48/77/94 45/74/94
f 45/74/95 50/79/95 49/78/95
f 50/79/96 45/74/96 44/72/96
f 44/72/97 43/71/97 50/79/97
f 50/79/98 43/71/98 51/80/98
f 52/81/99 50/79/99 51/80/99
f 53/82/100 52/81/100 51/80/100
f 53/82/101 51/80/101 54/83/101
f 53/82/102 54/83/102 55/84/102
f 55/84/103 56/85/103 53/82/103
f 56/85/104 55/84/104 57/86/104
f 56/85/105 57/86/105 58/87/105
f 58/87/106 59/88/106 56/85/106
f 58/87/107 60/89/107 59/88/107
f 58/87/108 61/90/108 60/89/108
f 58/87/109 62/91/109 61/90/109
f 58/87/110 57/86/110 62/91/110
f 63/92/111 62/91/111 57/86/111
f 64/93/112 62/91/112 63/92/112
f 63/92/113 65/94/113 64/93/113
f 66/95/114 65/94/114 63/92/114
f 67/96/115 65/94/115 66/95/115
f 68/97/116 65/94/116 67/96/116
f 68/97/117 69/98/117 65/94/117
f 70/99/118 69/98/118 68/97/118
f 69/98/119 70/99/119 71/100/119
f 71/100/120 70/99/120 72/101/120
f 71/100/121 72/101/121 73/102/121
f 73/102/122 72/101/122 74/103/122
f 73/102/123 74/103/123 75/104/123
f 73/102/124 75/104/124 76/105/124
f 75/104/125 77/106/125 76/105/125
f 75/104/126 78/107/126 77/106/126
f 75/104/127 79/108/127 78/107/127
f 75/104/128 80/109/128 79/108/128
f 81/110/129 80/109/129 75/104/129
f 81/110/130 75/104/130 74/103/130
f 81/110/131 74/103/131 82/111/131
f 83/112/132 81/110/132 82/111/132
f 83/112/133 82/111/133 84/113/133
f 85/114/134 83/112/134 84/113/134
f 84/113/135 86/115/135 85/114/135
f 86/115/136 84/113/136 87/116/136
f 86/115/137 87/116/137 88/117/137
f 86/115/138 89/118/138 85/114/138
f 89/118/139 90/119/139 85/114/139
f 91/120/140 90/119/140 89/118/140
f 90/119/141 91/120/141 92/121/141
f 91/120/142 93/122/142 92/121/142
f 91/120/143 94/123/143 93/122/143
f 95/124/144 93/122/144 94/123/144
f 94/123/145 96/125/145 95/124/145
f 96/125/146 94/123/146 97/126/146
f 96/125/147 97/126/147 98/127/147
f 96/125/148 98/127/148 99/128/148
f 100/129/149 96/125/149 99/128/149
f 95/124/150 96/125/150 100/129/150
f 95/124/151 100/129/151 101/130/151
f 95/124/152 101/130/152 102/131/152
f 103/132/153 95/124/153 102/131/153
f 103/132/154 102/131/154 104/133/154
f 103/132/155 104/133/155 105/134/155
f 103/132/156 105/134/156 92/121/156
f 103/132/157 92/121/157 93/122/157
f 95/124/158 103/132/158 93/122/158
f 31/135/159 106/136/159 107/137/159
f 31/135/160 24/73/160 106/136/160
f 47/76/161 106/136/161 24/73/161
f 108/138/162 106/136/162 47/76/162
f 47/76/163 109/139/163 108/138/163
f 109/139/164 47/76/164 48/77/164
f 110/140/165 109/139/165 48/77/165
f 109/139/166 110/140/166 111/141/166
f 109/139/167 111/141/167 108/138/167
f 111/141/168 99/128/168 108/138/168
f 99/128/169 111/141/169 112/142/169
f 112/142/170 100/129/170 99/128/170
f 100/129/171 112/142/171 113/143/171
f 113/143/172 114/144/173 100/129/174
f 114/144/173 101/130/175 100/129/174
f 115/145/176 102/131/176 101/130/176
f 102/131/177 115/145/177 116/146/177
f 104/133/178 102/131/178 116/146/178
f 104/133/179 116/146/179 78/107/179
f 79/108/180 104/133/180 78/107/180
f 79/108/181 117/147/181 104/133/181
f 104/133/182 117/147/182 105/134/182
f 31/68/183 107/148/183 42/69/183
f 107/148/184 118/149/184 42/69/184
f 97/150/185 118/149/185 107/148/185
f 97/150/186 94/151/186 118/149/186
f 94/151/187 119/152/187 118/149/187
f 94/151/188 91/153/188 119/152/188
f 119/152/189 91/153/189 120/154/189
f 121/155/190 119/152/190 120/154/190
f 121/155/191 118/149/191 119/152/191
f 121/155/192 42/69/192 118/149/192
f 121/155/193 122/156/193 42/69/193
f 121/155/194 123/157/194 122/156/194
f 121/155/195 124/158/195 123/157/195
f 121/155/196 125/159/196 124/158/196
f 121/155/197 120/154/197 125/159/197
f 126/160/198 125/159/198 120/154/198
f 127/161/199 125/159/199 126/160/199
f 128/162/200 127/161/200 126/160/200
f 128/162/201 126/160/201 89/163/201
f 86/164/202 128/162/202 89/163/202
f 128/162/203 86/164/203 129/165/203
f 127/161/204 128/162/204 129/165/204
f 127/161/205 129/165/205 67/96/205
f 67/96/206 66/95/206 127/161/206
f 127/161/207 66/95/207 125/159/207
f 66/95/208 124/158/208 125/159/208
f 66/95/209 63/92/209 124/158/209
f 123/157/210 124/158/210 63/92/210
f 55/84/211 123/157/211 63/92/211
f 63/92/212 57/86/212 55/84/212
f 55/84/213 122/156/213 123/157/213
f 54/83/214 122/156/214 55/84/214
f 54/83/215 43/71/215 122/156/215
f 51/80/216 43/71/216 54/83/216
f 43/71/217 42/69/217 122/156/217
f 39/64/218 130/166/218 38/63/218
f 39/64/219 41/66/219 130/166/219
f 41/66/220 131/167/220 130/166/220
f 41/66/221 132/168/221 131/167/221
f 37/62/222 132/168/222 41/66/222
f 38/63/223 132/168/223 37/62/223
f 38/63/224 133/169/224 132/168/224
f 130/166/225 133/169/225 38/63/225
f 130/166/226 134/170/226 133/169/226
f 130/166/227 135/171/227 134/170/227
f 130/166/228 136/172/228 135/171/228
f 130/166/229 131/167/229 136/172/229
f 137/173/230 136/172/230 131/167/230
f 138/174/231 137/173/231 131/167/231
f 138/174/232 133/169/232 137/173/232
f 133/169/233 138/174/233 132/168/233
f 132/168/234 138/174/234 131/167/234
f 137/173/235 133/169/235 134/170/235
f 137/173/236 134/170/236 135/171/236
f 137/173/237 135/171/237 136/172/237
f 139/175/238 140/176/238 141/177/238
f 142/178/239 139/175/239 141/177/239
f 143/179/240 139/175/240 142/178/240
f 143/179/241 142/178/241 144/180/241
f 145/181/242 143/179/242 144/180/242
f 145/181/243 146/182/243 143/179/243
f 145/181/244 147/183/244 146/182/244
f 145/181/245 144/180/245 147/183/245
f 147/183/246 144/180/246 148/184/246
f 147/183/247 148/184/247 149/185/247
f 149/185/248 150/186/248 147/183/248
f 147/183/249 150/186/249 151/187/249
f 146/182/250 147/183/250 151/187/250
f 146/182/251 151/187/251 152/188/251
f 146/182/252 152/188/252 153/189/252
f 146/182/253 153/189/253 143/179/253
f 143/179/254 153/189/254 154/190/254
f 139/175/255 143/179/255 154/190/255
f 155/191/256 139/175/256 156/192/256
f 157/193/257 139/175/257 155/191/257
f 140/176/258 139/175/258 157/193/258
f 158/194/259 140/176/259 157/193/259
f 140/176/260 158/194/260 159/195/260
f 159/195/261 160/196/261 140/176/261
f 159/195/262 161/197/262 160/196/262
f 161/197/263 87/198/263 160/196/263
f 87/198/264 161/197/264 88/199/264
f 162/200/265 88/199/265 161/197/265
f 88/199/266 162/200/266 163/201/266
f 88/199/267 163/201/267 164/202/267
f 164/202/268 165/203/269 88/199/270
f 164/202/268 166/204/271 165/203/269
f 167/205/272 166/204/272 164/202/272
f 167/205/273 168/206/273 166/204/273
f 169/207/274 166/204/274 168/206/274
f 169/207/275 170/208/275 166/204/275
f 170/208/276 165/203/277 166/204/278
f 170/208/276 171/209/279 165/203/277
f 171/209/280 170/208/280 172/210/280
f 171/209/281 172/210/281 173/211/281
f 173/211/282 174/212/282 171/209/282
f 175/213/283 171/209/283 174/212/283
f 174/212/284 176/214/284 175/213/284
f 177/215/285 176/214/285 174/212/285
f 177/215/286 178/216/286 176/214/286
f 179/217/287 176/214/288 178/216/289
f 178/216/289 180/218/290 179/217/287
f 149/185/291 180/218/291 178/216/291
f 148/184/292 180/218/292 149/185/292
f 180/218/293 148/184/293 181/219/293
f 182/220/294 180/218/294 181/219/294
f 182/220/295 181/219/295 141/177/295
f 183/221/296 182/220/296 141/177/296
f 140/176/297 183/221/298 141/177/299
f 183/221/298 140/176/297 160/196/300
f 87/198/301 183/221/301 160/196/301
f 141/177/302 181/219/302 142/178/302
f 181/219/303 144/180/303 142/178/303
f 181/219/304 148/184/304 144/180/304
f 153/189/305 152/188/305 184/222/305
f 153/189/306 184/222/306 154/190/306
f 179/217/307 180/218/307 182/220/307
f 175/213/308 176/214/308 179/217/308
f 151/187/309 185/223/309 152/188/309
f 151/187/310 150/186/310 185/223/310
f 186/224/311 156/225/311 139/226/311
f 186/224/312 139/226/312 187/227/312
f 186/224/312 187/227/312 149/228/312
f 186/224/313 149/228/313 188/229/313
f 185/230/314 149/228/314 187/227/314
f 185/230/315 187/227/315 152/231/315
f 184/232/316 152/231/316 187/227/316
f 184/232/314 187/227/314 139/226/314
f 154/233/317 184/232/317 139/226/317
f 189/234/318 188/235/318 149/185/318
f 190/236/319 189/234/319 149/185/319
f 190/236/320 191/237/320 189/234/320
f 192/238/321 191/237/321 190/236/321
f 192/238/322 193/239/322 191/237/322
f 194/240/323 193/239/323 192/238/323
f 195/241/324 193/239/324 194/240/324
f 196/242/325 195/241/325 194/240/325
f 196/242/326 197/243/326 195/241/326
f 197/243/327 196/242/327 198/244/327
f 197/243/328 198/244/328 199/245/328
f 197/243/329 199/245/329 200/246/329
f 195/241/330 197/243/330 200/246/330
f 201/247/331 195/241/331 200/246/331
f 201/247/332 200/246/332 202/248/332
f 203/249/333 201/247/333 202/248/333
f 204/250/334 203/249/334 202/248/334
f 204/250/335 202/248/335 205/251/335
f 205/251/336 155/191/336 204/250/336
f 205/251/337 206/252/337 155/191/337
f 202/248/338 206/252/338 205/251/338
f 202/248/339 200/246/339 206/252/339
f 199/245/340 206/252/340 200/246/340
f 199/245/341 157/193/341 206/252/341
f 199/245/342 158/194/342 157/193/342
f 199/245/343 207/253/343 158/194/343
f 199/245/344 198/244/344 207/253/344
f 198/244/345 208/254/345 207/253/345
f 209/255/346 208/254/346 198/244/346
f 196/242/347 209/255/347 198/244/347
f 196/242/348 210/256/348 209/255/348
f 194/257/349 210/256/349 196/242/349
f 194/257/350 192/258/350 210/256/350
f 192/258/351 211/259/351 210/256/351
f 192/258/352 212/260/352 211/259/352
f 192/258/353 190/261/353 212/260/353
f 212/260/354 190/261/354 178/262/354
f 178/262/355 177/263/355 212/260/355
f 177/263/356 211/259/356 212/260/356
f 213/264/357 211/259/357 177/263/357
f 213/264/358 214/265/358 211/259/358
f 172/266/359 214/265/359 213/264/359
f 169/267/360 215/268/360 214/265/360
f 215/268/361 169/267/361 168/269/361
f 215/268/362 168/269/362 216/270/362
f 216/270/363 217/271/363 215/268/363
f 216/270/364 209/255/364 217/271/364
f 216/270/365 208/254/365 209/255/365
f 216/270/366 218/272/366 208/254/366
f 218/272/367 216/270/367 168/269/367
f 218/272/368 168/269/368 167/273/368
f 167/273/369 219/274/369 218/272/369
f 207/253/370 218/272/370 219/274/370
f 220/275/371 207/253/371 219/274/371
f 220/275/372 159/195/372 207/253/372
f 159/195/373 158/194/373 207/253/373
f 207/253/374 208/254/374 218/272/374
f 178/262/375 190/261/375 149/276/375
f 150/277/376 149/228/376 185/230/376
f 82/111/377 74/103/377 221/278/377
f 221/278/378 183/279/378 82/111/378
f 221/278/379 182/280/379 183/279/379
f 221/278/380 179/281/380 182/280/380
f 221/278/381 72/101/381 179/281/381
f 72/101/382 221/278/382 74/103/382
f 70/99/383 175/282/383 72/101/383
f 68/97/384 175/282/384 70/99/384
f 68/97/385 171/283/385 175/282/385
f 68/97/386 165/284/386 171/283/386
f 68/97/387 129/165/387 165/284/387
f 67/96/388 129/165/388 68/97/388
f 86/164/389 165/284/389 129/165/389
f 86/164/390 88/285/390 165/284/390
f 161/286/391 222/287/391 223/288/391
f 222/287/392 161/286/392 224/289/392
f 161/286/393 159/290/393 224/289/393
f 225/291/394 162/292/394 161/286/394
f 225/291/395 220/293/395 162/292/395
f 220/293/396 225/291/396 223/288/396
f 220/293/397 223/288/397 226/294/397
f 226/294/398 223/288/398 222/287/398
f 225/291/399 161/286/399 223/288/399
f 163/295/400 227/296/400 164/297/400
f 227/296/401 163/295/401 228/298/401
f 228/298/402 229/299/402 227/296/402
f 228/298/403 230/300/403 229/299/403
f 228/298/404 219/301/404 230/300/404
f 228/298/405 163/295/405 219/301/405
f 219/301/406 167/302/406 230/300/406
f 230/300/407 167/302/407 231/303/407
f 230/300/408 231/303/408 229/299/408
f 229/299/409 231/303/409 227/296/409
f 231/303/410 164/297/410 227/296/410
f 164/297/411 231/303/411 167/302/411
f 220/304/412 222/305/412 224/306/412
f 222/305/413 220/304/413 226/307/413
f 220/304/414 224/306/414 159/308/414
f 84/113/415 82/111/415 87/116/415
f 82/111/416 183/279/416 87/116/416
f 163/201/417 220/275/417 219/274/417
f 162/200/418 220/275/418 163/201/418
f 174/309/419 232/310/419 233/311/419
f 233/311/420 234/312/420 174/309/420
f 174/309/421 234/312/421 177/313/421
f 235/314/422 174/309/422 173/315/422
f 235/314/423 173/315/423 213/316/423
f 213/316/424 232/310/424 235/314/424
f 213/316/425 236/317/425 232/310/425
f 236/317/426 233/311/426 232/310/426
f 235/314/427 232/310/427 174/309/427
f 172/318/428 170/319/428 237/320/428
f 237/320/429 238/321/429 172/318/429
f 238/321/430 237/320/430 239/322/430
f 238/321/431 239/322/431 240/323/431
f 238/321/432 240/323/432 214/324/432
f 238/321/433 214/324/433 172/318/433
f 214/324/434 240/323/434 169/325/434
f 240/323/435 241/326/435 169/325/435
f 240/323/436 239/322/436 241/326/436
f 239/322/437 237/320/437 241/326/437
f 241/326/438 237/320/438 170/319/438
f 170/319/439 169/325/439 241/326/439
f 213/327/440 234/328/440 233/329/440
f 233/329/441 236/330/441 213/327/441
f 213/327/442 177/331/442 234/328/442
f 72/101/443 175/282/443 179/281/443
f 173/211/444 172/210/444 213/332/444
f 209/255/445 210/256/445 217/271/445
f 210/256/446 211/259/446 217/271/446
f 211/259/447 215/268/447 217/271/447
f 211/259/448 214/265/448 215/268/448
f 242/333/449 85/334/449 90/335/449
f 90/335/450 92/336/450 242/333/450
f 92/336/451 105/337/451 242/333/451
f 243/338/452 242/333/452 105/337/452
f 117/339/453 243/338/453 105/337/453
f 243/338/454 117/339/454 244/340/454
f 244/340/455 245/341/455 243/338/455
f 245/341/456 244/340/456 246/342/456
f 245/341/457 246/342/457 247/343/457
f 245/341/458 247/343/458 248/344/458
f 243/338/459 245/341/459 248/344/459
f 242/333/460 243/338/460 248/344/460
f 248/344/461 83/345/461 242/333/461
f 81/346/462 83/345/462 248/344/462
f 247/343/463 81/346/463 248/344/463
f 249/347/464 81/346/464 247/343/464
f 81/346/465 249/347/465 80/348/465
f 79/349/466 80/348/466 249/347/466
f 244/340/467 79/349/467 249/347/467
f 244/340/468 249/347/469 250/350/470
f 244/340/471 250/350/471 246/342/471
f 250/350/472 251/351/472 246/342/472
f 250/350/473 252/352/473 251/351/473
f 250/350/470 249/347/469 252/352/474
f 253/353/475 252/352/475 249/347/475
f 247/343/476 253/353/476 249/347/476
f 246/342/477 253/353/477 247/343/477
f 254/354/478 253/353/478 246/342/478
f 251/351/479 254/354/479 246/342/479
f 255/355/480 254/354/480 251/351/480
f 256/356/481 254/354/481 255/355/481
f 257/357/482 256/356/482 255/355/482
f 258/358/483 256/356/484 257/357/485
f 259/359/486 258/358/483 257/357/485
f 258/358/487 260/360/487 256/356/487
f 260/360/488 261/361/488 256/356/488
f 260/360/489 262/362/489 261/361/489
f 260/360/490 263/363/490 262/362/490
f 262/362/491 263/363/491 264/364/491
f 265/365/492 262/362/492 264/364/492
f 257/366/493 265/365/493 264/364/493
f 266/367/494 265/365/494 257/366/494
f 257/366/495 255/355/495 266/367/495
f 255/355/496 251/351/496 266/367/496
f 252/352/497 266/367/497 251/351/497
f 253/353/498 266/367/498 252/352/498
f 253/353/499 267/368/499 266/367/499
f 254/354/500 267/368/500 253/353/500
f 267/368/501 254/354/501 261/361/501
f 265/369/502 267/368/502 261/361/502
f 262/362/503 265/369/503 261/361/503
f 256/356/504 261/361/504 254/354/504
f 83/345/505 85/334/505 242/333/505
f 98/127/506 97/126/506 107/137/506
f 108/138/507 98/127/507 107/137/507
f 99/128/508 98/127/508 108/138/508
f 106/136/509 108/138/509 107/137/509
f 268/370/510 269/371/510 270/372/510
f 269/371/511 268/370/511 271/373/511
f 272/374/512 269/371/512 271/373/512
f 272/374/513 111/141/513 269/371/513
f 112/142/514 111/141/514 272/374/514
f 273/375/515 112/142/515 272/374/515
f 112/142/516 273/375/516 113/143/516
f 273/375/517 274/376/517 113/143/517
f 273/375/518 275/377/518 274/376/518
f 275/377/519 273/375/519 276/378/519
f 275/377/520 276/378/520 277/379/520
f 277/379/521 278/380/521 275/377/521
f 279/381/522 278/380/522 277/379/522
f 280/382/523 278/380/524 279/381/525
f 281/383/526 280/382/523 279/381/525
f 280/382/527 282/384/527 278/380/527
f 282/384/528 283/385/528 278/380/528
f 283/385/529 282/384/529 284/386/529
f 283/385/530 284/386/530 285/387/530
f 283/385/531 285/387/531 286/388/531
f 275/377/532 283/385/532 286/388/532
f 278/380/533 283/385/533 275/377/533
f 275/377/534 286/388/534 274/376/534
f 274/376/535 286/388/535 287/389/535
f 274/376/536 287/389/536 268/370/536
f 270/372/537 274/376/537 268/370/537
f 270/372/538 113/143/538 274/376/538
f 113/143/539 270/372/539 114/390/539
f 270/372/540 110/391/540 114/390/540
f 110/391/541 270/372/541 111/141/541
f 270/372/542 269/371/542 111/141/542
f 287/389/543 277/379/543 276/378/543
f 279/392/544 277/379/544 287/389/544
f 285/393/545 279/392/545 287/389/545
f 286/388/546 285/393/546 287/389/546
f 288/394/547 285/393/547 284/386/547
f 285/393/548 288/394/548 279/392/548
f 288/394/549 281/395/549 279/392/549
f 289/396/550 288/394/550 284/386/550
f 282/384/551 289/396/551 284/386/551
f 273/375/552 271/373/552 276/378/552
f 271/373/553 273/375/553 272/374/553
f 271/373/554 268/370/554 287/389/554
f 276/378/555 271/373/555 287/389/555
f 281/397/556 288/398/556 289/399/556
f 280/400/556 281/397/556 289/399/556
f 280/400/556 289/399/556 282/401/556
f 259/402/556 264/403/556 263/404/556
f 259/402/556 263/404/556 258/405/556
f 263/404/556 260/406/556 258/405/556
f 266/367/557 267/368/557 265/365/557
f 244/340/558 117/339/558 79/349/558
f 290/407/559 291/408/559 292/409/559
f 290/407/560 292/409/560 293/410/560
f 293/410/561 294/411/561 290/407/561
f 293/410/562 295/412/562 294/411/562
f 292/409/563 295/412/563 293/410/563
f 296/413/564 295/412/564 292/409/564
f 297/414/565 295/412/565 296/413/565
f 298/415/566 295/412/566 297/414/566
f 294/411/567 295/412/567 298/415/567
f 294/411/568 298/415/568 299/416/568
f 294/411/569 299/416/569 290/407/569
f 299/416/570 298/415/570 300/417/570
f 298/415/571 297/414/571 300/417/571
f 297/414/572 296/413/572 300/417/572
f 296/413/573 291/408/573 300/417/573
f 291/408/574 296/413/574 292/409/574
f 291/418/575 290/419/575 301/420/575
f 291/418/576 301/420/576 302/421/576
f 303/422/577 291/418/577 302/421/577
f 303/422/578 302/421/579 304/423/580
f 303/422/578 304/423/580 305/424/581
f 303/422/582 305/424/583 306/425/584
f 303/422/582 306/425/584 307/426/585
f 303/422/586 307/426/586 308/427/586
f 303/422/587 308/427/588 309/428/589
f 309/428/589 310/429/590 303/422/587
f 311/430/591 310/429/591 309/428/591
f 312/431/592 310/429/592 311/430/592
f 312/431/593 299/432/593 310/429/593
f 312/431/594 116/146/594 299/432/594
f 116/146/595 312/431/595 78/107/595
f 313/433/596 78/107/596 312/431/596
f 312/431/597 311/430/597 313/433/597
f 311/430/598 314/434/598 313/433/598
f 314/434/599 315/435/599 313/433/599
f 314/434/600 316/436/600 315/435/600
f 308/427/601 316/436/601 314/434/601
f 308/427/602 307/426/602 316/436/602
f 316/436/603 317/437/603 315/435/603
f 318/438/604 317/437/604 316/436/604
f 319/439/605 317/437/605 318/438/605
f 319/439/606 318/438/606 320/440/606
f 321/441/607 319/439/607 320/440/607
f 321/441/608 320/440/608 322/442/608
f 321/441/609 322/442/609 110/443/609
f 48/444/610 321/441/610 110/443/610
f 48/444/611 323/445/611 321/441/611
f 321/441/612 323/445/612 319/439/612
f 319/439/613 323/445/613 317/437/613
f 317/437/614 323/445/614 324/446/614
f 317/437/615 324/446/615 315/435/615
f 324/446/616 325/447/616 315/435/616
f 315/435/617 325/447/617 59/88/617
f 59/88/618 313/433/618 315/435/618
f 60/89/619 313/433/619 59/88/619
f 60/89/620 78/107/620 313/433/620
f 77/106/621 78/107/621 60/89/621
f 77/106/622 60/89/622 326/448/622
f 60/89/623 61/90/623 326/448/623
f 299/432/624 116/146/624 290/419/624
f 290/419/625 116/146/625 115/145/625
f 290/419/626 115/145/626 301/420/626
f 301/420/627 115/145/627 327/449/627
f 328/450/628 301/420/628 327/449/628
f 322/442/629 328/450/629 327/449/629
f 322/442/630 320/440/630 328/450/630
f 328/450/631 320/440/631 305/424/631
f 304/423/632 328/450/632 305/424/632
f 318/438/633 305/424/633 320/440/633
f 306/425/634 305/424/634 318/438/634
f 301/451/635 328/452/635 329/453/635
f 301/451/636 329/453/636 330/454/636
f 330/454/637 331/455/637 301/451/637
f 330/454/638 332/456/638 331/455/638
f 329/453/639 332/456/639 330/454/639
f 333/457/640 332/456/640 329/453/640
f 334/458/641 332/456/641 333/457/641
f 335/459/642 332/456/642 334/458/642
f 331/455/643 332/456/643 335/459/643
f 331/455/644 335/459/644 302/460/644
f 331/455/645 302/460/645 301/451/645
f 302/460/646 335/459/646 304/461/646
f 335/459/647 334/458/647 304/461/647
f 334/458/648 333/457/648 304/461/648
f 333/457/649 328/452/649 304/461/649
f 328/452/650 333/457/650 329/453/650
f 299/432/651 300/462/651 310/429/651
f 300/462/652 303/422/653 310/429/654
f 303/422/653 300/462/652 291/418/655
f 257/366/656 264/364/656 259/463/656
f 336/464/657 115/145/657 101/130/657
f 327/449/658 115/145/658 336/464/658
f 327/449/659 336/464/659 110/443/659
f 322/442/660 327/449/660 110/443/660
f 126/160/661 91/153/661 89/163/661
f 126/160/662 120/154/662 91/153/662
f 337/465/663 64/466/663 69/467/663
f 64/466/664 337/465/664 62/468/664
f 62/468/665 337/465/665 61/469/665
f 338/470/666 61/469/666 337/465/666
f 326/471/667 61/469/667 338/470/667
f 338/470/668 339/472/668 326/471/668
f 339/472/669 338/470/669 340/473/669
f 340/473/670 341/474/670 339/472/670
f 340/473/671 342/475/671 341/474/671
f 340/473/672 343/476/672 342/475/672
f 338/470/673 343/476/673 340/473/673
f 337/465/674 343/476/674 338/470/674
f 343/476/675 337/465/675 71/477/675
f 73/478/676 343/476/676 71/477/676
f 342/475/677 343/476/677 73/478/677
f 344/479/678 342/475/678 73/478/678
f 73/478/679 76/480/679 344/479/679
f 77/481/680 344/479/680 76/480/680
f 339/472/681 344/479/681 77/481/681
f 339/472/682 345/482/683 344/479/684
f 339/472/685 341/474/685 345/482/685
f 345/482/686 341/474/686 346/483/686
f 345/482/687 346/483/687 347/484/687
f 345/482/683 347/484/688 344/479/684
f 348/485/689 344/479/689 347/484/689
f 342/475/690 344/479/690 348/485/690
f 341/474/691 342/475/691 348/485/691
f 349/486/692 341/474/692 348/485/692
f 346/483/693 341/474/693 349/486/693
f 350/487/694 346/483/694 349/486/694
f 351/488/695 350/487/695 349/486/695
f 352/489/696 350/487/696 351/488/696
f 352/489/697 351/488/698 353/490/699
f 354/491/700 352/489/697 353/490/699
f 353/490/701 351/488/701 355/492/701
f 355/492/702 351/488/702 356/493/702
f 355/492/703 356/493/703 357/494/703
f 355/492/704 357/494/704 358/495/704
f 357/494/705 359/496/705 358/495/705
f 360/497/706 359/496/706 357/494/706
f 352/498/707 359/496/707 360/497/707
f 361/499/708 352/498/708 360/497/708
f 352/498/709 361/499/709 350/487/709
f 350/487/710 361/499/710 346/483/710
f 347/484/711 346/483/711 361/499/711
f 348/485/712 347/484/712 361/499/712
f 348/485/713 361/499/713 362/500/713
f 349/486/714 348/485/714 362/500/714
f 362/500/715 356/493/715 349/486/715
f 360/501/716 356/493/716 362/500/716
f 357/494/717 356/493/717 360/501/717
f 351/488/718 349/486/718 356/493/718
f 71/477/719 337/465/719 69/467/719
f 56/85/720 363/502/720 53/82/720
f 56/85/721 325/447/721 363/502/721
f 56/85/722 59/88/722 325/447/722
f 364/503/723 363/502/723 325/447/723
f 365/504/724 363/502/724 364/503/724
f 363/502/725 365/504/725 366/505/725
f 366/505/726 52/81/726 363/502/726
f 52/81/727 366/505/727 367/506/727
f 367/506/728 50/79/728 52/81/728
f 49/78/729 50/79/729 367/506/729
f 49/78/730 367/506/730 323/507/730
f 323/507/731 48/77/731 49/78/731
f 368/508/732 369/509/732 370/510/732
f 370/510/733 371/511/733 368/508/733
f 372/512/734 371/511/734 370/510/734
f 372/512/735 370/510/735 367/506/735
f 366/505/736 372/512/736 367/506/736
f 373/513/737 372/512/737 366/505/737
f 366/505/738 365/504/738 373/513/738
f 373/513/739 365/504/739 374/514/739
f 373/513/740 374/514/740 375/515/740
f 375/515/741 376/516/741 373/513/741
f 375/515/742 377/517/742 376/516/742
f 377/517/743 375/515/743 378/518/743
f 379/519/744 377/517/744 378/518/744
f 379/519/745 378/518/746 380/520/747
f 381/521/748 379/519/745 380/520/747
f 380/520/749 378/518/749 382/522/749
f 382/522/750 378/518/750 383/523/750
f 383/523/751 384/524/751 382/522/751
f 383/523/752 385/525/752 384/524/752
f 383/523/753 386/526/753 385/525/753
f 375/515/754 386/526/754 383/523/754
f 378/518/755 375/515/755 383/523/755
f 375/515/756 374/514/756 386/526/756
f 374/514/757 387/527/757 386/526/757
f 374/514/758 368/508/758 387/527/758
f 369/509/759 368/508/759 374/514/759
f 369/509/760 374/514/760 365/504/760
f 365/504/761 364/528/761 369/509/761
f 369/509/762 364/528/762 323/529/762
f 323/529/763 367/506/763 369/509/763
f 369/509/764 367/506/764 370/510/764
f 387/527/765 376/516/765 377/517/765
f 379/530/766 387/527/766 377/517/766
f 385/531/767 387/527/767 379/530/767
f 386/526/768 387/527/768 385/531/768
f 371/511/769 387/527/769 368/508/769
f 376/516/770 387/527/770 371/511/770
f 373/513/771 376/516/771 371/511/771
f 371/511/772 372/512/772 373/513/772
f 381/532/556 388/533/556 389/534/556
f 380/535/556 388/533/556 381/532/556
f 380/535/556 382/536/556 388/533/556
f 354/537/556 358/538/556 359/539/556
f 354/537/556 353/540/556 358/538/556
f 358/538/556 353/540/556 355/541/556
f 361/499/773 360/497/773 362/500/773
f 339/472/774 77/481/774 326/471/774
f 314/542/775 390/543/775 308/544/775
f 314/542/776 391/545/776 390/543/776
f 391/545/777 314/542/777 392/546/777
f 391/545/778 392/546/778 393/547/778
f 390/543/779 391/545/779 393/547/779
f 394/548/780 390/543/780 393/547/780
f 395/549/781 394/548/781 393/547/781
f 396/550/782 395/549/782 393/547/782
f 392/546/783 396/550/783 393/547/783
f 392/546/784 311/551/784 396/550/784
f 392/546/785 314/542/785 311/551/785
f 311/551/786 309/552/786 396/550/786
f 396/550/787 309/552/787 395/549/787
f 395/549/788 309/552/788 394/548/788
f 394/548/789 309/552/789 308/544/789
f 308/544/790 390/543/790 394/548/790
f 316/553/791 397/554/791 318/555/791
f 316/553/792 398/556/792 397/554/792
f 398/556/793 316/553/793 399/557/793
f 398/556/794 399/557/794 400/558/794
f 397/554/795 398/556/795 400/558/795
f 401/559/796 397/554/796 400/558/796
f 402/560/797 401/559/797 400/558/797
f 403/561/798 402/560/798 400/558/798
f 399/557/799 403/561/799 400/558/799
f 399/557/800 307/562/800 403/561/800
f 399/557/801 316/553/801 307/562/801
f 307/562/802 306/563/802 403/561/802
f 403/561/803 306/563/803 402/560/803
f 402/560/804 306/563/804 401/559/804
f 401/559/805 306/563/805 318/555/805
f 318/555/806 397/554/806 401/559/806
f 65/94/807 69/98/807 64/93/807
f 363/502/808 52/81/808 53/82/808
f 389/564/809 384/524/809 385/531/809
f 385/531/810 379/530/810 389/564/810
f 389/564/811 379/530/811 381/565/811
f 388/566/812 384/524/812 389/564/812
f 382/522/813 384/524/813 388/566/813
f 352/498/814 354/567/814 359/496/814
f 157/193/815 155/191/815 206/252/815
f 156/192/816 204/250/816 155/191/816
f 156/192/817 186/568/817 204/250/817
f 186/568/818 203/249/818 204/250/818
f 186/568/819 404/569/819 203/249/819
f 188/235/820 404/569/820 186/568/820
f 188/235/821 189/234/821 404/569/821
f 405/570/822 404/569/822 189/234/822
f 405/570/823 189/234/823 191/237/823
f 406/571/824 405/570/824 191/237/824
f 406/571/825 191/237/825 193/239/825
f 201/247/826 406/571/826 193/239/826
f 201/247/827 193/239/827 195/241/827
f 203/249/828 406/571/828 201/247/828
f 404/569/829 406/571/829 203/249/829
f 404/569/830 405/570/830 406/571/830