# Blender v2.81 (sub 16) OBJ File: 'vaisseau_mere.blend'
# www.blender.org
mtllib vaisseau_mere.mtl
o Vaisseau-mere_Cube
v -0.911220 0.500336 -0.496275
v -0.911220 -0.499839 -0.496275
v -1.946469 0.572069 -0.447788
v -1.946469 -0.560945 -0.447788
v -1.520795 -0.485688 -0.493094
v -1.520795 0.485513 -0.493094
v -0.911229 0.000000 -0.613943
v -0.295751 0.480083 -0.485523
v -0.295751 -0.499848 -0.485523
v -0.295751 0.000001 -0.604977
v 0.320093 0.466938 -0.471132
v 0.320094 -0.499848 -0.471132
v 0.320094 0.000002 -0.587057
v 1.567447 0.438346 -0.426587
v 0.935915 0.456028 -0.455183
v 0.935915 -0.499848 -0.455183
v 0.935915 0.000003 -0.567696
v 2.231686 0.417286 -0.365186
v 1.567447 -0.499848 -0.426587
v 1.567447 0.000004 -0.534108
v 2.751423 0.391870 -0.256979
v 2.231682 -0.499848 -0.365186
v 2.231692 0.000005 -0.458737
v 3.101723 0.343687 -0.161449
v 2.826360 -0.499848 -0.257871
v 2.659092 0.000007 -0.324387
v 3.256679 0.294801 -0.078478
v 3.205983 -0.501136 -0.134240
v 3.046028 -0.000193 -0.162430
v 3.297263 -0.424865 -0.065145
v 3.203335 0.000406 -0.056371
v -1.740146 -0.520698 -0.470395
v -0.911229 -0.245236 -0.545040
v -1.989788 0.587057 -0.223698
v -1.214929 0.492917 -0.489195
v -0.911226 -0.553431 -0.243506
v -1.989788 -0.576460 -0.223698
v -0.911226 0.553925 -0.243506
v -1.214929 -0.492917 -0.489195
v -1.740146 0.524100 -0.470395
v -1.531097 0.552770 -0.245814
v -1.531097 -0.552946 -0.245814
v -0.911229 0.245238 -0.545040
v -1.222071 0.000000 -0.725140
v -0.295751 -0.245236 -0.537553
v -0.295751 -0.553427 -0.238209
v -0.295751 0.534626 -0.238209
v 0.012181 -0.499848 -0.478258
v -0.295751 0.246201 -0.537553
v 0.012181 0.000002 -0.595948
v -0.603491 0.489661 -0.490774
v -0.603491 0.000001 -0.612045
v -0.603491 -0.499848 -0.490774
v 0.320094 -0.245236 -0.521625
v 0.320094 -0.553427 -0.231148
v 0.320093 0.522127 -0.231148
v 0.628210 0.462122 -0.462972
v 0.320093 0.246848 -0.521625
v 0.012181 0.471645 -0.478258
v 0.935915 -0.245236 -0.504221
v 0.935915 -0.553427 -0.223332
v 0.935915 0.511754 -0.223332
v 1.252262 0.000003 -0.550188
v 0.935915 0.247386 -0.504221
v 1.252262 0.448798 -0.440311
v 0.628211 0.000002 -0.577167
v 0.628210 -0.499848 -0.462972
v 1.567447 -0.245236 -0.473566
v 1.567447 -0.553427 -0.209330
v 1.567447 0.494929 -0.209330
v 1.567447 0.248245 -0.473566
v 1.252262 -0.499848 -0.440311
v 2.231694 -0.245236 -0.406146
v 2.231682 -0.553427 -0.179222
v 2.231686 0.474900 -0.179222
v 2.231686 0.249277 -0.406146
v 2.528497 0.000006 -0.390410
v 2.524135 0.406620 -0.310678
v 1.898929 0.429812 -0.394907
v 1.898929 0.000004 -0.495159
v 1.898929 -0.499848 -0.394907
v 2.629146 -0.245237 -0.282328
v 2.817532 -0.553427 -0.126462
v 2.751703 0.450696 -0.126109
v 3.010841 -0.499850 -0.196621
v 2.762484 0.250490 -0.286821
v 2.851125 0.000006 -0.243908
v 2.520934 -0.499848 -0.310679
v 2.905270 -0.241008 -0.158073
v 3.192335 -0.555593 -0.066025
v 3.103762 0.447008 -0.086648
v 3.202036 0.327196 -0.111112
v 3.141468 0.253268 -0.145488
v 2.937774 0.394783 -0.211504
v 3.082426 -0.239547 -0.064813
v 3.318095 -0.457317 -0.034057
v 3.266478 0.327431 -0.042588
v 3.293967 0.231108 -0.058094
v 3.213676 0.000001 -0.028923
v 3.118529 0.000010 -0.111054
v 3.275079 -0.480793 -0.099225
v 3.265509 -0.512306 -0.048452
v 3.212005 0.242126 -0.103215
v 3.117681 -0.241028 -0.029695
v 3.299946 0.242127 -0.029215
v 2.938031 0.452618 -0.103017
v 2.999436 -0.553430 -0.096454
v 3.203498 0.415045 -0.060332
v 3.030424 -0.234552 -0.103069
v 2.529746 -0.245236 -0.345768
v 2.524136 0.464767 -0.152464
v 2.761823 -0.245440 -0.216871
v 2.947336 0.250498 -0.216459
v 1.898929 -0.553427 -0.193786
v 1.898929 0.248676 -0.438734
v 1.898929 -0.245236 -0.438734
v 2.523862 0.249810 -0.345578
v 2.520912 -0.553427 -0.152464
v 1.252262 -0.553427 -0.216044
v 1.898929 0.486826 -0.193786
v 0.628210 -0.553427 -0.227147
v 0.628210 0.247087 -0.512725
v 1.252262 0.504882 -0.216044
v 1.252262 -0.245236 -0.488250
v 1.252262 0.247744 -0.488250
v 0.012181 0.526595 -0.234644
v 0.012181 -0.553427 -0.234644
v 0.628210 0.517550 -0.227147
v 0.628211 -0.245236 -0.512725
v -0.603491 0.245734 -0.543619
v -0.603491 -0.553427 -0.240790
v 0.012181 -0.245236 -0.529520
v 0.012181 0.246609 -0.529520
v -1.222082 -0.245224 -0.646237
v -1.762044 -0.562198 -0.234733
v -1.219285 0.553418 -0.244316
v -1.762044 0.565425 -0.234733
v -1.219285 -0.553417 -0.244316
v -0.603491 0.543737 -0.240790
v -1.222082 0.245224 -0.646237
v -0.603491 -0.245236 -0.543619
v -2.173392 0.452949 -0.661510
v -2.173392 -0.453476 -0.661510
v -1.737813 -0.504142 -0.703576
v -1.737813 0.504142 -0.703576
v -1.957212 -0.478923 -0.682490
v -2.514776 -0.212155 -0.934753
v -1.405824 0.498896 -0.701996
v -1.405824 -0.498896 -0.701996
v -1.957212 0.478747 -0.682490
v -2.050888 -0.233170 -1.021187
v -2.514776 0.212154 -0.934753
v -2.050888 0.233170 -1.021187
v -1.736886 -0.000000 -1.079422
v -1.727990 -0.245229 -1.017807
v -2.282392 -0.222654 -0.975885
v -2.282392 0.222654 -0.975885
v -1.727990 0.245229 -1.017807
v -2.552335 -0.000000 -1.150645
v -2.065411 -0.000000 -1.283406
v -2.529204 -0.235247 -1.137677
v -2.067439 -0.258399 -1.219796
v -2.529204 0.235247 -1.137677
v -2.067439 0.258399 -1.219796
v -2.308499 -0.000000 -1.214946
v -1.739745 -0.000000 -1.288301
v -1.734977 -0.262065 -1.217913
v -2.297880 -0.246820 -1.176644
v -2.297880 0.246820 -1.176644
v -1.734977 0.262065 -1.217913
v -1.476113 0.245224 -0.779696
v -1.472325 -0.000000 -0.842201
v -1.206997 -0.367841 -0.611573
v -1.201943 -0.122612 -0.676268
v -1.476113 -0.245224 -0.779696
v -1.319452 -0.498876 -0.590568
v -1.319452 0.498876 -0.590568
v -1.201943 0.122612 -0.676268
v -1.206997 0.367841 -0.611573
v -1.589838 -0.367851 -0.869936
v -1.742704 -0.122612 -1.058746
v -1.742704 0.122612 -1.058746
v -1.589838 0.367851 -0.869936
v -1.398435 0.367847 -0.684550
v -1.398435 -0.367847 -0.684550
v -1.472311 0.122612 -0.807774
v -1.472311 -0.122612 -0.807774
v -2.562257 0.569960 -0.448877
v -2.562257 -0.559187 -0.448877
v -2.362603 0.586018 -0.224240
v -2.362603 -0.575773 -0.224240
v -2.550817 0.454020 -0.666680
v -2.550817 -0.454548 -0.666680
v -2.805739 -0.212697 -0.849031
v -2.805739 0.212696 -0.849031
v -2.846975 0.000000 -1.071041
v -2.824238 -0.235786 -1.056958
v -2.824238 0.235786 -1.056958
v -2.803821 0.569967 -0.452091
v -2.803821 -0.559174 -0.452091
v -3.736938 -0.224725 -0.553477
v -2.614013 0.586028 -0.225845
v -2.614013 -0.575761 -0.225845
v -3.739316 -0.000477 -0.568208
v -3.736938 0.223754 -0.553477
v -3.438962 -0.457094 -0.442558
v -2.802252 0.454032 -0.675264
v -2.802252 -0.454539 -0.675264
v -3.438962 0.455429 -0.442558
v -3.061265 -0.212687 -0.773597
v -3.061265 0.212707 -0.773597
v -3.102506 0.000011 -0.979267
v -3.079775 -0.235776 -0.964107
v -3.079775 0.235798 -0.964107
v -0.911220 0.500336 0.496275
v -0.911220 -0.499839 0.496275
v -1.946469 0.572069 0.447788
v -1.946469 -0.560945 0.447788
v -2.013515 -0.598525 0.000000
v -0.911226 0.623355 0.000000
v -2.013515 0.609122 0.000000
v -0.911226 -0.622762 0.000000
v -1.520795 -0.485688 0.493094
v -1.520795 0.485513 0.493094
v -1.530573 -0.623469 0.000000
v -1.530573 0.623293 0.000000
v -0.911229 0.000000 0.613943
v -0.295751 0.480083 0.485523
v -0.295751 -0.499848 0.485523
v -0.295751 0.604057 0.000000
v -0.295751 -0.622857 0.000000
v -0.295751 0.000001 0.604977
v 0.320093 0.466938 0.471132
v 0.320094 -0.499848 0.471132
v 0.320094 0.591560 0.000000
v 0.320094 -0.622857 0.000000
v 0.320094 0.000002 0.587057
v 1.567447 0.438346 0.426587
v 0.935915 0.456028 0.455183
v 0.935915 -0.499848 0.455183
v 0.935915 0.581187 0.000000
v 0.935915 -0.622857 0.000000
v 0.935915 0.000003 0.567696
v 2.231686 0.417286 0.365186
v 1.567447 -0.499848 0.426587
v 1.567447 0.564364 0.000000
v 1.567447 -0.622857 0.000000
v 1.567447 0.000004 0.534108
v 2.751423 0.391870 0.256979
v 2.231682 -0.499848 0.365186
v 2.231686 0.544336 0.000000
v 2.231682 -0.622857 0.000000
v 2.231692 0.000005 0.458737
v 3.101723 0.343687 0.161449
v 2.826360 -0.499848 0.257871
v 2.751703 0.520902 0.000000
v 2.817521 -0.622857 0.000000
v 2.659092 0.000007 0.324387
v 3.256679 0.294801 0.078478
v 3.205983 -0.501136 0.134240
v 3.104318 0.477864 0.000000
v 3.192194 -0.626100 0.000000
v 3.046028 -0.000193 0.162430
v 3.297263 -0.424865 0.065145
v 3.269576 0.341926 0.000000
v 3.321066 -0.475710 -0.000000
v 3.203335 0.000406 0.056371
v 3.230548 -0.000404 0.000000
v -1.740146 -0.520698 0.470395
v -0.911229 -0.245236 0.545040
v -1.989788 0.587057 0.223698
v -1.214929 0.492917 0.489195
v -0.911226 -0.553431 0.243506
v -1.989788 -0.576460 0.223698
v -0.911226 0.553925 0.243506
v -0.603491 0.613168 0.000000
v -1.773633 -0.608493 0.000000
v -1.219290 0.622859 0.000000
v -1.214929 -0.492917 0.489195
v -1.740146 0.524100 0.470395
v -1.219290 -0.622862 0.000000
v -1.773633 0.611719 0.000000
v -1.531097 0.552770 0.245814
v -1.531097 -0.552946 0.245814
v -0.911229 0.245238 0.545040
v -1.222071 0.000000 0.725140
v -0.603491 -0.622861 0.000000
v -0.295751 -0.245236 0.537553
v -0.295751 -0.553427 0.238209
v -0.295751 0.534626 0.238209
v 0.012181 -0.499848 0.478258
v -0.295751 0.246201 0.537553
v 0.012181 0.000002 0.595948
v 0.012181 0.596027 0.000000
v -0.603491 0.489661 0.490774
v -0.603491 0.000001 0.612045
v -0.603491 -0.499848 0.490774
v 0.320094 -0.245236 0.521625
v 0.320094 -0.553427 0.231148
v 0.320093 0.522127 0.231148
v 0.628210 0.462122 0.462972
v 0.320093 0.246848 0.521625
v 0.628210 0.586983 0.000000
v 0.012181 0.471645 0.478258
v 0.012181 -0.622857 0.000000
v 0.935915 -0.245236 0.504221
v 0.935915 -0.553427 0.223332
v 0.935915 0.511754 0.223332
v 1.252262 0.000003 0.550188
v 0.935915 0.247386 0.504221
v 1.252262 0.448798 0.440311
v 1.252262 0.574316 0.000000
v 0.628211 0.000002 0.577167
v 0.628210 -0.499848 0.462972
v 0.628210 -0.622857 0.000000
v 1.567447 -0.245236 0.473566
v 1.567447 -0.553427 0.209330
v 1.567447 0.494929 0.209330
v 1.898929 0.556261 0.000000
v 1.567447 0.248245 0.473566
v 1.252262 -0.499848 0.440311
v 1.252262 -0.622857 0.000000
v 2.231694 -0.245236 0.406146
v 2.231682 -0.553427 0.179222
v 2.231686 0.474900 0.179222
v 2.231686 0.249277 0.406146
v 2.520912 -0.622857 0.000000
v 2.528497 0.000006 0.390410
v 2.524135 0.406620 0.310678
v 1.898929 0.429812 0.394907
v 1.898929 0.000004 0.495159
v 1.898929 -0.499848 0.394907
v 1.898929 -0.622857 0.000000
v 2.629146 -0.245237 0.282328
v 2.817532 -0.553427 0.126462
v 2.751703 0.450696 0.126109
v 3.010841 -0.499850 0.196621
v 2.762484 0.250490 0.286821
v 2.851125 0.000006 0.243908
v 2.938004 0.504782 0.000000
v 2.520934 -0.499848 0.310679
v 2.524135 0.534205 0.000000
v 2.905270 -0.241008 0.158073
v 3.192335 -0.555593 0.066025
v 3.103762 0.447008 0.086648
v 3.202036 0.327196 0.111112
v 3.141468 0.253268 0.145488
v 3.204970 0.438559 0.000000
v 2.937774 0.394783 0.211504
v 2.999421 -0.622862 0.000000
v 3.082426 -0.239547 0.064813
v 3.318095 -0.457317 0.034057
v 3.266478 0.327431 0.042588
v 3.118695 -0.243646 0.000000
v 3.293967 0.231108 0.058094
v 3.310696 0.254046 0.000000
v 3.213676 0.000001 0.028923
v 3.118529 0.000010 0.111054
v 3.275079 -0.480793 0.099225
v 3.268258 -0.558732 0.000000
v 3.265509 -0.512306 0.048452
v 3.212005 0.242126 0.103215
v 3.117681 -0.241028 0.029695
v 3.299946 0.242127 0.029215
v 2.938031 0.452618 0.103017
v 2.999436 -0.553430 0.096454
v 3.203498 0.415045 0.060332
v 3.030424 -0.234552 0.103069
v 2.529746 -0.245236 0.345768
v 2.524136 0.464767 0.152464
v 2.761823 -0.245440 0.216871
v 2.947336 0.250498 0.216459
v 1.898929 -0.553427 0.193786
v 1.898929 0.248676 0.438734
v 1.898929 -0.245236 0.438734
v 2.523862 0.249810 0.345578
v 2.520912 -0.553427 0.152464
v 1.252262 -0.553427 0.216044
v 1.898929 0.486826 0.193786
v 0.628210 -0.553427 0.227147
v 0.628210 0.247087 0.512725
v 1.252262 0.504882 0.216044
v 1.252262 -0.245236 0.488250
v 1.252262 0.247744 0.488250
v 0.012181 0.526595 0.234644
v 0.012181 -0.553427 0.234644
v 0.628210 0.517550 0.227147
v 0.628211 -0.245236 0.512725
v -0.603491 0.245734 0.543619
v -0.603491 -0.553427 0.240790
v 0.012181 -0.245236 0.529520
v 0.012181 0.246609 0.529520
v -1.222082 -0.245224 0.646237
v -1.762044 -0.562198 0.234733
v -1.219285 0.553418 0.244316
v -1.762044 0.565425 0.234733
v -1.219285 -0.553417 0.244316
v -0.603491 0.543737 0.240790
v -1.222082 0.245224 0.646237
v -0.603491 -0.245236 0.543619
v -2.173392 0.452949 0.661510
v -2.173392 -0.453476 0.661510
v -1.737813 -0.504142 0.703576
v -1.737813 0.504142 0.703576
v -1.957212 -0.478923 0.682490
v -2.514776 -0.212155 0.934753
v -1.405824 0.498896 0.701996
v -1.405824 -0.498896 0.701996
v -1.957212 0.478747 0.682490
v -2.050888 -0.233170 1.021187
v -2.514776 0.212154 0.934753
v -2.050888 0.233170 1.021187
v -1.736886 -0.000000 1.079422
v -1.727990 -0.245229 1.017807
v -2.282392 -0.222654 0.975885
v -2.282392 0.222654 0.975885
v -1.727990 0.245229 1.017807
v -2.552335 -0.000000 1.150644
v -2.065411 -0.000000 1.283406
v -2.529204 -0.235247 1.137676
v -2.067439 -0.258399 1.219796
v -2.529204 0.235247 1.137676
v -2.067439 0.258399 1.219796
v -2.308499 -0.000000 1.214946
v -1.739745 -0.000000 1.288301
v -1.734977 -0.262065 1.217913
v -2.297880 -0.246820 1.176644
v -2.297880 0.246820 1.176644
v -1.734977 0.262065 1.217913
v -1.476113 0.245224 0.779696
v -1.472325 -0.000000 0.842201
v -1.206997 -0.367841 0.611573
v -1.201943 -0.122612 0.676268
v -1.476113 -0.245224 0.779696
v -1.319452 -0.498876 0.590568
v -1.319452 0.498876 0.590568
v -1.201943 0.122612 0.676268
v -1.206997 0.367841 0.611573
v -1.589838 -0.367851 0.869936
v -1.742704 -0.122612 1.058746
v -1.742704 0.122612 1.058746
v -1.589838 0.367851 0.869936
v -1.398435 0.367847 0.684550
v -1.398435 -0.367847 0.684550
v -1.472311 0.122612 0.807774
v -1.472311 -0.122612 0.807774
v -2.562257 0.569960 0.448877
v -2.562257 -0.559187 0.448877
v -2.395638 -0.598913 0.000000
v -2.395638 0.609158 0.000000
v -2.362603 0.586018 0.224240
v -2.362603 -0.575773 0.224240
v -2.550817 0.454020 0.666680
v -2.550817 -0.454548 0.666680
v -2.805739 -0.212697 0.849029
v -2.805739 0.212696 0.849029
v -2.846975 0.000000 1.070114
v -2.824238 -0.235786 1.056033
v -2.824238 0.235786 1.056033
v -2.803821 0.569967 0.452091
v -2.803821 -0.559174 0.452091
v -2.647073 -0.598903 0.000000
v -2.647073 0.609169 0.000000
v -3.678133 0.217262 -0.312378
v -3.700125 -0.000464 -0.328391
v -2.614013 0.586028 0.225845
v -2.614013 -0.575761 0.225845
v -3.510743 0.228282 -0.158273
v -3.510743 -0.229737 -0.158273
v -3.557005 -0.000464 -0.166081
v -3.496232 -0.593828 -0.148680
v -3.496232 0.603647 -0.148680
v -3.678133 -0.218715 -0.312378
v -3.698496 -0.576675 -0.297623
v -2.802252 0.454032 0.675263
v -2.802252 -0.454539 0.675263
v -3.698496 0.587019 -0.297623
v -3.061265 -0.212687 0.772673
v -3.061265 0.212707 0.772673
v -3.102506 0.000011 0.999153
v -3.079775 -0.235776 0.984915
v -3.079775 0.235798 0.984915
v -3.067884 0.569777 -0.387685
v -3.067884 -0.559410 -0.387685
v -2.878057 0.585838 -0.193669
v -2.878057 -0.575998 -0.193669
v -3.077702 0.453821 -0.579085
v -3.077702 -0.454755 -0.579085
v -3.336028 -0.212915 -0.664178
v -3.336028 0.212509 -0.664178
v -3.378737 -0.000203 -0.866233
v -3.356031 -0.235975 -0.853989
v -3.356031 0.235569 -0.853989
v -3.067884 0.569777 0.387685
v -3.067884 -0.559410 0.387685
v -2.911116 -0.599140 -0.000000
v -2.911116 0.608979 -0.000000
v -2.878057 0.585838 0.193669
v -2.878057 -0.575998 0.193669
v -3.077702 0.453821 0.579085
v -3.077702 -0.454755 0.579085
v -3.336028 -0.212915 0.664176
v -3.336028 0.212509 0.664176
v -3.378737 -0.000203 0.865306
v -3.356031 -0.235975 0.853064
v -3.356031 0.235569 0.853064
v -3.698496 0.587019 0.297623
v -3.698496 -0.576675 0.297623
v -3.528201 -0.617509 -0.000000
v -3.528201 0.627327 -0.000000
v -3.638516 -0.000464 -0.000000
v -3.678133 -0.218715 0.312377
v -3.496232 0.603647 0.148680
v -3.496232 -0.593828 0.148680
v -3.566955 -0.241312 -0.000000
v -3.566955 0.239857 -0.000000
v -3.557005 -0.000464 0.166081
v -3.510743 -0.229737 0.158273
v -3.510743 0.228282 0.158273
v -3.700125 -0.000464 0.328391
v -3.678133 0.217262 0.312377
v -3.438962 0.455429 0.442558
v -3.438962 -0.457094 0.442558
v -3.739316 -0.000477 0.568207
v -3.736938 -0.224725 0.553476
v -3.736938 0.223754 0.553476
v 3.257042 -0.313373 -0.055025
v 3.329054 -0.431345 -0.045585
v 3.298672 -0.353612 -0.000000
v 3.334283 -0.449967 -0.015034
v 3.119514 -0.227982 -0.014894
v 3.100121 -0.226180 -0.047503
v 3.296105 -0.346965 -0.030225
v 3.257042 -0.313373 0.055025
v 3.329054 -0.431345 0.045585
v 3.334283 -0.449967 0.015034
v 3.119514 -0.227982 0.014894
v 3.100121 -0.226180 0.047503
v 3.296105 -0.346965 0.030225
v 3.288943 -0.341538 0.046890
v 3.297902 -0.355268 0.015173
v 3.288943 -0.341538 -0.046890
v 3.297902 -0.355268 -0.015173
vt 0.734449 -0.002319
vt 0.765883 -0.002336
vt 0.765178 0.035725
vt 0.734233 0.035521
vt 0.800491 -0.080973
vt 0.816931 -0.078987
vt 0.838083 -0.073430
vt 0.830400 -0.036702
vt 0.799237 -0.039536
vt 0.893534 0.566238
vt 0.893341 0.536608
vt 0.930028 0.536605
vt 0.930219 0.565974
vt 0.074741 0.566817
vt 0.037915 0.566718
vt 0.037913 0.536662
vt 0.074729 0.536662
vt 0.755401 0.565241
vt 0.727205 0.563622
vt 0.724705 0.536622
vt 0.754176 0.536620
vt 0.820231 0.566651
vt 0.783505 0.566804
vt 0.783517 0.536617
vt 0.820196 0.536614
vt 0.139729 0.565330
vt 0.111579 0.566890
vt 0.111490 0.536661
vt 0.140871 0.536661
vt 0.751873 -0.120388
vt 0.735823 -0.118791
vt 0.737967 -0.161070
vt 0.753381 -0.163577
vt 0.734305 -0.082228
vt 0.750826 -0.083678
vt 0.767460 -0.085169
vt 0.766626 -0.041718
vt 0.733935 -0.040797
vt 0.795242 0.074163
vt 0.822758 0.074948
vt 0.821436 0.112303
vt 0.794503 0.111586
vt 0.733758 0.073103
vt 0.764512 0.073362
vt 0.763876 0.110824
vt 0.733230 0.110564
vt 0.001121 0.566418
vt 0.001126 0.596176
vt -0.035674 0.595575
vt -0.035677 0.566118
vt 0.797283 -0.001121
vt 0.826984 0.000397
vt 0.824592 0.037626
vt 0.796090 0.036641
vt 0.732688 0.147979
vt 0.763257 0.148219
vt 0.762650 0.185483
vt 0.732205 0.185330
vt 1.040367 0.564660
vt 1.040234 0.536595
vt 1.076910 0.536592
vt 1.077066 0.564194
vt -0.072500 0.565714
vt -0.072498 0.594766
vt -0.109324 0.593958
vt -0.109327 0.565310
vt 0.966945 0.565591
vt 0.966787 0.536602
vt 1.003528 0.536598
vt 1.003657 0.565145
vt 0.792403 0.224557
vt 0.817114 0.225409
vt 0.815039 0.263686
vt 0.791539 0.262705
vt 0.731660 0.223584
vt 0.762037 0.223656
vt 0.761426 0.261604
vt 0.731282 0.261745
vt 1.114697 0.563369
vt 1.114510 0.536589
vt 1.152138 0.536586
vt 1.152354 0.562589
vt 0.793813 0.148979
vt 0.820157 0.149696
vt 0.818694 0.187075
vt 0.793077 0.186314
vt -0.146178 0.564853
vt -0.146176 0.593044
vt -0.183030 0.592132
vt -0.183033 0.564396
vt 1.191761 0.560825
vt 1.191533 0.536582
vt 1.230884 0.536579
vt 1.231169 0.559122
vt -0.220828 0.563579
vt -0.220826 0.590497
vt -0.258623 0.588867
vt -0.258628 0.562764
vt -0.372640 0.556370
vt -0.372685 0.576096
vt -0.407594 0.570212
vt -0.407365 0.553382
vt 0.789043 0.377926
vt 0.808339 0.379366
vt 0.806144 0.407413
vt 0.788598 0.406692
vt 0.730742 0.301720
vt 0.760798 0.301437
vt 0.760174 0.340907
vt 0.730512 0.341560
vt 0.790832 0.302677
vt 0.813176 0.303837
vt 0.810487 0.343846
vt 0.789759 0.342471
vt -0.298204 0.561038
vt -0.298200 0.585415
vt -0.337780 0.581987
vt -0.337785 0.559324
vt 0.788567 0.430519
vt 0.805751 0.430450
vt 0.800336 0.450763
vt 0.788425 0.454344
vt 0.729088 0.411791
vt 0.759185 0.419247
vt 0.759086 0.443590
vt 0.729222 0.430939
vt 1.265816 0.556096
vt 1.265424 0.536576
vt 1.292249 0.536574
vt 1.292904 0.553088
vt 0.730151 0.377146
vt 0.759670 0.376024
vt 0.759445 0.394859
vt 0.729439 0.393382
vt 0.729700 0.446932
vt 0.758785 0.454983
vt 0.758519 0.466446
vt 0.730096 0.454896
vt 1.342069 0.542460
vt 1.340924 0.536570
vt 1.351501 0.536569
vt 1.352575 0.541194
vt -0.429301 0.549805
vt -0.430145 0.563390
vt -0.452441 0.555354
vt -0.449393 0.545068
vt 1.314557 0.549470
vt 1.313595 0.536572
vt 1.330900 0.536571
vt 1.331862 0.545526
vt 1.362831 0.539926
vt 1.361772 0.536568
vt 1.424521 0.541095
vt 1.390525 0.540245
vt 1.389986 0.536566
vt 1.424943 0.536563
vt 1.424743 0.538815
vt 0.787058 0.464960
vt 0.797986 0.464028
vt 0.794113 0.471633
vt 0.785693 0.475599
vt -0.459124 0.542811
vt -0.461975 0.550017
vt -0.470160 0.547592
vt -0.471980 0.543380
vt -0.468636 0.541428
vt -0.456186 0.536653
vt -0.470615 0.538910
vt -0.467217 0.536652
vt -0.447266 0.536653
vt 1.454817 0.538727
vt 1.454916 0.536561
vt 1.452281 0.542938
vt 1.423243 0.544538
vt 1.453743 0.540887
vt 1.422110 0.547558
vt 1.390986 0.543781
vt 1.363955 0.543394
vt 1.355226 0.545804
vt 1.315981 0.563623
vt 1.336619 0.558573
vt 1.293698 0.569828
vt -0.428835 0.536653
vt -0.407231 0.536654
vt 1.348174 0.550906
vt 0.698614 0.470357
vt 0.717593 0.472289
vt 0.704402 0.475801
vt 0.696530 0.460450
vt 0.700323 0.377790
vt 0.698940 0.413203
vt 0.700562 0.342205
vt 1.266261 0.575723
vt 1.231461 0.581686
vt 0.697862 0.436880
vt -0.298205 0.536657
vt -0.337785 0.536656
vt -0.258630 0.536658
vt 0.700567 0.302105
vt 0.700940 0.261922
vt -0.372617 0.536655
vt -0.220829 0.536659
vt -0.183034 0.536660
vt 1.191999 0.585098
vt 1.152562 0.588588
vt -0.146179 0.536661
vt -0.109327 0.536661
vt 1.114884 0.590174
vt 1.077226 0.591813
vt 0.701206 0.223582
vt 0.701670 0.185208
vt 0.967108 0.594548
vt 1.003802 0.593687
vt 0.930398 0.595335
vt -0.072501 0.536662
vt -0.035679 0.536662
vt 1.040511 0.592736
vt 0.702089 0.147784
vt 0.702572 0.110345
vt 0.001119 0.536662
vt 0.037923 0.596774
vt 0.703032 0.072917
vt 0.703409 0.035475
vt 0.696530 -0.076112
vt 0.717824 -0.080868
vt 0.702833 -0.039240
vt 0.784362 -0.119784
vt 0.768155 -0.122194
vt 0.768977 -0.166602
vt 0.784452 -0.163005
vt 0.838428 0.166572
vt 0.878841 0.175386
vt 0.900056 0.209388
vt 0.860059 0.200879
vt 0.849244 0.183726
vt 0.718800 -0.105701
vt 0.701816 -0.093535
vt 0.704244 -0.111620
vt 0.721663 -0.136012
vt 0.878839 0.467048
vt 0.838428 0.475801
vt 0.849264 0.458669
vt 0.860099 0.441536
vt 0.900127 0.433070
vt 0.909100 0.178930
vt 0.929418 0.214134
vt 0.939569 0.460858
vt 0.909165 0.463608
vt 0.929526 0.428298
vt 0.958746 0.422571
vt 0.167945 0.563754
vt 0.170418 0.536660
vt 0.165524 0.590718
vt 0.138517 0.593887
vt 0.111562 0.597177
vt 0.856891 0.566462
vt 0.856772 0.536611
vt 0.857005 0.596389
vt 0.820306 0.596698
vt 0.783615 0.597006
vt 0.756688 0.593717
vt 0.729637 0.590505
vt 0.074749 0.596972
vt 0.893703 0.595889
vt 0.784029 -0.083051
vt 0.939321 0.182073
vt 0.958636 0.219770
vt 0.703477 -0.001944
vt 0.958515 0.373813
vt 0.928559 0.375754
vt 0.799765 -0.159931
vt 0.769434 -0.191411
vt 0.799088 -0.184065
vt 0.928503 0.266640
vt 0.888798 0.260223
vt 0.874200 0.230640
vt 0.958466 0.268549
vt 0.987531 0.271434
vt 0.987581 0.370902
vt 0.956036 0.349701
vt 0.984164 0.347460
vt 0.888857 0.382205
vt 0.888868 0.355612
vt 0.927578 0.351025
vt 0.984137 0.294877
vt 0.956008 0.292664
vt 0.874262 0.411792
vt 0.816883 -0.103871
vt 0.800347 -0.117592
vt 0.815138 -0.134287
vt 0.955878 0.321182
vt 0.926000 0.321198
vt 0.927547 0.291369
vt 0.886450 0.321217
vt 0.888833 0.286818
vt 0.985534 0.321167
vt 0.739531 -0.185160
vt 1.023225 0.368614
vt 1.005100 0.410649
vt 0.682869 0.563662
vt 0.680265 0.536626
vt 1.018419 0.296013
vt 1.019610 0.321148
vt 0.215009 0.536659
vt 0.212407 0.563766
vt 1.011798 0.200929
vt 1.005020 0.231678
vt 1.018451 0.346287
vt 1.023163 0.273689
vt 0.232804 0.590861
vt 1.012056 0.441988
vt 0.662539 0.590699
vt 0.833428 -0.091072
vt 0.831662 -0.109256
vt 0.246312 0.536657
vt 0.243550 0.563966
vt 1.049278 0.321128
vt 1.048498 0.345369
vt 1.035882 0.400961
vt 1.044877 0.431355
vt 0.631862 0.591335
vt 0.651804 0.563873
vt 1.053960 0.277487
vt 1.048464 0.296888
vt 1.054037 0.364770
vt 1.035781 0.241366
vt 0.263550 0.591480
vt 0.649042 0.536628
vt 1.044610 0.211570
vt 0.363494 0.560476
vt 0.415015 0.557924
vt 0.419794 0.585450
vt 0.379346 0.589977
vt 0.447085 0.559442
vt 0.447125 0.586923
vt 1.119340 0.385195
vt 1.122756 0.343595
vt 1.149330 0.350832
vt 1.154860 0.395279
vt 0.479111 0.557863
vt 0.532031 0.560426
vt 0.516202 0.589939
vt 0.474451 0.585370
vt 1.081552 0.220271
vt 1.071523 0.245772
vt 1.361693 0.431112
vt 1.352874 0.401290
vt 1.388598 0.396863
vt 1.398685 0.422354
vt 0.280795 0.536656
vt 0.277720 0.560743
vt 1.079260 0.298615
vt 1.080299 0.321083
vt 1.364756 0.344682
vt 1.365723 0.321196
vt 1.397016 0.321240
vt 1.395975 0.343853
vt 0.598310 0.585755
vt 0.617706 0.560672
vt 1.079302 0.343559
vt 1.364789 0.297708
vt 1.396017 0.298620
vt 0.243548 0.509349
vt 0.263544 0.481834
vt 0.297162 0.487445
vt 0.277717 0.512569
vt 1.086695 0.282359
vt 0.592551 0.286709
vt 0.592335 0.248870
vt 0.623280 0.248666
vt 0.623985 0.286727
vt 0.658593 0.365364
vt 0.657339 0.323926
vt 0.688502 0.321093
vt 0.696185 0.357821
vt 0.675033 0.363378
vt 0.893529 0.506977
vt 0.930214 0.507236
vt 0.074740 0.506506
vt 0.037915 0.506607
vt 0.755396 0.507998
vt 0.727200 0.509622
vt 0.820226 0.506577
vt 0.783500 0.506430
vt 0.139728 0.507991
vt 0.111578 0.506432
vt 0.609975 0.404779
vt 0.611483 0.447968
vt 0.596069 0.445461
vt 0.593925 0.403182
vt 0.592407 0.366619
vt 0.592037 0.325188
vt 0.624728 0.326109
vt 0.625562 0.369560
vt 0.608928 0.368069
vt 0.653344 0.210228
vt 0.652605 0.172805
vt 0.679538 0.172087
vt 0.680860 0.209443
vt 0.591860 0.211288
vt 0.591332 0.173827
vt 0.621978 0.173566
vt 0.622614 0.211028
vt 0.001121 0.506906
vt -0.035677 0.507206
vt -0.035673 0.477750
vt 0.001126 0.477149
vt 0.655385 0.285512
vt 0.654192 0.247750
vt 0.682694 0.246764
vt 0.685086 0.283994
vt 0.590790 0.136412
vt 0.590307 0.099061
vt 0.620752 0.098907
vt 0.621359 0.136171
vt 1.040362 0.508531
vt 1.077062 0.508990
vt -0.072500 0.507610
vt -0.109326 0.508013
vt -0.109323 0.479365
vt -0.072497 0.478557
vt 0.966941 0.507612
vt 1.003653 0.508052
vt 0.650505 0.059834
vt 0.649641 0.021686
vt 0.673141 0.020705
vt 0.675216 0.058982
vt 0.589762 0.060807
vt 0.589384 0.022646
vt 0.619528 0.022787
vt 0.620139 0.060735
vt 1.114693 0.509809
vt 1.152349 0.510583
vt 0.651915 0.135412
vt 0.651178 0.098076
vt 0.676796 0.097316
vt 0.678259 0.134694
vt -0.146177 0.508469
vt -0.183032 0.508924
vt -0.183028 0.481189
vt -0.146174 0.480278
vt 1.191756 0.512339
vt 1.231165 0.514036
vt -0.220827 0.509740
vt -0.258627 0.510553
vt -0.258620 0.484450
vt -0.220823 0.482822
vt -0.372638 0.516940
vt -0.407364 0.519926
vt -0.407591 0.503096
vt -0.372682 0.497214
vt 0.647145 -0.093535
vt 0.646700 -0.122301
vt 0.664246 -0.123022
vt 0.666441 -0.094975
vt 0.588844 -0.017329
vt 0.588614 -0.057169
vt 0.618276 -0.056516
vt 0.618900 -0.017046
vt 0.648934 -0.018286
vt 0.647861 -0.058080
vt 0.668589 -0.059455
vt 0.671278 -0.019446
vt -0.298202 0.512277
vt -0.337783 0.513988
vt -0.337777 0.491326
vt -0.298198 0.487900
vt 0.646669 -0.146128
vt 0.646527 -0.169953
vt 0.658438 -0.166372
vt 0.663853 -0.146060
vt 0.587190 -0.127400
vt 0.587324 -0.146548
vt 0.617188 -0.159200
vt 0.617287 -0.134856
vt 1.265813 0.517057
vt 1.292901 0.520060
vt 0.588253 -0.092755
vt 0.587541 -0.108991
vt 0.617547 -0.110468
vt 0.617771 -0.091633
vt 0.587802 -0.162541
vt 0.588198 -0.170505
vt 0.616621 -0.182056
vt 0.616887 -0.170592
vt 1.342068 0.530680
vt 1.352575 0.531944
vt -0.429300 0.523501
vt -0.449393 0.528237
vt -0.452440 0.517951
vt -0.430144 0.509917
vt 1.314555 0.523674
vt 1.331860 0.527616
vt 1.362830 0.533211
vt 1.424521 0.532031
vt 1.424742 0.534312
vt 1.390524 0.532888
vt 0.645160 -0.180568
vt 0.643795 -0.191208
vt 0.652215 -0.187242
vt 0.656088 -0.179637
vt -0.459124 0.530494
vt -0.468636 0.531876
vt -0.471980 0.529925
vt -0.470159 0.525712
vt -0.461975 0.523288
vt -0.470616 0.534394
vt 1.454817 0.534395
vt 1.452280 0.530185
vt 1.453742 0.532235
vt 1.423242 0.528588
vt 1.422108 0.525569
vt 1.390985 0.529351
vt 1.363953 0.529742
vt 1.355224 0.527333
vt 1.315976 0.509522
vt 1.336615 0.514568
vt 1.293693 0.503320
vt 1.348171 0.522232
vt 0.556716 -0.185966
vt 0.562504 -0.191411
vt 0.575695 -0.187898
vt 0.554632 -0.176059
vt 0.558424 -0.093399
vt 0.557042 -0.128812
vt 0.558664 -0.057814
vt 1.266255 0.497430
vt 1.231454 0.491472
vt 0.555964 -0.152489
vt 0.558669 -0.017715
vt 0.559042 0.022469
vt 1.191990 0.488067
vt 1.152554 0.484583
vt 1.114875 0.483004
vt 1.077216 0.481371
vt 0.559308 0.060809
vt 0.559772 0.099183
vt 0.967098 0.478655
vt 1.003792 0.479510
vt 0.930388 0.477874
vt 1.040502 0.480455
vt 0.560191 0.136607
vt 0.560674 0.174046
vt 0.037922 0.476550
vt 0.561134 0.211474
vt 0.561511 0.248916
vt 0.554632 0.360503
vt 0.560935 0.323631
vt 0.575926 0.365259
vt 0.642464 0.404175
vt 0.642554 0.447396
vt 0.627079 0.450993
vt 0.626257 0.406585
vt 1.155205 0.475801
vt 1.166057 0.458649
vt 1.176909 0.441497
vt 1.216956 0.433041
vt 1.195668 0.467043
vt 0.576902 0.390092
vt 0.579765 0.420403
vt 0.562346 0.396011
vt 0.559918 0.377925
vt 1.195666 0.175171
vt 1.217028 0.209147
vt 1.176950 0.200735
vt 1.166077 0.183603
vt 1.155205 0.166472
vt 1.246356 0.428337
vt 1.225960 0.463544
vt 1.256463 0.181266
vt 1.275730 0.219562
vt 1.246465 0.213879
vt 1.226026 0.178566
vt 0.167944 0.509566
vt 0.165521 0.482603
vt 0.138515 0.479435
vt 0.111560 0.476146
vt 0.856885 0.506760
vt 0.856995 0.476833
vt 0.820296 0.476529
vt 0.783605 0.476229
vt 0.756678 0.479522
vt 0.729628 0.482738
vt 0.074748 0.476352
vt 0.893693 0.477326
vt 0.642131 0.367442
vt 1.275618 0.422744
vt 1.256213 0.460449
vt 0.561579 0.286334
vt 1.275579 0.268403
vt 1.245575 0.266492
vt 0.657867 0.444322
vt 0.657190 0.468455
vt 0.627536 0.475801
vt 1.191108 0.411731
vt 1.205763 0.382143
vt 1.245518 0.375761
vt 1.275530 0.373883
vt 1.304651 0.371035
vt 1.304702 0.271277
vt 1.301336 0.294778
vt 1.273125 0.292562
vt 1.244615 0.291256
vt 1.205859 0.286689
vt 1.205822 0.260077
vt 1.273097 0.349721
vt 1.301309 0.347533
vt 1.191170 0.230484
vt 0.674985 0.388262
vt 0.673240 0.418677
vt 0.658449 0.401983
vt 1.244584 0.350998
vt 1.243043 0.321127
vt 1.272981 0.321142
vt 1.205824 0.355528
vt 1.203455 0.321107
vt 1.302714 0.321157
vt 0.597633 0.469550
vt 1.322157 0.231402
vt 1.340417 0.273389
vt 0.682865 0.509589
vt 1.336883 0.321177
vt 1.335864 0.346461
vt 0.212405 0.509551
vt 1.322077 0.410919
vt 1.328811 0.441717
vt 1.335896 0.295888
vt 1.340354 0.368957
vt 0.232800 0.482455
vt 1.329070 0.200014
vt 0.662530 0.482556
vt 0.691530 0.375463
vt 0.689764 0.393647
vt 1.361961 0.210611
vt 1.352976 0.241032
vt 0.651799 0.509384
vt 0.631853 0.481925
vt 1.371016 0.365372
vt 1.371094 0.277020
vt 1.403585 0.360148
vt 0.614632 0.536631
vt 0.617702 0.512590
vt 1.086794 0.359805
vt 0.297167 0.585865
vt 1.403684 0.282335
vt 1.071654 0.396448
vt 1.388729 0.245565
vt 1.081826 0.422628
vt 0.598301 0.487511
vt 1.398961 0.219396
vt 0.531811 0.536638
vt 1.440231 0.321319
vt 1.439631 0.343945
vt 1.154327 0.247994
vt 1.119131 0.256920
vt 1.439700 0.298684
vt 0.379339 0.483324
vt 0.363491 0.512827
vt 0.363713 0.536651
vt 0.532027 0.512850
vt 1.122687 0.298425
vt 1.123304 0.321005
vt 1.436182 0.385528
vt 1.436391 0.257006
vt 0.516193 0.483340
vt 1.471980 0.247025
vt 1.471443 0.394350
vt 0.414383 0.536648
vt 0.447076 0.536645
vt 1.152029 0.320959
vt 1.149234 0.291092
vt 0.479728 0.536643
vt 0.479107 0.515423
vt 0.474443 0.487916
vt 1.466312 0.291483
vt 0.415011 0.515371
vt 0.419787 0.487845
vt 0.447117 0.486368
vt 0.447081 0.513849
vt 1.468979 0.321365
vt 1.466217 0.351240
vt 1.447142 0.528509
vt 1.462147 0.524063
vt 1.465387 0.527926
vt 1.468980 0.530140
vt 1.469000 0.533496
vt 1.471980 0.536560
vt 1.465388 0.545194
vt 1.468981 0.542980
vt 1.462150 0.549058
vt 1.447144 0.544614
vt 1.469001 0.539623
vn 0.0206 -0.2669 -0.9635
vn 0.2013 0.3645 -0.9092
vn 0.0296 0.9600 -0.2783
vn 0.0005 -0.9618 -0.2736
vn 0.0368 0.9888 -0.1446
vn 0.0003 0.9616 -0.2746
vn -0.0173 -0.9715 -0.2366
vn 0.6733 -0.1724 -0.7190
vn 0.3075 -0.2740 -0.9113
vn 0.0254 0.2228 -0.9745
vn 0.0263 -0.2595 -0.9654
vn 0.0027 -0.9776 -0.2106
vn 0.0211 0.2143 -0.9765
vn 0.0283 -0.2523 -0.9672
vn 0.0198 0.9554 -0.2945
vn 0.0037 -0.9763 -0.2163
vn 0.0155 0.9582 -0.2857
vn 0.0475 0.2356 -0.9707
vn 0.0473 -0.2420 -0.9691
vn 0.0333 0.9501 -0.3102
vn 0.0279 0.2270 -0.9735
vn 0.0042 -0.9747 -0.2233
vn 0.0412 0.9364 -0.3486
vn 0.0076 -0.9718 -0.2358
vn 0.0452 -0.9374 -0.3454
vn 0.2353 0.2143 -0.9480
vn 0.1007 -0.2159 -0.9712
vn 0.0948 0.2349 -0.9674
vn 0.0178 -0.9636 -0.2668
vn 0.3229 0.0235 -0.9461
vn 0.3747 -0.2352 -0.8968
vn 0.0795 0.8911 -0.4467
vn 0.4825 -0.1798 -0.8572
vn 0.5404 -0.2373 -0.8072
vn 0.8096 0.5380 -0.2346
vn 0.1178 -0.8437 -0.5238
vn 0.1089 0.9105 -0.3989
vn 0.8838 0.3573 -0.3019
vn 0.8751 -0.3843 -0.2941
vn 0.4925 -0.0090 -0.8703
vn 0.7841 -0.4049 -0.4703
vn 0.7298 -0.5183 -0.4458
vn 0.5136 -0.5944 -0.6188
vn 0.4973 -0.7464 -0.4422
vn 0.4963 -0.1823 -0.8488
vn 0.5319 -0.1612 -0.8313
vn 0.4785 0.0162 -0.8779
vn 0.5146 0.7769 0.3628
vn 0.5115 0.8490 0.1325
vn 0.7580 -0.3417 -0.5556
vn 0.8841 -0.2965 -0.3613
vn 0.9172 -0.3440 -0.2009
vn 0.8538 0.3109 -0.4175
vn 0.2537 0.7248 -0.6405
vn 0.0688 0.8967 -0.4372
vn 0.0627 0.8804 -0.4702
vn 0.0408 -0.7571 -0.6520
vn 0.0436 -0.8480 -0.5282
vn 0.1022 -0.9062 -0.4104
vn 0.6697 0.3914 -0.6311
vn 0.4128 0.4948 -0.7647
vn 0.3545 0.8754 -0.3287
vn 0.3433 0.3651 -0.8654
vn 0.3572 0.3371 -0.8711
vn 0.4658 -0.2463 -0.8499
vn 0.2760 -0.0103 -0.9611
vn 0.1899 -0.1482 -0.9706
vn 0.2076 -0.1897 -0.9596
vn 0.1238 0.9198 -0.3723
vn 0.0778 0.9450 -0.3178
vn 0.0496 0.9213 -0.3857
vn 0.3225 0.2668 -0.9082
vn 0.3606 0.2369 -0.9022
vn 0.3996 -0.2223 -0.8893
vn 0.3646 -0.0568 -0.9294
vn 0.3714 -0.0276 -0.9281
vn 0.2941 0.1365 -0.9460
vn 0.0076 -0.9371 -0.3489
vn 0.0076 -0.9455 -0.3257
vn 0.0177 -0.9686 -0.2481
vn 0.1006 0.2128 -0.9719
vn 0.1076 0.2278 -0.9678
vn 0.0999 0.2364 -0.9665
vn 0.0920 -0.1635 -0.9822
vn 0.0983 -0.1747 -0.9797
vn 0.1076 -0.2306 -0.9671
vn 0.3186 0.0925 -0.9434
vn 0.2098 0.1892 -0.9593
vn 0.1920 0.2230 -0.9557
vn 0.0195 -0.8950 -0.4456
vn 0.0179 -0.9223 -0.3861
vn 0.0417 -0.9540 -0.2970
vn 0.0033 -0.9506 -0.3103
vn 0.0035 -0.9535 -0.3013
vn 0.0080 -0.9735 -0.2287
vn 0.0540 0.9574 -0.2835
vn 0.0428 0.9642 -0.2618
vn 0.0307 0.9450 -0.3256
vn 0.0018 -0.9556 -0.2946
vn 0.0019 -0.9570 -0.2900
vn 0.0043 -0.9756 -0.2197
vn 0.0281 0.2504 -0.9677
vn 0.0294 0.2542 -0.9667
vn 0.0286 0.2244 -0.9741
vn 0.0394 0.9682 -0.2471
vn 0.0300 0.9708 -0.2380
vn 0.0242 0.9532 -0.3013
vn 0.0443 -0.1831 -0.9821
vn 0.0478 -0.1869 -0.9812
vn 0.0512 -0.2474 -0.9676
vn 0.0471 0.2395 -0.9698
vn 0.0511 0.2452 -0.9681
vn 0.0499 0.2301 -0.9719
vn 0.0184 0.9749 -0.2220
vn 0.0299 0.9756 -0.2176
vn 0.0266 0.9591 -0.2817
vn 0.0016 -0.9583 -0.2857
vn 0.0016 -0.9595 -0.2818
vn 0.0038 -0.9770 -0.2133
vn 0.0232 0.9726 -0.2312
vn 0.0193 0.9738 -0.2264
vn 0.0161 0.9569 -0.2899
vn 0.0260 -0.1904 -0.9814
vn 0.0272 -0.1931 -0.9808
vn 0.0295 -0.2559 -0.9663
vn 0.0204 0.2661 -0.9637
vn 0.0050 0.2694 -0.9630
vn 0.0143 0.1995 -0.9798
vn 0.0012 -0.9605 -0.2784
vn 0.0011 -0.9613 -0.2754
vn 0.0028 -0.9780 -0.2085
vn 0.0239 -0.1959 -0.9803
vn 0.0243 -0.1987 -0.9798
vn 0.0267 -0.2632 -0.9644
vn 0.0262 0.2581 -0.9658
vn 0.0266 0.2620 -0.9647
vn 0.0271 0.2195 -0.9752
vn 0.2016 -0.3648 -0.9090
vn 0.6632 0.1790 -0.7267
vn -0.0087 -0.9978 0.0663
vn 0.7292 0.0497 -0.6825
vn -0.0090 0.9977 0.0670
vn 0.0152 -0.9974 -0.0707
vn 0.0106 0.9290 -0.3699
vn 0.0056 -0.9891 -0.1471
vn 0.1158 -0.9876 -0.1060
vn 0.0796 -0.9736 -0.2139
vn -0.0012 0.9618 -0.2738
vn -0.0149 0.9746 -0.2236
vn -0.0104 0.9678 -0.2515
vn -0.0033 0.9717 -0.2363
vn 0.0947 0.9726 -0.2124
vn 0.1500 0.9837 -0.0992
vn 0.0009 -0.9616 -0.2746
vn -0.0099 -0.9678 -0.2515
vn -0.0133 -0.9746 -0.2236
vn 0.0324 0.9765 -0.2133
vn 0.0359 0.9772 -0.2093
vn 0.0330 0.9607 -0.2755
vn 0.3075 0.2740 -0.9113
vn -0.0010 -0.9440 -0.3299
vn 0.0215 0.9961 -0.0850
vn 0.0180 -0.2017 -0.9793
vn 0.0110 -0.1957 -0.9806
vn 0.0052 -0.2696 -0.9630
vn -0.1468 0.8197 -0.5537
vn 0.9997 -0.0262 -0.0009
vn -0.0079 -0.7739 -0.6333
vn -0.1465 -0.8195 -0.5541
vn -0.1424 -0.8208 -0.5533
vn -0.0268 0.9926 0.1182
vn -0.0247 0.9940 0.1063
vn -0.0268 -0.9926 0.1182
vn -0.1429 0.8214 -0.5522
vn -0.0236 0.9919 0.1246
vn -0.0079 0.7739 -0.6333
vn 0.6868 0.1079 -0.7188
vn -0.2295 -0.1962 -0.9533
vn -0.0058 -0.2494 -0.9684
vn -0.2136 -0.1181 -0.9697
vn -0.2295 0.1962 -0.9533
vn -0.2136 0.1181 -0.9697
vn -0.0058 0.2494 -0.9684
vn 0.9997 0.0262 -0.0009
vn -0.0236 -0.9919 0.1246
vn -0.0247 -0.9940 0.1063
vn -0.0794 0.7348 -0.6736
vn -0.0013 0.9949 -0.1006
vn -0.2614 -0.0807 -0.9618
vn -0.0003 -0.9949 -0.1005
vn 0.0022 -0.8970 -0.4420
vn -0.2614 0.0807 -0.9618
vn 0.0328 -0.9935 0.1090
vn -0.0795 -0.7341 -0.6744
vn -0.0024 -0.9975 -0.0705
vn 0.0021 0.8777 -0.4792
vn 0.0328 0.9935 0.1090
vn -0.0031 0.9977 -0.0680
vn 0.7292 -0.0497 -0.6825
vn 0.4465 0.5019 -0.7408
vn 0.4003 0.3058 -0.8638
vn 0.6868 -0.1079 -0.7188
vn 0.4003 -0.3058 -0.8638
vn 0.4465 -0.5019 -0.7408
vn 0.6733 0.1724 -0.7190
vn 0.4369 0.2476 -0.8648
vn 0.4158 0.2617 -0.8710
vn 0.6632 -0.1790 -0.7267
vn 0.4158 -0.2617 -0.8710
vn 0.4369 -0.2476 -0.8648
vn 0.0003 -0.9948 -0.1022
vn -0.3384 0.0907 -0.9366
vn 0.0112 0.8852 -0.4651
vn 0.0007 0.9974 -0.0717
vn 0.0367 -0.9931 0.1117
vn 0.0368 0.9931 0.1117
vn -0.1064 -0.5812 -0.8068
vn 0.0007 -0.9973 -0.0740
vn 0.0004 0.9948 -0.1022
vn -0.1063 0.5820 -0.8062
vn 0.0102 -0.9035 -0.4285
vn -0.6323 0.0312 0.7741
vn -0.7131 -0.0716 0.6973
vn -0.7274 0.4449 -0.5224
vn -0.6323 -0.0303 0.7741
vn -0.1316 -0.8860 -0.4447
vn -0.1316 -0.8860 0.4447
vn -0.0058 -0.9939 -0.1106
vn -0.3729 -0.0896 -0.9235
vn -0.4315 -0.0920 0.8974
vn -0.0126 0.9978 -0.0649
vn -0.3731 0.0896 -0.9235
vn -0.4316 0.0920 0.8974
vn -0.0116 -0.9976 0.0683
vn 0.0468 -0.9922 0.1157
vn -0.3384 -0.0907 -0.9366
vn 0.0206 -0.2669 0.9635
vn 0.2013 0.3645 0.9092
vn 0.0296 0.9600 0.2783
vn 0.0005 -0.9618 0.2736
vn 0.0368 0.9888 0.1446
vn 0.0003 0.9616 0.2746
vn -0.0173 -0.9715 0.2366
vn 0.6733 -0.1724 0.7190
vn 0.3075 -0.2740 0.9113
vn 0.0254 0.2228 0.9745
vn 0.0263 -0.2595 0.9654
vn 0.0027 -0.9776 0.2106
vn 0.0211 0.2143 0.9765
vn 0.0283 -0.2523 0.9672
vn 0.0198 0.9554 0.2945
vn 0.0037 -0.9763 0.2163
vn 0.0155 0.9582 0.2857
vn 0.0475 0.2356 0.9707
vn 0.0473 -0.2420 0.9691
vn 0.0333 0.9501 0.3102
vn 0.0279 0.2270 0.9735
vn 0.0042 -0.9747 0.2233
vn 0.0412 0.9364 0.3486
vn 0.0076 -0.9718 0.2358
vn 0.0452 -0.9374 0.3454
vn 0.2353 0.2143 0.9480
vn 0.1007 -0.2159 0.9712
vn 0.0948 0.2349 0.9674
vn 0.0178 -0.9636 0.2668
vn 0.3229 0.0235 0.9461
vn 0.3747 -0.2352 0.8968
vn 0.0795 0.8911 0.4467
vn 0.4825 -0.1798 0.8572
vn 0.5404 -0.2373 0.8072
vn 0.8096 0.5380 0.2346
vn 0.1178 -0.8437 0.5238
vn 0.1089 0.9105 0.3989
vn 0.8838 0.3573 0.3019
vn 0.8751 -0.3843 0.2941
vn 0.4925 -0.0090 0.8703
vn 0.7841 -0.4049 0.4703
vn 0.7298 -0.5183 0.4458
vn 0.5136 -0.5944 0.6188
vn 0.4973 -0.7464 0.4422
vn 0.4963 -0.1823 0.8488
vn 0.5319 -0.1612 0.8313
vn 0.4785 0.0162 0.8779
vn 0.5146 0.7769 -0.3628
vn 0.5115 0.8490 -0.1325
vn 0.7580 -0.3417 0.5556
vn 0.8841 -0.2965 0.3613
vn 0.9172 -0.3440 0.2009
vn 0.8538 0.3109 0.4175
vn 0.2537 0.7248 0.6405
vn 0.0688 0.8967 0.4372
vn 0.0627 0.8804 0.4702
vn 0.0408 -0.7571 0.6520
vn 0.0436 -0.8480 0.5282
vn 0.1022 -0.9062 0.4104
vn 0.6697 0.3914 0.6311
vn 0.4128 0.4948 0.7647
vn 0.3545 0.8754 0.3287
vn 0.3433 0.3651 0.8654
vn 0.3572 0.3371 0.8711
vn 0.4658 -0.2463 0.8499
vn 0.2760 -0.0103 0.9611
vn 0.1899 -0.1482 0.9706
vn 0.2076 -0.1897 0.9596
vn 0.1238 0.9198 0.3723
vn 0.0778 0.9450 0.3178
vn 0.0496 0.9213 0.3857
vn 0.3225 0.2668 0.9082
vn 0.3606 0.2369 0.9022
vn 0.3996 -0.2223 0.8893
vn 0.3646 -0.0568 0.9294
vn 0.3714 -0.0276 0.9281
vn 0.2941 0.1365 0.9460
vn 0.0076 -0.9371 0.3489
vn 0.0076 -0.9455 0.3257
vn 0.0177 -0.9686 0.2481
vn 0.1006 0.2128 0.9719
vn 0.1076 0.2278 0.9678
vn 0.0999 0.2364 0.9665
vn 0.0920 -0.1635 0.9822
vn 0.0983 -0.1747 0.9797
vn 0.1076 -0.2306 0.9671
vn 0.3186 0.0925 0.9434
vn 0.2098 0.1892 0.9593
vn 0.1920 0.2230 0.9557
vn 0.0195 -0.8950 0.4456
vn 0.0179 -0.9223 0.3861
vn 0.0417 -0.9540 0.2970
vn 0.0033 -0.9506 0.3103
vn 0.0035 -0.9535 0.3013
vn 0.0080 -0.9735 0.2287
vn 0.0540 0.9574 0.2835
vn 0.0428 0.9642 0.2618
vn 0.0307 0.9450 0.3256
vn 0.0018 -0.9556 0.2946
vn 0.0019 -0.9570 0.2900
vn 0.0043 -0.9756 0.2197
vn 0.0281 0.2504 0.9677
vn 0.0294 0.2542 0.9667
vn 0.0286 0.2244 0.9741
vn 0.0394 0.9682 0.2471
vn 0.0300 0.9708 0.2380
vn 0.0242 0.9532 0.3013
vn 0.0443 -0.1831 0.9821
vn 0.0478 -0.1869 0.9812
vn 0.0512 -0.2474 0.9676
vn 0.0471 0.2395 0.9698
vn 0.0511 0.2452 0.9681
vn 0.0499 0.2301 0.9719
vn 0.0184 0.9749 0.2220
vn 0.0299 0.9756 0.2176
vn 0.0266 0.9591 0.2817
vn 0.0016 -0.9583 0.2857
vn 0.0016 -0.9595 0.2818
vn 0.0038 -0.9770 0.2133
vn 0.0232 0.9726 0.2312
vn 0.0193 0.9738 0.2264
vn 0.0161 0.9569 0.2899
vn 0.0260 -0.1904 0.9814
vn 0.0272 -0.1931 0.9808
vn 0.0295 -0.2559 0.9663
vn 0.0204 0.2661 0.9637
vn 0.0050 0.2694 0.9630
vn 0.0143 0.1995 0.9798
vn 0.0012 -0.9605 0.2784
vn 0.0011 -0.9613 0.2754
vn 0.0028 -0.9780 0.2085
vn 0.0239 -0.1959 0.9803
vn 0.0243 -0.1987 0.9798
vn 0.0267 -0.2632 0.9644
vn 0.0262 0.2581 0.9658
vn 0.0266 0.2620 0.9647
vn 0.0271 0.2195 0.9752
vn 0.2016 -0.3648 0.9090
vn 0.6632 0.1790 0.7267
vn -0.0087 -0.9978 -0.0663
vn 0.7292 0.0497 0.6825
vn -0.0090 0.9977 -0.0670
vn 0.0152 -0.9974 0.0707
vn 0.0106 0.9290 0.3699
vn 0.0056 -0.9891 0.1471
vn 0.1158 -0.9876 0.1060
vn 0.0796 -0.9736 0.2139
vn -0.0012 0.9618 0.2738
vn -0.0149 0.9746 0.2236
vn -0.0104 0.9678 0.2515
vn -0.0033 0.9717 0.2363
vn 0.0947 0.9726 0.2124
vn 0.1500 0.9837 0.0992
vn 0.0009 -0.9616 0.2746
vn -0.0099 -0.9678 0.2515
vn -0.0133 -0.9746 0.2236
vn 0.0324 0.9765 0.2133
vn 0.0359 0.9772 0.2093
vn 0.0330 0.9607 0.2755
vn 0.3075 0.2740 0.9113
vn -0.0010 -0.9440 0.3299
vn 0.0215 0.9961 0.0850
vn 0.0180 -0.2017 0.9793
vn 0.0110 -0.1957 0.9806
vn 0.0052 -0.2696 0.9630
vn -0.1468 0.8197 0.5537
vn 0.9997 -0.0262 0.0009
vn -0.0079 -0.7739 0.6333
vn -0.1465 -0.8195 0.5541
vn -0.1424 -0.8208 0.5533
vn -0.0268 0.9926 -0.1182
vn -0.0247 0.9940 -0.1063
vn -0.0268 -0.9926 -0.1182
vn -0.1429 0.8214 0.5522
vn -0.0236 0.9919 -0.1246
vn -0.0079 0.7739 0.6333
vn 0.6868 0.1079 0.7188
vn -0.2295 -0.1962 0.9533
vn -0.0058 -0.2494 0.9684
vn -0.2136 -0.1181 0.9697
vn -0.2295 0.1962 0.9533
vn -0.2136 0.1181 0.9697
vn -0.0058 0.2494 0.9684
vn 0.9997 0.0262 0.0009
vn -0.0236 -0.9919 -0.1246
vn -0.0247 -0.9940 -0.1063
vn -0.0794 0.7348 0.6736
vn -0.0013 0.9949 0.1006
vn -0.2642 -0.0809 0.9611
vn -0.0003 -0.9949 0.1005
vn 0.0022 -0.8970 0.4420
vn -0.2642 0.0809 0.9611
vn 0.0330 -0.9935 -0.1093
vn -0.0795 -0.7341 0.6744
vn -0.0024 -0.9975 0.0705
vn 0.0021 0.8777 0.4792
vn 0.0330 0.9935 -0.1093
vn -0.0031 0.9977 0.0680
vn 0.7292 -0.0497 0.6825
vn 0.4465 0.5019 0.7408
vn 0.4003 0.3058 0.8638
vn 0.6868 -0.1079 0.7188
vn 0.4003 -0.3058 0.8638
vn 0.4465 -0.5019 0.7408
vn 0.6733 0.1724 0.7190
vn 0.4369 0.2476 0.8648
vn 0.4158 0.2617 0.8710
vn 0.6632 -0.1790 0.7267
vn 0.4158 -0.2617 0.8710
vn 0.4369 -0.2476 0.8648
vn 0.0003 -0.9948 0.1022
vn -0.2669 0.0834 0.9601
vn 0.0112 0.8852 0.4651
vn 0.0007 0.9974 0.0717
vn 0.0308 -0.9938 -0.1068
vn 0.0308 0.9938 -0.1067
vn -0.1079 -0.5811 0.8066
vn 0.0007 -0.9973 0.0740
vn 0.0004 0.9948 0.1022
vn -0.1077 0.5819 0.8061
vn 0.0102 -0.9035 0.4285
vn 0.0486 -0.9928 -0.1096
vn -0.2824 -0.5892 -0.7571
vn -0.0075 0.9938 0.1108
vn 0.0454 0.9922 0.1158
vn -0.2817 -0.5875 0.7586
vn -0.0116 -0.9976 -0.0683
vn 0.0471 0.9928 -0.1097
vn -0.0058 -0.9939 0.1106
vn -0.2829 0.5905 -0.7559
vn -0.0075 0.9938 -0.1108
vn -0.2822 0.5889 0.7574
vn -0.1438 0.8649 -0.4809
vn -0.0126 0.9978 0.0649
vn -0.1438 0.8649 0.4809
vn -0.2669 -0.0834 0.9601
vn -0.2383 0.5975 -0.7656
vn 0.0242 0.9911 -0.1309
vn -0.1343 0.7478 -0.6501
vn -0.6257 -0.0796 0.7760
vn -0.1246 -0.7804 -0.6128
vn -0.6257 0.0796 0.7760
vn 0.0154 -0.9932 0.1154
vn 0.0609 -0.9915 -0.1146
vn 0.0243 -0.9911 -0.1309
vn 0.0242 0.9911 0.1309
vn -0.6268 -0.0796 -0.7751
vn -0.2377 -0.5959 0.7670
vn 0.0595 0.9916 -0.1148
vn 0.0157 0.9935 -0.1126
vn 0.0243 -0.9911 0.1309
vn -0.6269 0.0796 -0.7750
vn -0.2383 0.5975 0.7656
vn 0.0157 0.9935 0.1126
vn 0.0607 -0.9916 0.1141
vn -0.1343 0.7478 0.6501
vn -0.2377 -0.5959 -0.7670
vn 0.0594 0.9917 0.1142
vn 0.0154 -0.9932 -0.1154
vn -0.1246 -0.7804 0.6128
vn -0.9564 -0.0725 -0.2831
vn -0.8928 -0.2302 -0.3873
vn -0.9790 -0.0400 0.2000
vn -0.7131 0.0718 0.6973
vn -0.8927 0.2307 -0.3873
vn -0.9566 0.0703 -0.2829
vn -0.9790 0.0401 0.2000
vn -0.7298 -0.4523 -0.5126
vn -0.6323 -0.0303 -0.7741
vn -0.7274 0.4449 0.5224
vn -0.7131 -0.0716 -0.6973
vn -0.6323 0.0312 -0.7741
vn -0.9564 -0.0725 0.2831
vn -0.8928 -0.2302 0.3873
vn -0.9790 -0.0400 -0.2000
vn -0.7131 0.0718 -0.6973
vn -0.8927 0.2307 0.3873
vn -0.9566 0.0703 0.2829
vn -0.9790 0.0401 -0.2000
vn -0.7298 -0.4523 0.5126
vn 0.4364 0.8178 0.3751
vn 0.4916 0.2329 0.8391
vn 0.8714 0.2652 -0.4127
vn 0.5362 0.8211 0.1957
vn 0.8586 0.2525 0.4461
vn 0.8251 0.2240 -0.5186
vn 0.8714 0.2652 0.4127
vn 0.4916 0.2329 -0.8391
vn 0.4364 0.8178 -0.3751
vn 0.8251 0.2240 0.5186
vn 0.8586 0.2525 -0.4461
vn 0.5362 0.8211 -0.1957
usemtl Material
s off
f 141/1/1 52/2/1 10/3/1 45/4/1
f 140/5/2 179/6/2 35/7/2 1/8/2 43/9/2
f 139/10/3 276/11/3 230/12/3 47/13/3
f 138/14/4 36/15/4 222/16/4 281/17/4
f 137/18/5 34/19/5 221/20/5 282/21/5
f 136/22/6 41/23/6 226/24/6 278/25/6
f 135/26/7 42/27/7 225/28/7 277/29/7
f 187/30/8 175/31/8 155/32/8 181/33/8
f 134/34/9 174/35/9 44/36/9 7/37/9 33/38/9
f 133/39/10 59/40/10 11/41/10 58/42/10
f 132/43/11 50/44/11 13/45/11 54/46/11
f 131/47/12 53/48/12 9/49/12 46/50/12
f 130/51/13 51/52/13 8/53/13 49/54/13
f 129/55/14 66/56/14 17/57/14 60/58/14
f 128/59/15 303/60/15 241/61/15 62/62/15
f 127/63/16 48/64/16 12/65/16 55/66/16
f 126/67/17 294/68/17 235/69/17 56/70/17
f 125/71/18 65/72/18 14/73/18 71/74/18
f 124/75/19 63/76/19 20/77/19 68/78/19
f 123/79/20 312/80/20 246/81/20 70/82/20
f 122/83/21 57/84/21 15/85/21 64/86/21
f 121/87/22 67/88/22 16/89/22 61/90/22
f 120/91/23 319/92/23 251/93/23 75/94/23
f 119/95/24 72/96/24 19/97/24 69/98/24
f 118/99/25 88/100/25 25/101/25 83/102/25
f 117/103/26 78/104/26 21/105/26 86/106/26
f 116/107/27 80/108/27 23/109/27 73/110/27
f 115/111/28 79/112/28 18/113/28 76/114/28
f 114/115/29 81/116/29 22/117/29 74/118/29
f 113/119/30 94/120/30 24/121/30 93/122/30
f 112/123/31 87/124/31 29/125/31 89/126/31
f 111/127/32 342/128/32 256/129/32 84/130/32
f 110/131/33 77/132/33 26/133/33 82/134/33
f 109/135/34 100/136/34 31/137/34 95/138/34
f 108/139/35 348/140/35 265/141/35 97/142/35
f 107/143/36 85/144/36 28/145/36 90/146/36
f 106/147/37 340/148/37 261/149/37 91/150/37
f 105/151/38 97/142/38 265/141/38 356/152/38
f 104/153/39 99/154/39 268/155/39 354/156/39 531/157/39
f 103/158/40 92/159/40 27/160/40 98/161/40
f 102/162/41 101/163/41 30/164/41 528/165/41 96/166/41
f 360/167/42 102/162/42 96/166/42 530/168/42 266/169/42
f 262/170/43 90/146/43 102/162/43 360/167/43
f 90/146/44 28/145/44 101/163/44 102/162/44
f 100/136/45 103/158/45 98/161/45 31/137/45
f 29/125/46 93/122/46 103/158/46 100/136/46
f 93/122/47 24/121/47 92/159/47 103/158/47
f 543/171/48 531/157/48 354/156/48 529/172/48
f 542/173/49 532/174/49 104/153/49 533/175/49
f 95/176/50 31/177/50 99/154/50 104/153/50 532/174/50
f 99/154/51 105/151/51 356/152/51 268/155/51
f 31/177/52 98/178/52 105/151/52 99/154/52
f 98/178/53 27/179/53 97/142/53 105/151/53
f 94/180/54 106/147/54 91/150/54 24/181/54
f 21/182/55 84/130/55 106/147/55 94/180/55
f 84/130/56 256/129/56 340/148/56 106/147/56
f 350/183/57 107/143/57 90/146/57 262/170/57
f 257/184/58 83/102/58 107/143/58 350/183/58
f 83/102/59 25/101/59 85/144/59 107/143/59
f 92/185/60 108/139/60 97/142/60 27/179/60
f 24/181/61 91/150/61 108/139/61 92/185/61
f 91/150/62 261/149/62 348/140/62 108/139/62
f 101/186/63 109/135/63 95/138/63 527/187/63 30/188/63
f 28/189/64 89/126/64 109/135/64 101/186/64
f 89/126/65 29/125/65 100/136/65 109/135/65
f 88/190/66 110/131/66 82/134/66 25/191/66
f 22/192/67 73/110/67 110/131/67 88/190/67
f 73/110/68 23/109/68 77/132/68 110/131/68
f 78/193/69 111/127/69 84/130/69 21/182/69
f 18/194/70 75/94/70 111/127/70 78/193/70
f 75/94/71 251/93/71 342/128/71 111/127/71
f 85/195/72 112/123/72 89/126/72 28/189/72
f 25/191/73 82/134/73 112/123/73 85/195/73
f 82/134/74 26/133/74 87/124/74 112/123/74
f 87/124/75 113/119/75 93/122/75 29/125/75
f 26/133/76 86/106/76 113/119/76 87/124/76
f 86/106/77 21/105/77 94/120/77 113/119/77
f 333/196/78 114/115/78 74/118/78 252/197/78
f 247/198/79 69/98/79 114/115/79 333/196/79
f 69/98/80 19/97/80 81/116/80 114/115/80
f 80/108/81 115/111/81 76/114/81 23/109/81
f 20/77/82 71/74/82 115/111/82 80/108/82
f 71/74/83 14/73/83 79/112/83 115/111/83
f 81/199/84 116/107/84 73/110/84 22/192/84
f 19/200/85 68/78/85 116/107/85 81/199/85
f 68/78/86 20/77/86 80/108/86 116/107/86
f 77/132/87 117/103/87 86/106/87 26/133/87
f 23/109/88 76/114/88 117/103/88 77/132/88
f 76/114/89 18/113/89 78/104/89 117/103/89
f 327/201/90 118/99/90 83/102/90 257/184/90
f 252/197/91 74/118/91 118/99/91 327/201/91
f 74/118/92 22/117/92 88/100/92 118/99/92
f 322/202/93 119/95/93 69/98/93 247/198/93
f 242/203/94 61/90/94 119/95/94 322/202/94
f 61/90/95 16/89/95 72/96/95 119/95/95
f 79/204/96 120/91/96 75/94/96 18/194/96
f 14/205/97 70/82/97 120/91/97 79/204/97
f 70/82/98 246/81/98 319/92/98 120/91/98
f 315/206/99 121/87/99 61/90/99 242/203/99
f 236/207/100 55/66/100 121/87/100 315/206/100
f 55/66/101 12/65/101 67/88/101 121/87/101
f 66/56/102 122/83/102 64/86/102 17/57/102
f 13/45/103 58/42/103 122/83/103 66/56/103
f 58/42/104 11/41/104 57/84/104 122/83/104
f 65/208/105 123/79/105 70/82/105 14/205/105
f 15/209/106 62/62/106 123/79/106 65/208/106
f 62/62/107 241/61/107 312/80/107 123/79/107
f 72/210/108 124/75/108 68/78/108 19/200/108
f 16/211/109 60/58/109 124/75/109 72/210/109
f 60/58/110 17/57/110 63/76/110 124/75/110
f 63/76/111 125/71/111 71/74/111 20/77/111
f 17/57/112 64/86/112 125/71/112 63/76/112
f 64/86/113 15/85/113 65/72/113 125/71/113
f 59/212/114 126/67/114 56/70/114 11/213/114
f 8/214/115 47/13/115 126/67/115 59/212/115
f 47/13/116 230/12/116 294/68/116 126/67/116
f 305/215/117 127/63/117 55/66/117 236/207/117
f 231/216/118 46/50/118 127/63/118 305/215/118
f 46/50/119 9/49/119 48/64/119 127/63/119
f 57/217/120 128/59/120 62/62/120 15/209/120
f 11/213/121 56/70/121 128/59/121 57/217/121
f 56/70/122 235/69/122 303/60/122 128/59/122
f 67/218/123 129/55/123 60/58/123 16/211/123
f 12/219/124 54/46/124 129/55/124 67/218/124
f 54/46/125 13/45/125 66/56/125 129/55/125
f 52/2/126 130/51/126 49/54/126 10/3/126
f 7/37/127 43/9/127 130/51/127 52/2/127
f 43/9/128 1/8/128 51/52/128 130/51/128
f 287/220/129 131/47/129 46/50/129 231/216/129
f 222/16/130 36/15/130 131/47/130 287/220/130
f 36/15/131 2/221/131 53/48/131 131/47/131
f 48/222/132 132/43/132 54/46/132 12/219/132
f 9/223/133 45/4/133 132/43/133 48/222/133
f 45/4/134 10/3/134 50/44/134 132/43/134
f 50/44/135 133/39/135 58/42/135 13/45/135
f 10/3/136 49/54/136 133/39/136 50/44/136
f 49/54/137 8/53/137 59/40/137 133/39/137
f 39/224/138 173/225/138 134/34/138 33/38/138 2/226/138
f 186/227/139 172/228/139 154/229/139 182/230/139
f 39/231/140 5/232/140 144/233/140 149/234/140 176/235/140
f 185/236/141 176/237/141 149/238/141 180/239/141
f 6/240/142 35/241/142 177/242/142 148/243/142 145/244/142
f 5/232/143 32/245/143 146/246/143 144/233/143
f 3/247/144 40/248/144 150/249/144 142/250/144
f 37/251/145 135/26/145 277/29/145 219/252/145
f 4/253/146 32/254/146 135/26/146 37/251/146
f 32/254/147 5/255/147 42/27/147 135/26/147
f 38/256/148 136/22/148 278/25/148 220/257/148
f 1/258/149 35/259/149 136/22/149 38/256/149
f 35/259/150 6/260/150 41/23/150 136/22/150
f 41/23/151 137/18/151 282/21/151 226/24/151
f 6/260/152 40/261/152 137/18/152 41/23/152
f 40/261/153 3/262/153 34/19/153 137/18/153
f 42/27/154 138/14/154 281/17/154 225/28/154
f 5/255/155 39/263/155 138/14/155 42/27/155
f 39/263/156 2/221/156 36/15/156 138/14/156
f 51/264/157 139/10/157 47/13/157 8/214/157
f 1/258/158 38/256/158 139/10/158 51/264/158
f 38/256/159 220/257/159 276/11/159 139/10/159
f 44/36/160 178/265/160 140/5/160 43/9/160 7/37/160
f 32/245/161 4/266/161 143/267/161 146/246/161
f 40/248/162 6/240/162 145/244/162 150/249/162
f 53/268/163 141/1/163 45/4/163 9/223/163
f 2/226/164 33/38/164 141/1/164 53/268/164
f 33/38/165 7/37/165 52/2/165 141/1/165
f 157/269/166 150/249/166 145/244/166 153/270/166
f 158/271/167 182/230/167 154/229/167 166/272/167 170/273/167
f 144/233/168 151/274/168 155/275/168 180/276/168 149/234/168
f 146/246/169 156/277/169 151/274/169 144/233/169
f 143/267/170 147/278/170 156/277/170 146/246/170
f 152/279/171 157/269/171 169/280/171 163/281/171
f 153/270/172 158/282/172 170/283/172 164/284/172
f 156/277/173 147/278/173 161/285/173 168/286/173
f 152/279/174 142/250/174 150/249/174 157/269/174
f 157/269/175 153/270/175 164/284/175 169/280/175
f 153/270/176 145/244/176 148/243/176 183/287/176 158/282/176
f 184/288/177 171/289/177 158/271/177 183/290/177
f 168/286/178 165/291/178 160/292/178 162/293/178
f 162/293/179 160/292/179 166/294/179 167/295/179
f 161/285/180 159/296/180 165/291/180 168/286/180
f 165/291/181 169/280/181 164/284/181 160/292/181
f 159/296/182 163/281/182 169/280/182 165/291/182
f 160/292/183 164/284/183 170/283/183 166/294/183
f 154/229/184 181/33/184 155/32/184 167/297/184 166/272/184
f 151/274/185 156/277/185 168/286/185 162/293/185
f 155/275/186 151/274/186 162/293/186 167/295/186
f 142/250/187 152/279/187 195/298/187 192/299/187
f 221/20/188 34/19/188 190/300/188 450/301/188
f 159/296/189 161/285/189 197/302/189 196/303/189
f 37/251/190 219/252/190 449/304/190 191/305/190
f 143/267/191 4/266/191 189/306/191 193/307/191
f 163/281/192 159/296/192 196/303/192 198/308/192
f 161/285/193 147/278/193 194/309/193 197/302/193
f 147/278/194 143/267/194 193/307/194 194/309/194
f 4/253/195 37/251/195 191/305/195 189/310/195
f 3/247/196 142/250/196 192/299/196 188/311/196
f 152/279/197 163/281/197 198/308/197 195/298/197
f 34/19/198 3/262/198 188/312/198 190/300/198
f 177/313/199 184/288/199 183/290/199 148/314/199
f 35/7/200 179/6/200 184/288/200 177/313/200
f 179/6/201 140/5/201 171/289/201 184/288/201
f 175/31/202 185/236/202 180/239/202 155/32/202
f 134/34/203 173/225/203 185/236/203 175/31/203
f 173/225/204 39/224/204 176/237/204 185/236/204
f 171/289/205 186/227/205 182/230/205 158/271/205
f 140/5/206 178/265/206 186/227/206 171/289/206
f 178/265/207 44/36/207 172/228/207 186/227/207
f 172/228/208 187/30/208 181/33/208 154/229/208
f 44/36/209 174/35/209 187/30/209 172/228/209
f 174/35/210 134/34/210 175/31/210 187/30/210
f 191/305/211 449/304/211 462/315/211 203/316/211
f 198/308/212 196/303/212 212/317/212 214/318/212
f 188/311/213 192/299/213 207/319/213 199/320/213
f 190/300/214 188/312/214 199/321/214 202/322/214
f 197/302/215 194/309/215 210/323/215 213/324/215
f 195/298/216 198/308/216 214/318/216 211/325/216
f 194/309/217 193/307/217 208/326/217 210/323/217
f 189/310/218 191/305/218 203/316/218 200/327/218
f 450/301/219 190/300/219 202/322/219 463/328/219
f 192/299/220 195/298/220 211/325/220 207/319/220
f 193/307/221 189/306/221 200/329/221 208/326/221
f 471/330/222 469/331/222 473/332/222 474/333/222
f 469/331/223 470/334/223 465/335/223 473/332/223
f 209/336/224 205/337/224 464/338/224 477/339/224
f 468/340/225 472/341/225 477/342/225 464/343/225
f 208/326/226 200/329/226 484/344/226 488/345/226
f 461/346/227 476/347/227 501/348/227 495/349/227
f 203/316/228 462/315/228 496/350/228 486/351/228
f 212/317/229 213/324/229 492/352/229 491/353/229
f 481/354/230 480/355/230 504/356/230 505/357/230
f 202/322/231 199/321/231 483/358/231 485/359/231
f 214/318/232 212/317/232 491/353/232 493/360/232
f 480/355/233 482/361/233 506/362/233 504/356/233
f 467/363/234 461/364/234 495/365/234 499/366/234
f 213/324/235 210/323/235 489/367/235 492/352/235
f 196/303/236 197/302/236 213/324/236 212/317/236
f 400/368/237 288/369/237 232/370/237 296/371/237
f 399/372/238 285/373/238 215/374/238 272/375/238 438/376/238
f 398/377/239 290/378/239 230/12/239 276/11/239
f 397/379/240 281/17/240 222/16/240 273/380/240
f 396/381/241 282/21/241 221/20/241 271/382/241
f 395/383/242 278/25/242 226/24/242 283/384/242
f 394/385/243 277/29/243 225/28/243 284/386/243
f 446/387/244 440/388/244 414/389/244 434/390/244
f 393/391/245 270/392/245 227/393/245 286/394/245 433/395/245
f 392/396/246 302/397/246 233/398/246 304/399/246
f 391/400/247 298/401/247 237/402/247 293/403/247
f 390/404/248 289/405/248 229/406/248 297/407/248
f 389/408/249 292/409/249 228/410/249 295/411/249
f 388/412/250 306/413/250 243/414/250 313/415/250
f 387/416/251 308/417/251 241/61/251 303/60/251
f 386/418/252 299/419/252 234/420/252 291/421/252
f 385/422/253 300/423/253 235/69/253 294/68/253
f 384/424/254 320/425/254 238/426/254 311/427/254
f 383/428/255 316/429/255 248/430/255 309/431/255
f 382/432/256 318/433/256 246/81/256 312/80/256
f 381/434/257 310/435/257 239/436/257 301/437/257
f 380/438/258 307/439/258 240/440/258 314/441/258
f 379/442/259 325/443/259 251/93/259 319/92/259
f 378/444/260 317/445/260 245/446/260 321/447/260
f 377/448/261 335/449/261 255/450/261 341/451/261
f 376/452/262 338/453/262 249/454/262 329/455/262
f 375/456/263 323/457/263 253/458/263 331/459/263
f 374/460/264 326/461/264 244/462/264 330/463/264
f 373/464/265 324/465/265 250/466/265 332/467/265
f 372/468/266 347/469/266 254/470/266 349/471/266
f 371/472/267 343/473/267 263/474/267 339/475/267
f 370/476/268 336/477/268 256/129/268 342/128/268
f 369/478/269 334/479/269 258/480/269 328/481/269
f 368/482/270 351/483/270 267/484/270 358/485/270
f 367/486/271 353/487/271 265/141/271 348/140/271
f 366/488/272 344/489/272 260/490/272 337/491/272
f 365/492/273 345/493/273 261/149/273 340/148/273
f 364/494/274 356/152/274 265/141/274 353/487/274
f 363/495/275 537/496/275 354/156/275 268/155/275 357/497/275
f 362/498/276 355/499/276 259/500/276 346/501/276
f 361/502/277 352/503/277 535/504/277 264/505/277 359/506/277
f 360/167/278 266/169/278 536/507/278 352/503/278 361/502/278
f 262/170/279 360/167/279 361/502/279 344/489/279
f 344/489/280 361/502/280 359/506/280 260/490/280
f 358/485/281 267/484/281 355/499/281 362/498/281
f 263/474/282 358/485/282 362/498/282 347/469/282
f 347/469/283 362/498/283 346/501/283 254/470/283
f 541/508/284 529/172/284 354/156/284 537/496/284
f 540/509/285 539/510/285 363/495/285 538/511/285
f 351/512/286 538/511/286 363/495/286 357/497/286 267/513/286
f 357/497/287 268/155/287 356/152/287 364/494/287
f 267/513/288 357/497/288 364/494/288 355/514/288
f 355/514/289 364/494/289 353/487/289 259/515/289
f 349/516/290 254/517/290 345/493/290 365/492/290
f 249/518/291 349/516/291 365/492/291 336/477/291
f 336/477/292 365/492/292 340/148/292 256/129/292
f 350/183/293 262/170/293 344/489/293 366/488/293
f 257/184/294 350/183/294 366/488/294 335/449/294
f 335/449/295 366/488/295 337/491/295 255/450/295
f 346/519/296 259/515/296 353/487/296 367/486/296
f 254/517/297 346/519/297 367/486/297 345/493/297
f 345/493/298 367/486/298 348/140/298 261/149/298
f 359/520/299 264/521/299 534/522/299 351/483/299 368/482/299
f 260/523/300 359/520/300 368/482/300 343/473/300
f 343/473/301 368/482/301 358/485/301 263/474/301
f 341/524/302 255/525/302 334/479/302 369/478/302
f 250/526/303 341/524/303 369/478/303 323/457/303
f 323/457/304 369/478/304 328/481/304 253/458/304
f 329/527/305 249/518/305 336/477/305 370/476/305
f 244/528/306 329/527/306 370/476/306 325/443/306
f 325/443/307 370/476/307 342/128/307 251/93/307
f 337/529/308 260/523/308 343/473/308 371/472/308
f 255/525/309 337/529/309 371/472/309 334/479/309
f 334/479/310 371/472/310 339/475/310 258/480/310
f 339/475/311 263/474/311 347/469/311 372/468/311
f 258/480/312 339/475/312 372/468/312 338/453/312
f 338/453/313 372/468/313 349/471/313 249/454/313
f 333/196/314 252/197/314 324/465/314 373/464/314
f 247/198/315 333/196/315 373/464/315 317/445/315
f 317/445/316 373/464/316 332/467/316 245/446/316
f 331/459/317 253/458/317 326/461/317 374/460/317
f 248/430/318 331/459/318 374/460/318 320/425/318
f 320/425/319 374/460/319 330/463/319 238/426/319
f 332/530/320 250/526/320 323/457/320 375/456/320
f 245/531/321 332/530/321 375/456/321 316/429/321
f 316/429/322 375/456/322 331/459/322 248/430/322
f 328/481/323 258/480/323 338/453/323 376/452/323
f 253/458/324 328/481/324 376/452/324 326/461/324
f 326/461/325 376/452/325 329/455/325 244/462/325
f 327/201/326 257/184/326 335/449/326 377/448/326
f 252/197/327 327/201/327 377/448/327 324/465/327
f 324/465/328 377/448/328 341/451/328 250/466/328
f 322/202/329 247/198/329 317/445/329 378/444/329
f 242/203/330 322/202/330 378/444/330 307/439/330
f 307/439/331 378/444/331 321/447/331 240/440/331
f 330/532/332 244/528/332 325/443/332 379/442/332
f 238/533/333 330/532/333 379/442/333 318/433/333
f 318/433/334 379/442/334 319/92/334 246/81/334
f 315/206/335 242/203/335 307/439/335 380/438/335
f 236/207/336 315/206/336 380/438/336 299/419/336
f 299/419/337 380/438/337 314/441/337 234/420/337
f 313/415/338 243/414/338 310/435/338 381/434/338
f 237/402/339 313/415/339 381/434/339 302/397/339
f 302/397/340 381/434/340 301/437/340 233/398/340
f 311/534/341 238/533/341 318/433/341 382/432/341
f 239/535/342 311/534/342 382/432/342 308/417/342
f 308/417/343 382/432/343 312/80/343 241/61/343
f 321/536/344 245/531/344 316/429/344 383/428/344
f 240/537/345 321/536/345 383/428/345 306/413/345
f 306/413/346 383/428/346 309/431/346 243/414/346
f 309/431/347 248/430/347 320/425/347 384/424/347
f 243/414/348 309/431/348 384/424/348 310/435/348
f 310/435/349 384/424/349 311/427/349 239/436/349
f 304/538/350 233/539/350 300/423/350 385/422/350
f 228/540/351 304/538/351 385/422/351 290/378/351
f 290/378/352 385/422/352 294/68/352 230/12/352
f 305/215/353 236/207/353 299/419/353 386/418/353
f 231/216/354 305/215/354 386/418/354 289/405/354
f 289/405/355 386/418/355 291/421/355 229/406/355
f 301/541/356 239/535/356 308/417/356 387/416/356
f 233/539/357 301/541/357 387/416/357 300/423/357
f 300/423/358 387/416/358 303/60/358 235/69/358
f 314/542/359 240/537/359 306/413/359 388/412/359
f 234/543/360 314/542/360 388/412/360 298/401/360
f 298/401/361 388/412/361 313/415/361 237/402/361
f 296/371/362 232/370/362 292/409/362 389/408/362
f 227/393/363 296/371/363 389/408/363 285/373/363
f 285/373/364 389/408/364 295/411/364 215/374/364
f 287/220/365 231/216/365 289/405/365 390/404/365
f 222/16/366 287/220/366 390/404/366 273/380/366
f 273/380/367 390/404/367 297/407/367 216/544/367
f 291/545/368 234/543/368 298/401/368 391/400/368
f 229/546/369 291/545/369 391/400/369 288/369/369
f 288/369/370 391/400/370 293/403/370 232/370/370
f 293/403/371 237/402/371 302/397/371 392/396/371
f 232/370/372 293/403/372 392/396/372 292/409/372
f 292/409/373 392/396/373 304/399/373 228/410/373
f 279/547/374 216/548/374 270/392/374 393/391/374 432/549/374
f 445/550/375 441/551/375 413/552/375 431/553/375
f 279/554/376 435/555/376 408/556/376 403/557/376 223/558/376
f 444/559/377 439/560/377 408/561/377 435/562/377
f 224/563/378 404/564/378 407/565/378 436/566/378 272/567/378
f 223/558/379 403/557/379 405/568/379 269/569/379
f 217/570/380 401/571/380 409/572/380 280/573/380
f 274/574/381 219/252/381 277/29/381 394/385/381
f 218/575/382 274/574/382 394/385/382 269/576/382
f 269/576/383 394/385/383 284/386/383 223/577/383
f 275/578/384 220/257/384 278/25/384 395/383/384
f 215/579/385 275/578/385 395/383/385 272/580/385
f 272/580/386 395/383/386 283/384/386 224/581/386
f 283/384/387 226/24/387 282/21/387 396/381/387
f 224/581/388 283/384/388 396/381/388 280/582/388
f 280/582/389 396/381/389 271/382/389 217/583/389
f 284/386/390 225/28/390 281/17/390 397/379/390
f 223/577/391 284/386/391 397/379/391 279/584/391
f 279/584/392 397/379/392 273/380/392 216/544/392
f 295/585/393 228/540/393 290/378/393 398/377/393
f 215/579/394 295/585/394 398/377/394 275/578/394
f 275/578/395 398/377/395 276/11/395 220/257/395
f 286/394/396 227/393/396 285/373/396 399/372/396 437/586/396
f 269/569/397 405/568/397 402/587/397 218/588/397
f 280/573/398 409/572/398 404/564/398 224/563/398
f 297/589/399 229/546/399 288/369/399 400/368/399
f 216/548/400 297/589/400 400/368/400 270/392/400
f 270/392/401 400/368/401 296/371/401 227/393/401
f 416/590/402 412/591/402 404/564/402 409/572/402
f 417/592/403 429/593/403 425/594/403 413/552/403 441/551/403
f 403/557/404 408/556/404 439/595/404 414/596/404 410/597/404
f 405/568/405 403/557/405 410/597/405 415/598/405
f 402/587/406 405/568/406 415/598/406 406/599/406
f 411/600/407 422/601/407 428/602/407 416/590/407
f 412/591/408 423/603/408 429/604/408 417/605/408
f 415/598/409 427/606/409 420/607/409 406/599/409
f 411/600/410 416/590/410 409/572/410 401/571/410
f 416/590/411 428/602/411 423/603/411 412/591/411
f 412/591/412 417/605/412 442/608/412 407/565/412 404/564/412
f 443/609/413 442/610/413 417/592/413 430/611/413
f 427/606/414 421/612/414 419/613/414 424/614/414
f 421/612/415 426/615/415 425/616/415 419/613/415
f 420/607/416 427/606/416 424/614/416 418/617/416
f 424/614/417 419/613/417 423/603/417 428/602/417
f 418/617/418 424/614/418 428/602/418 422/601/418
f 419/613/419 425/616/419 429/604/419 423/603/419
f 413/552/420 425/594/420 426/618/420 414/389/420 440/388/420
f 410/597/421 421/612/421 427/606/421 415/598/421
f 414/596/422 426/615/422 421/612/422 410/597/422
f 401/571/423 453/619/423 456/620/423 411/600/423
f 221/20/424 450/301/424 451/621/424 271/382/424
f 418/617/425 457/622/425 458/623/425 420/607/425
f 274/574/426 452/624/426 449/304/426 219/252/426
f 402/587/427 454/625/427 448/626/427 218/588/427
f 422/601/428 459/627/428 457/622/428 418/617/428
f 420/607/429 458/623/429 455/628/429 406/599/429
f 406/599/430 455/628/430 454/625/430 402/587/430
f 218/575/431 448/629/431 452/624/431 274/574/431
f 217/570/432 447/630/432 453/619/432 401/571/432
f 411/600/433 456/620/433 459/627/433 422/601/433
f 271/382/434 451/621/434 447/631/434 217/583/434
f 436/632/435 407/633/435 442/610/435 443/609/435
f 272/375/436 436/632/436 443/609/436 438/376/436
f 438/376/437 443/609/437 430/611/437 399/372/437
f 434/390/438 414/389/438 439/560/438 444/559/438
f 393/391/439 434/390/439 444/559/439 432/549/439
f 432/549/440 444/559/440 435/562/440 279/547/440
f 430/611/441 417/592/441 441/551/441 445/550/441
f 399/372/442 430/611/442 445/550/442 437/586/442
f 437/586/443 445/550/443 431/553/443 286/394/443
f 431/553/444 413/552/444 440/388/444 446/387/444
f 286/394/445 431/553/445 446/387/445 433/395/445
f 433/395/446 446/387/446 434/390/446 393/391/446
f 452/624/447 467/363/447 462/315/447 449/304/447
f 459/627/448 482/361/448 480/355/448 457/622/448
f 447/630/449 460/634/449 475/635/449 453/619/449
f 451/621/450 466/636/450 460/637/450 447/631/450
f 458/623/451 481/354/451 478/638/451 455/628/451
f 456/620/452 479/639/452 482/361/452 459/627/452
f 455/628/453 478/638/453 476/347/453 454/625/453
f 448/629/454 461/364/454 467/363/454 452/624/454
f 450/301/455 463/328/455 466/636/455 451/621/455
f 453/619/456 475/635/456 479/639/456 456/620/456
f 454/625/457 476/347/457 461/346/457 448/626/457
f 478/638/458 481/354/458 505/357/458 502/640/458
f 210/323/459 208/326/459 488/345/459 489/367/459
f 466/636/460 463/328/460 497/641/460 498/642/460
f 211/325/461 214/318/461 493/360/461 490/643/461
f 476/347/462 478/638/462 502/640/462 501/348/462
f 200/327/463 203/316/463 486/351/463 484/644/463
f 482/361/464 479/639/464 503/645/464 506/362/464
f 462/315/465 467/363/465 499/366/465 496/350/465
f 207/319/466 211/325/466 490/643/466 487/646/466
f 463/328/467 202/322/467 485/359/467 497/641/467
f 479/639/468 475/635/468 500/647/468 503/645/468
f 199/320/469 207/319/469 487/646/469 483/648/469
f 460/637/470 466/636/470 498/642/470 494/649/470
f 475/635/471 460/634/471 494/650/471 500/647/471
f 457/622/472 480/355/472 481/354/472 458/623/472
f 487/646/473 490/643/473 205/337/473 209/336/473
f 497/641/474 485/359/474 472/341/474 510/651/474
f 483/648/475 487/646/475 209/336/475 477/339/475
f 505/357/476 504/356/476 524/652/476 525/653/476
f 488/345/477 484/344/477 474/654/477 206/655/477
f 504/356/478 506/362/478 526/656/478 524/652/478
f 499/366/479 495/365/479 508/657/479 514/658/479
f 502/640/480 505/357/480 525/653/480
f 486/351/481 496/350/481 509/659/481 471/330/481
f 498/642/482 497/641/482 510/651/482 513/660/482
f 491/353/483 492/352/483 201/661/483 204/662/483
f 501/348/484 502/640/484 525/653/484 523/663/484
f 506/362/485 503/645/485 526/656/485
f 485/359/486 483/358/486 477/342/486 472/341/486
f 496/350/487 499/366/487 514/658/487 509/659/487
f 493/360/488 491/353/488 204/662/488 205/337/488
f 503/645/489 500/647/489 522/664/489 526/656/489
f 494/649/490 498/642/490 513/660/490 507/665/490
f 492/352/491 489/367/491 201/661/491
f 500/647/492 494/650/492 507/666/492 522/664/492
f 489/367/493 488/345/493 206/655/493 201/661/493
f 490/643/494 493/360/494 205/337/494
f 484/644/495 486/351/495 471/330/495 474/333/495
f 495/349/496 501/348/496 523/663/496 508/667/496
f 509/659/497 515/668/497 469/331/497 471/330/497
f 515/668/498 511/669/498 470/334/498 469/331/498
f 465/670/499 204/662/499 201/661/499 473/671/499
f 470/334/500 468/340/500 464/343/500 465/335/500
f 511/669/501 516/672/501 468/340/501 470/334/501
f 516/672/502 510/651/502 472/341/502 468/340/502
f 204/662/503 465/670/503 464/338/503 205/337/503
f 474/654/504 473/671/504 201/661/504 206/655/504
f 519/673/505 521/674/505 507/665/505 513/660/505
f 522/664/506 507/666/506 521/675/506 526/656/506
f 518/676/507 512/677/507 520/678/507 517/679/507
f 514/658/508 508/657/508 512/677/508 518/676/508
f 509/659/509 514/658/509 518/676/509 515/668/509
f 515/668/510 518/676/510 517/679/510 511/669/510
f 520/680/511 512/681/511 525/653/511 524/652/511
f 517/679/512 520/678/512 521/674/512 519/673/512
f 511/669/513 517/679/513 519/673/513 516/672/513
f 516/672/514 519/673/514 513/660/514 510/651/514
f 524/652/515 526/656/515 521/675/515 520/680/515
f 508/667/516 523/663/516 525/653/516 512/681/516
f 534/682/517 540/509/517 538/511/517 351/512/517
f 264/683/518 535/684/518 540/509/518 534/682/518
f 535/684/519 352/685/519 539/510/519 540/509/519
f 539/510/520 541/508/520 537/496/520 363/495/520
f 352/685/521 536/686/521 541/508/521 539/510/521
f 536/686/522 266/687/522 529/172/522 541/508/522
f 528/688/523 542/173/523 533/175/523 96/689/523
f 30/690/524 527/691/524 542/173/524 528/688/524
f 527/691/525 95/176/525 532/174/525 542/173/525
f 530/692/526 543/171/526 529/172/526 266/687/526
f 96/689/527 533/175/527 543/171/527 530/692/527
f 533/175/528 104/153/528 531/157/528 543/171/528
